{
  "Brygada": [
    {
      "Nazwa": "JAWORSKI MAREK",
      "Id": 10308,
      "Brygadzista": "WDOWIAK ANDREAS",
      "BrygadzistaId": 0,
      "Stanowisko": 0
    },
    {
      "Nazwa": "DAVYDOVYCH OLEH",
      "Id": 10753,
      "Brygadzista": "JAWORSKI MAREK",
      "BrygadzistaId": 10308,
      "Stanowisko": 0
    },
    {
      "Nazwa": "KISHAKOVSKYI ANDRII",
      "Id": 10793,
      "Brygadzista": "JAWORSKI MAREK",
      "BrygadzistaId": 10308,
      "Stanowisko": 0
    },
    {
      "Nazwa": "MIKOŁAJCZAK MARCIN",
      "Id": 10198,
      "Brygadzista": "JAWORSKI MAREK",
      "BrygadzistaId": 10308,
      "Stanowisko": 0
    },
    {
      "Nazwa": "NAWROCKI BŁAŻEJ",
      "Id": 60,
      "Brygadzista": "JAWORSKI MAREK",
      "BrygadzistaId": 10308,
      "Stanowisko": 0
    }
  ],
  "DniTygodnia": [
    {
      "data_pn": "24-06-2019",
      "data_wt": "25-06-2019",
      "data_sr": "26-06-2019",
      "data_cz": "27-06-2019",
      "data_pi": "28-06-2019",
      "data_so": "29-06-2019",
      "data_ni": "30-06-2019",
      "od_pn": "07.00",
      "od_wt": "00.00",
      "od_sr": "00.00",
      "od_cz": "00.00",
      "od_pi": "00.00",
      "od_so": "00.00",
      "od_ni": "00.00",
      "do_pn": "17.15",
      "do_wt": "00.00",
      "do_sr": "00.00",
      "do_cz": "00.00",
      "do_pi": "00.00",
      "do_so": "00.00",
      "do_ni": "00.00",
      "przestoje_pn": null,
      "przestoje_wt": null,
      "przestoje_sr": null,
      "przestoje_cz": null,
      "przestoje_pi": null,
      "przestoje_so": null,
      "przestoje_ni": null,
      "dojazd_pn": "3",
      "dojazd_wt": null,
      "dojazd_sr": null,
      "dojazd_cz": null,
      "dojazd_pi": null,
      "dojazd_so": null,
      "dojazd_ni": null,
      "dieta_pn": 1,
      "dieta_wt": 0,
      "dieta_sr": 0,
      "dieta_cz": 0,
      "dieta_pi": 0,
      "dieta_so": 0,
      "dieta_ni": 0
    },
    {
      "data_pn": "24-06-2019",
      "data_wt": "25-06-2019",
      "data_sr": "26-06-2019",
      "data_cz": "27-06-2019",
      "data_pi": "28-06-2019",
      "data_so": "29-06-2019",
      "data_ni": "30-06-2019",
      "od_pn": "07.00",
      "od_wt": "00.00",
      "od_sr": "00.00",
      "od_cz": "00.00",
      "od_pi": "00.00",
      "od_so": "00.00",
      "od_ni": "00.00",
      "do_pn": "17.15",
      "do_wt": "00.00",
      "do_sr": "00.00",
      "do_cz": "00.00",
      "do_pi": "00.00",
      "do_so": "00.00",
      "do_ni": "00.00",
      "przestoje_pn": null,
      "przestoje_wt": null,
      "przestoje_sr": null,
      "przestoje_cz": null,
      "przestoje_pi": null,
      "przestoje_so": null,
      "przestoje_ni": null,
      "dojazd_pn": null,
      "dojazd_wt": null,
      "dojazd_sr": null,
      "dojazd_cz": null,
      "dojazd_pi": null,
      "dojazd_so": null,
      "dojazd_ni": null,
      "dieta_pn": 1,
      "dieta_wt": 0,
      "dieta_sr": 0,
      "dieta_cz": 0,
      "dieta_pi": 0,
      "dieta_so": 0,
      "dieta_ni": 0
    },
    {
      "data_pn": "24-06-2019",
      "data_wt": "25-06-2019",
      "data_sr": "26-06-2019",
      "data_cz": "27-06-2019",
      "data_pi": "28-06-2019",
      "data_so": "29-06-2019",
      "data_ni": "30-06-2019",
      "od_pn": "07.00",
      "od_wt": "00.00",
      "od_sr": "00.00",
      "od_cz": "00.00",
      "od_pi": "00.00",
      "od_so": "00.00",
      "od_ni": "00.00",
      "do_pn": "17.15",
      "do_wt": "00.00",
      "do_sr": "00.00",
      "do_cz": "00.00",
      "do_pi": "00.00",
      "do_so": "00.00",
      "do_ni": "00.00",
      "przestoje_pn": null,
      "przestoje_wt": null,
      "przestoje_sr": null,
      "przestoje_cz": null,
      "przestoje_pi": null,
      "przestoje_so": null,
      "przestoje_ni": null,
      "dojazd_pn": null,
      "dojazd_wt": null,
      "dojazd_sr": null,
      "dojazd_cz": null,
      "dojazd_pi": null,
      "dojazd_so": null,
      "dojazd_ni": null,
      "dieta_pn": 1,
      "dieta_wt": 0,
      "dieta_sr": 0,
      "dieta_cz": 0,
      "dieta_pi": 0,
      "dieta_so": 0,
      "dieta_ni": 0
    },
    {
      "data_pn": "24-06-2019",
      "data_wt": "25-06-2019",
      "data_sr": "26-06-2019",
      "data_cz": "27-06-2019",
      "data_pi": "28-06-2019",
      "data_so": "29-06-2019",
      "data_ni": "30-06-2019",
      "od_pn": "07.00",
      "od_wt": "00.00",
      "od_sr": "00.00",
      "od_cz": "00.00",
      "od_pi": "00.00",
      "od_so": "00.00",
      "od_ni": "00.00",
      "do_pn": "17.15",
      "do_wt": "00.00",
      "do_sr": "00.00",
      "do_cz": "00.00",
      "do_pi": "00.00",
      "do_so": "00.00",
      "do_ni": "00.00",
      "przestoje_pn": null,
      "przestoje_wt": null,
      "przestoje_sr": null,
      "przestoje_cz": null,
      "przestoje_pi": null,
      "przestoje_so": null,
      "przestoje_ni": null,
      "dojazd_pn": null,
      "dojazd_wt": null,
      "dojazd_sr": null,
      "dojazd_cz": null,
      "dojazd_pi": null,
      "dojazd_so": null,
      "dojazd_ni": null,
      "dieta_pn": 1,
      "dieta_wt": 0,
      "dieta_sr": 0,
      "dieta_cz": 0,
      "dieta_pi": 0,
      "dieta_so": 0,
      "dieta_ni": 0
    },
    {
      "data_pn": "24-06-2019",
      "data_wt": "25-06-2019",
      "data_sr": "26-06-2019",
      "data_cz": "27-06-2019",
      "data_pi": "28-06-2019",
      "data_so": "29-06-2019",
      "data_ni": "30-06-2019",
      "od_pn": "07.00",
      "od_wt": "00.00",
      "od_sr": "00.00",
      "od_cz": "00.00",
      "od_pi": "00.00",
      "od_so": "00.00",
      "od_ni": "00.00",
      "do_pn": "17.15",
      "do_wt": "00.00",
      "do_sr": "00.00",
      "do_cz": "00.00",
      "do_pi": "00.00",
      "do_so": "00.00",
      "do_ni": "00.00",
      "przestoje_pn": null,
      "przestoje_wt": null,
      "przestoje_sr": null,
      "przestoje_cz": null,
      "przestoje_pi": null,
      "przestoje_so": null,
      "przestoje_ni": null,
      "dojazd_pn": null,
      "dojazd_wt": null,
      "dojazd_sr": null,
      "dojazd_cz": null,
      "dojazd_pi": null,
      "dojazd_so": null,
      "dojazd_ni": null,
      "dieta_pn": 1,
      "dieta_wt": 0,
      "dieta_sr": 0,
      "dieta_cz": 0,
      "dieta_pi": 0,
      "dieta_so": 0,
      "dieta_ni": 0
    }
  ],
  "Tydzien": {},
  "Brygadzista": {
    "Nazwa": "JAWORSKI MAREK",
    "Id": 10308,
    "Brygadzista": "WDOWIAK ANDREAS",
    "BrygadzistaId": 0,
    "Stanowisko": 0
  }
}{
  "Id": 0,
  "Nazwa": "Xeos Środa slaska",
  "Numer": "0"
}
"2019.26"

__________________________________________
