{
  "Brygada": [
    {
      "Nazwa": "ŁAPTAS TOMASZ",
      "Id": 48,
      "Brygadzista": "WDOWIAK ANDREAS",
      "BrygadzistaId": 0,
      "Stanowisko": 0
    }
  ],
  "DniTygodnia": [
    {
      "data_pn": "01-07-2019",
      "data_wt": "02-07-2019",
      "data_sr": "03-07-2019",
      "data_cz": "04-07-2019",
      "data_pi": "05-07-2019",
      "data_so": "06-07-2019",
      "data_ni": "07-07-2019",
      "od_pn": "00.00",
      "od_wt": "00.00",
      "od_sr": "00.00",
      "od_cz": "00.00",
      "od_pi": "00.00",
      "od_so": "00.00",
      "od_ni": "00.00",
      "do_pn": "00.00",
      "do_wt": "00.00",
      "do_sr": "00.00",
      "do_cz": "00.00",
      "do_pi": "00.00",
      "do_so": "00.00",
      "do_ni": "00.00",
      "przestoje_pn": null,
      "przestoje_wt": null,
      "przestoje_sr": null,
      "przestoje_cz": null,
      "przestoje_pi": null,
      "przestoje_so": null,
      "przestoje_ni": null,
      "dojazd_pn": null,
      "dojazd_wt": null,
      "dojazd_sr": null,
      "dojazd_cz": null,
      "dojazd_pi": null,
      "dojazd_so": null,
      "dojazd_ni": null,
      "dieta_pn": 0,
      "dieta_wt": 0,
      "dieta_sr": 0,
      "dieta_cz": 0,
      "dieta_pi": 0,
      "dieta_so": 0,
      "dieta_ni": 0
    }
  ],
  "Tydzien": {},
  "Brygadzista": {
    "Nazwa": "ŁAPTAS TOMASZ",
    "Id": 48,
    "Brygadzista": "WDOWIAK ANDREAS",
    "BrygadzistaId": 0,
    "Stanowisko": 0
  }
}{
  "Id": 12322,
  "Nazwa": "[831] Panattoni Tychy",
  "Numer": "831"
}
"2019.27"

__________________________________________
