19-05-2020 19:49:13
{
  "Id": 0,
  "rok": 2020,
  "miesiac": 0,
  "brygadzistaID": 10758,
  "data_wprowadzenia": "19-05-2020 12:00",
  "data_modyfikacji": null,
  "budowaID": 12431,
  "podpis": null,
  "pracownikID": 10758,
  "od_pn": "07.00",
  "do_pn": "17.00",
  "przestoje_pn": null,
  "dojazd_pn": "2",
  "dieta_pn": "1",
  "od_wt": "07.00",
  "do_wt": "17.00",
  "przestoje_wt": null,
  "dojazd_wt": "1",
  "dieta_wt": "1",
  "od_sr": "07.00",
  "do_sr": "17.00",
  "przestoje_sr": null,
  "dojazd_sr": "1",
  "dieta_sr": "1",
  "od_cz": "07.00",
  "do_cz": "17.00",
  "przestoje_cz": null,
  "dojazd_cz": "1",
  "dieta_cz": "1",
  "od_pi": "07.00",
  "do_pi": "17.00",
  "przestoje_pi": null,
  "dojazd_pi": "2",
  "dieta_pi": "1",
  "od_so": "00.00",
  "do_so": "00.00",
  "przestoje_so": null,
  "dojazd_so": null,
  "dieta_so": "0",
  "od_ni": "00.00",
  "do_ni": "00.00",
  "przestoje_ni": null,
  "dojazd_ni": null,
  "dieta_ni": "0",
  "rokTydzien": "2020.20",
  "export": 0,
  "komentarz": null,
  "obecny": "brak"
}
:::Tydzień:::2020.20

:::Budowa:::[853] KELLOGS KUTNO-PRZEBUDOWA I ROZBUDOWA BUDYNKU PRODUKCYJNO MAGAZYNOWEGO WRAZ Z OBIEKTAMI TECHNICZNYMI, DROGAMI WEWNĘTRZNYMI ORAZ INFRASTRUKTURĄ TOWARZYSZĄCĄ [PROJEKT p0413] [UMOWA NR 024/UMA_KUTNO].
***************************************
19-05-2020 19:49:13
{
  "Id": 0,
  "rok": 2020,
  "miesiac": 0,
  "brygadzistaID": 10758,
  "data_wprowadzenia": "19-05-2020 12:00",
  "data_modyfikacji": null,
  "budowaID": 12431,
  "podpis": null,
  "pracownikID": 10827,
  "od_pn": "07.00",
  "do_pn": "17.00",
  "przestoje_pn": null,
  "dojazd_pn": null,
  "dieta_pn": "1",
  "od_wt": "07.00",
  "do_wt": "17.00",
  "przestoje_wt": null,
  "dojazd_wt": null,
  "dieta_wt": "1",
  "od_sr": "07.00",
  "do_sr": "17.00",
  "przestoje_sr": null,
  "dojazd_sr": null,
  "dieta_sr": "1",
  "od_cz": "00.00",
  "do_cz": "00.00",
  "przestoje_cz": null,
  "dojazd_cz": null,
  "dieta_cz": "0",
  "od_pi": "00.00",
  "do_pi": "00.00",
  "przestoje_pi": null,
  "dojazd_pi": null,
  "dieta_pi": "0",
  "od_so": "00.00",
  "do_so": "00.00",
  "przestoje_so": null,
  "dojazd_so": null,
  "dieta_so": "0",
  "od_ni": "00.00",
  "do_ni": "00.00",
  "przestoje_ni": null,
  "dojazd_ni": null,
  "dieta_ni": "0",
  "rokTydzien": "2020.20",
  "export": 0,
  "komentarz": null,
  "obecny": "brak"
}
:::Tydzień:::2020.20

:::Budowa:::[853] KELLOGS KUTNO-PRZEBUDOWA I ROZBUDOWA BUDYNKU PRODUKCYJNO MAGAZYNOWEGO WRAZ Z OBIEKTAMI TECHNICZNYMI, DROGAMI WEWNĘTRZNYMI ORAZ INFRASTRUKTURĄ TOWARZYSZĄCĄ [PROJEKT p0413] [UMOWA NR 024/UMA_KUTNO].
***************************************
19-05-2020 19:49:13
{
  "Id": 0,
  "rok": 2020,
  "miesiac": 0,
  "brygadzistaID": 10758,
  "data_wprowadzenia": "19-05-2020 12:00",
  "data_modyfikacji": null,
  "budowaID": 12431,
  "podpis": null,
  "pracownikID": 10856,
  "od_pn": "07.00",
  "do_pn": "17.00",
  "przestoje_pn": null,
  "dojazd_pn": null,
  "dieta_pn": "1",
  "od_wt": "07.00",
  "do_wt": "17.00",
  "przestoje_wt": null,
  "dojazd_wt": null,
  "dieta_wt": "1",
  "od_sr": "07.00",
  "do_sr": "17.00",
  "przestoje_sr": null,
  "dojazd_sr": null,
  "dieta_sr": "1",
  "od_cz": "07.00",
  "do_cz": "17.00",
  "przestoje_cz": null,
  "dojazd_cz": null,
  "dieta_cz": "1",
  "od_pi": "07.00",
  "do_pi": "17.00",
  "przestoje_pi": null,
  "dojazd_pi": null,
  "dieta_pi": "1",
  "od_so": "00.00",
  "do_so": "00.00",
  "przestoje_so": null,
  "dojazd_so": null,
  "dieta_so": "0",
  "od_ni": "00.00",
  "do_ni": "00.00",
  "przestoje_ni": null,
  "dojazd_ni": null,
  "dieta_ni": "0",
  "rokTydzien": "2020.20",
  "export": 0,
  "komentarz": null,
  "obecny": "brak"
}
:::Tydzień:::2020.20

:::Budowa:::[853] KELLOGS KUTNO-PRZEBUDOWA I ROZBUDOWA BUDYNKU PRODUKCYJNO MAGAZYNOWEGO WRAZ Z OBIEKTAMI TECHNICZNYMI, DROGAMI WEWNĘTRZNYMI ORAZ INFRASTRUKTURĄ TOWARZYSZĄCĄ [PROJEKT p0413] [UMOWA NR 024/UMA_KUTNO].
***************************************
19-05-2020 19:49:16
{
  "Id": 4604,
  "rok": 2020,
  "miesiac": 0,
  "brygadzistaID": 10758,
  "data_wprowadzenia": "19-05-2020 12:00    ",
  "data_modyfikacji": "19-05-2020 12:00",
  "budowaID": 12431,
  "podpis": null,
  "pracownikID": 10758,
  "od_pn": "07.00",
  "do_pn": "17.00",
  "przestoje_pn": null,
  "dojazd_pn": "2",
  "dieta_pn": "1",
  "od_wt": "07.00",
  "do_wt": "17.00",
  "przestoje_wt": null,
  "dojazd_wt": "1",
  "dieta_wt": "1",
  "od_sr": "07.00",
  "do_sr": "17.00",
  "przestoje_sr": null,
  "dojazd_sr": "1",
  "dieta_sr": "1",
  "od_cz": "07.00",
  "do_cz": "17.00",
  "przestoje_cz": null,
  "dojazd_cz": "1",
  "dieta_cz": "1",
  "od_pi": "07.00",
  "do_pi": "17.00",
  "przestoje_pi": null,
  "dojazd_pi": "2",
  "dieta_pi": "1",
  "od_so": "00.00",
  "do_so": "00.00",
  "przestoje_so": null,
  "dojazd_so": null,
  "dieta_so": "0",
  "od_ni": "00.00",
  "do_ni": "00.00",
  "przestoje_ni": null,
  "dojazd_ni": null,
  "dieta_ni": "0",
  "rokTydzien": "2020.20",
  "export": 0,
  "komentarz": null,
  "obecny": "brak"
}
:::Tydzień:::2020.20

:::Budowa:::[853] KELLOGS KUTNO-PRZEBUDOWA I ROZBUDOWA BUDYNKU PRODUKCYJNO MAGAZYNOWEGO WRAZ Z OBIEKTAMI TECHNICZNYMI, DROGAMI WEWNĘTRZNYMI ORAZ INFRASTRUKTURĄ TOWARZYSZĄCĄ [PROJEKT p0413] [UMOWA NR 024/UMA_KUTNO].
***************************************
19-05-2020 19:49:16
{
  "Id": 4605,
  "rok": 2020,
  "miesiac": 0,
  "brygadzistaID": 10758,
  "data_wprowadzenia": "19-05-2020 12:00    ",
  "data_modyfikacji": "19-05-2020 12:00",
  "budowaID": 12431,
  "podpis": null,
  "pracownikID": 10827,
  "od_pn": "07.00",
  "do_pn": "17.00",
  "przestoje_pn": null,
  "dojazd_pn": null,
  "dieta_pn": "1",
  "od_wt": "07.00",
  "do_wt": "17.00",
  "przestoje_wt": null,
  "dojazd_wt": null,
  "dieta_wt": "1",
  "od_sr": "07.00",
  "do_sr": "17.00",
  "przestoje_sr": null,
  "dojazd_sr": null,
  "dieta_sr": "1",
  "od_cz": "00.00",
  "do_cz": "00.00",
  "przestoje_cz": null,
  "dojazd_cz": null,
  "dieta_cz": "0",
  "od_pi": "00.00",
  "do_pi": "00.00",
  "przestoje_pi": null,
  "dojazd_pi": null,
  "dieta_pi": "0",
  "od_so": "00.00",
  "do_so": "00.00",
  "przestoje_so": null,
  "dojazd_so": null,
  "dieta_so": "0",
  "od_ni": "00.00",
  "do_ni": "00.00",
  "przestoje_ni": null,
  "dojazd_ni": null,
  "dieta_ni": "0",
  "rokTydzien": "2020.20",
  "export": 0,
  "komentarz": null,
  "obecny": "brak"
}
:::Tydzień:::2020.20

:::Budowa:::[853] KELLOGS KUTNO-PRZEBUDOWA I ROZBUDOWA BUDYNKU PRODUKCYJNO MAGAZYNOWEGO WRAZ Z OBIEKTAMI TECHNICZNYMI, DROGAMI WEWNĘTRZNYMI ORAZ INFRASTRUKTURĄ TOWARZYSZĄCĄ [PROJEKT p0413] [UMOWA NR 024/UMA_KUTNO].
***************************************
19-05-2020 19:49:16
{
  "Id": 4606,
  "rok": 2020,
  "miesiac": 0,
  "brygadzistaID": 10758,
  "data_wprowadzenia": "19-05-2020 12:00    ",
  "data_modyfikacji": "19-05-2020 12:00",
  "budowaID": 12431,
  "podpis": null,
  "pracownikID": 10856,
  "od_pn": "07.00",
  "do_pn": "17.00",
  "przestoje_pn": null,
  "dojazd_pn": null,
  "dieta_pn": "1",
  "od_wt": "07.00",
  "do_wt": "17.00",
  "przestoje_wt": null,
  "dojazd_wt": null,
  "dieta_wt": "1",
  "od_sr": "07.00",
  "do_sr": "17.00",
  "przestoje_sr": null,
  "dojazd_sr": null,
  "dieta_sr": "1",
  "od_cz": "07.00",
  "do_cz": "17.00",
  "przestoje_cz": null,
  "dojazd_cz": null,
  "dieta_cz": "1",
  "od_pi": "07.00",
  "do_pi": "17.00",
  "przestoje_pi": null,
  "dojazd_pi": null,
  "dieta_pi": "1",
  "od_so": "00.00",
  "do_so": "00.00",
  "przestoje_so": null,
  "dojazd_so": null,
  "dieta_so": "0",
  "od_ni": "00.00",
  "do_ni": "00.00",
  "przestoje_ni": null,
  "dojazd_ni": null,
  "dieta_ni": "0",
  "rokTydzien": "2020.20",
  "export": 0,
  "komentarz": null,
  "obecny": "brak"
}
:::Tydzień:::2020.20

:::Budowa:::[853] KELLOGS KUTNO-PRZEBUDOWA I ROZBUDOWA BUDYNKU PRODUKCYJNO MAGAZYNOWEGO WRAZ Z OBIEKTAMI TECHNICZNYMI, DROGAMI WEWNĘTRZNYMI ORAZ INFRASTRUKTURĄ TOWARZYSZĄCĄ [PROJEKT p0413] [UMOWA NR 024/UMA_KUTNO].
***************************************
