07-09-2019 09:46:18
{
  "Id": 0,
  "rok": 2019,
  "miesiac": 0,
  "brygadzistaID": 10758,
  "data_wprowadzenia": "07-09-2019 12:00",
  "data_modyfikacji": null,
  "budowaID": 12257,
  "podpis": "10758-10758-2019.36-07-09-2019.png",
  "pracownikID": 10758,
  "od_pn": "07.00",
  "do_pn": "15.00",
  "przestoje_pn": null,
  "dojazd_pn": "1",
  "dieta_pn": "1",
  "od_wt": "07.00",
  "do_wt": "17.00",
  "przestoje_wt": null,
  "dojazd_wt": "1",
  "dieta_wt": "1",
  "od_sr": "06.00",
  "do_sr": "16.00",
  "przestoje_sr": null,
  "dojazd_sr": "1",
  "dieta_sr": "1",
  "od_cz": "06.00",
  "do_cz": "16.00",
  "przestoje_cz": null,
  "dojazd_cz": "1",
  "dieta_cz": "1",
  "od_pi": "06.00",
  "do_pi": "14.00",
  "przestoje_pi": null,
  "dojazd_pi": "1",
  "dieta_pi": "1",
  "od_so": "06.00",
  "do_so": "10.00",
  "przestoje_so": null,
  "dojazd_so": "3",
  "dieta_so": "1",
  "od_ni": "00.00",
  "do_ni": "00.00",
  "przestoje_ni": null,
  "dojazd_ni": null,
  "dieta_ni": "0",
  "rokTydzien": "2019.36",
  "export": 0,
  "komentarz": null
}
:::Tydzień:::2019.36

:::Budowa:::[823] Projekt LGCWA P3 Project. Wykonanie Obudowy i Dachu Budynku Electrode (401) oraz Budynku Formation 2 (701) [Umowa nr LGCWA-P3-WP-18-02-03-011]
***************************************
07-09-2019 09:46:18
{
  "Id": 0,
  "rok": 2019,
  "miesiac": 0,
  "brygadzistaID": 10758,
  "data_wprowadzenia": "07-09-2019 12:00",
  "data_modyfikacji": null,
  "budowaID": 12257,
  "podpis": "10758-10827-2019.36-07-09-2019.png",
  "pracownikID": 10827,
  "od_pn": "07.00",
  "do_pn": "15.00",
  "przestoje_pn": null,
  "dojazd_pn": null,
  "dieta_pn": "1",
  "od_wt": "07.00",
  "do_wt": "17.00",
  "przestoje_wt": null,
  "dojazd_wt": null,
  "dieta_wt": "1",
  "od_sr": "06.00",
  "do_sr": "16.00",
  "przestoje_sr": null,
  "dojazd_sr": null,
  "dieta_sr": "1",
  "od_cz": "06.00",
  "do_cz": "16.00",
  "przestoje_cz": null,
  "dojazd_cz": null,
  "dieta_cz": "1",
  "od_pi": "06.00",
  "do_pi": "14.00",
  "przestoje_pi": null,
  "dojazd_pi": null,
  "dieta_pi": "1",
  "od_so": "06.00",
  "do_so": "10.00",
  "przestoje_so": null,
  "dojazd_so": null,
  "dieta_so": "1",
  "od_ni": "00.00",
  "do_ni": "00.00",
  "przestoje_ni": null,
  "dojazd_ni": null,
  "dieta_ni": "0",
  "rokTydzien": "2019.36",
  "export": 0,
  "komentarz": null
}
:::Tydzień:::2019.36

:::Budowa:::[823] Projekt LGCWA P3 Project. Wykonanie Obudowy i Dachu Budynku Electrode (401) oraz Budynku Formation 2 (701) [Umowa nr LGCWA-P3-WP-18-02-03-011]
***************************************
07-09-2019 09:46:18
{
  "Id": 0,
  "rok": 2019,
  "miesiac": 0,
  "brygadzistaID": 10758,
  "data_wprowadzenia": "07-09-2019 12:00",
  "data_modyfikacji": null,
  "budowaID": 12257,
  "podpis": "10758-10810-2019.36-07-09-2019.png",
  "pracownikID": 10810,
  "od_pn": "07.00",
  "do_pn": "15.00",
  "przestoje_pn": null,
  "dojazd_pn": null,
  "dieta_pn": "1",
  "od_wt": "07.00",
  "do_wt": "17.00",
  "przestoje_wt": null,
  "dojazd_wt": null,
  "dieta_wt": "1",
  "od_sr": "06.00",
  "do_sr": "16.00",
  "przestoje_sr": null,
  "dojazd_sr": null,
  "dieta_sr": "1",
  "od_cz": "06.00",
  "do_cz": "16.00",
  "przestoje_cz": null,
  "dojazd_cz": null,
  "dieta_cz": "1",
  "od_pi": "06.00",
  "do_pi": "14.00",
  "przestoje_pi": null,
  "dojazd_pi": null,
  "dieta_pi": "1",
  "od_so": "06.00",
  "do_so": "10.00",
  "przestoje_so": null,
  "dojazd_so": null,
  "dieta_so": "1",
  "od_ni": "00.00",
  "do_ni": "00.00",
  "przestoje_ni": null,
  "dojazd_ni": null,
  "dieta_ni": "0",
  "rokTydzien": "2019.36",
  "export": 0,
  "komentarz": null
}
:::Tydzień:::2019.36

:::Budowa:::[823] Projekt LGCWA P3 Project. Wykonanie Obudowy i Dachu Budynku Electrode (401) oraz Budynku Formation 2 (701) [Umowa nr LGCWA-P3-WP-18-02-03-011]
***************************************
07-09-2019 09:46:18
{
  "Id": 0,
  "rok": 2019,
  "miesiac": 0,
  "brygadzistaID": 10758,
  "data_wprowadzenia": "07-09-2019 12:00",
  "data_modyfikacji": null,
  "budowaID": 12257,
  "podpis": "10758-10786-2019.36-07-09-2019.png",
  "pracownikID": 10786,
  "od_pn": "07.00",
  "do_pn": "15.00",
  "przestoje_pn": null,
  "dojazd_pn": null,
  "dieta_pn": "1",
  "od_wt": "07.00",
  "do_wt": "17.00",
  "przestoje_wt": null,
  "dojazd_wt": null,
  "dieta_wt": "1",
  "od_sr": "06.00",
  "do_sr": "16.00",
  "przestoje_sr": null,
  "dojazd_sr": null,
  "dieta_sr": "1",
  "od_cz": "06.00",
  "do_cz": "16.00",
  "przestoje_cz": null,
  "dojazd_cz": null,
  "dieta_cz": "1",
  "od_pi": "06.00",
  "do_pi": "14.00",
  "przestoje_pi": null,
  "dojazd_pi": null,
  "dieta_pi": "1",
  "od_so": "06.00",
  "do_so": "10.00",
  "przestoje_so": null,
  "dojazd_so": null,
  "dieta_so": "1",
  "od_ni": "00.00",
  "do_ni": "00.00",
  "przestoje_ni": null,
  "dojazd_ni": null,
  "dieta_ni": "0",
  "rokTydzien": "2019.36",
  "export": 0,
  "komentarz": null
}
:::Tydzień:::2019.36

:::Budowa:::[823] Projekt LGCWA P3 Project. Wykonanie Obudowy i Dachu Budynku Electrode (401) oraz Budynku Formation 2 (701) [Umowa nr LGCWA-P3-WP-18-02-03-011]
***************************************
07-09-2019 09:46:18
{
  "Id": 0,
  "rok": 2019,
  "miesiac": 0,
  "brygadzistaID": 10758,
  "data_wprowadzenia": "07-09-2019 12:00",
  "data_modyfikacji": null,
  "budowaID": 12257,
  "podpis": "10758-10791-2019.36-07-09-2019.png",
  "pracownikID": 10791,
  "od_pn": "07.00",
  "do_pn": "15.00",
  "przestoje_pn": null,
  "dojazd_pn": null,
  "dieta_pn": "1",
  "od_wt": "07.00",
  "do_wt": "17.00",
  "przestoje_wt": null,
  "dojazd_wt": null,
  "dieta_wt": "1",
  "od_sr": "06.00",
  "do_sr": "16.00",
  "przestoje_sr": null,
  "dojazd_sr": null,
  "dieta_sr": "1",
  "od_cz": "06.00",
  "do_cz": "16.00",
  "przestoje_cz": null,
  "dojazd_cz": null,
  "dieta_cz": "1",
  "od_pi": "06.00",
  "do_pi": "14.00",
  "przestoje_pi": null,
  "dojazd_pi": null,
  "dieta_pi": "1",
  "od_so": "06.00",
  "do_so": "10.00",
  "przestoje_so": null,
  "dojazd_so": null,
  "dieta_so": "1",
  "od_ni": "00.00",
  "do_ni": "00.00",
  "przestoje_ni": null,
  "dojazd_ni": null,
  "dieta_ni": "0",
  "rokTydzien": "2019.36",
  "export": 0,
  "komentarz": null
}
:::Tydzień:::2019.36

:::Budowa:::[823] Projekt LGCWA P3 Project. Wykonanie Obudowy i Dachu Budynku Electrode (401) oraz Budynku Formation 2 (701) [Umowa nr LGCWA-P3-WP-18-02-03-011]
***************************************
07-09-2019 09:46:22
{
  "Id": 2379,
  "rok": 2019,
  "miesiac": 0,
  "brygadzistaID": 10758,
  "data_wprowadzenia": "07-09-2019 12:00    ",
  "data_modyfikacji": "07-09-2019 12:00",
  "budowaID": 12257,
  "podpis": "10758-10758-2019.36-07-09-2019.png",
  "pracownikID": 10758,
  "od_pn": "07.00",
  "do_pn": "15.00",
  "przestoje_pn": null,
  "dojazd_pn": "1",
  "dieta_pn": "1",
  "od_wt": "07.00",
  "do_wt": "17.00",
  "przestoje_wt": null,
  "dojazd_wt": "1",
  "dieta_wt": "1",
  "od_sr": "06.00",
  "do_sr": "16.00",
  "przestoje_sr": null,
  "dojazd_sr": "1",
  "dieta_sr": "1",
  "od_cz": "06.00",
  "do_cz": "16.00",
  "przestoje_cz": null,
  "dojazd_cz": "1",
  "dieta_cz": "1",
  "od_pi": "06.00",
  "do_pi": "14.00",
  "przestoje_pi": null,
  "dojazd_pi": "1",
  "dieta_pi": "1",
  "od_so": "06.00",
  "do_so": "10.00",
  "przestoje_so": null,
  "dojazd_so": "3",
  "dieta_so": "1",
  "od_ni": "00.00",
  "do_ni": "00.00",
  "przestoje_ni": null,
  "dojazd_ni": null,
  "dieta_ni": "0",
  "rokTydzien": "2019.36",
  "export": 0,
  "komentarz": null
}
:::Tydzień:::2019.36

:::Budowa:::[823] Projekt LGCWA P3 Project. Wykonanie Obudowy i Dachu Budynku Electrode (401) oraz Budynku Formation 2 (701) [Umowa nr LGCWA-P3-WP-18-02-03-011]
***************************************
07-09-2019 09:46:23
{
  "Id": 2380,
  "rok": 2019,
  "miesiac": 0,
  "brygadzistaID": 10758,
  "data_wprowadzenia": "07-09-2019 12:00    ",
  "data_modyfikacji": "07-09-2019 12:00",
  "budowaID": 12257,
  "podpis": "10758-10827-2019.36-07-09-2019.png",
  "pracownikID": 10827,
  "od_pn": "07.00",
  "do_pn": "15.00",
  "przestoje_pn": null,
  "dojazd_pn": null,
  "dieta_pn": "1",
  "od_wt": "07.00",
  "do_wt": "17.00",
  "przestoje_wt": null,
  "dojazd_wt": null,
  "dieta_wt": "1",
  "od_sr": "06.00",
  "do_sr": "16.00",
  "przestoje_sr": null,
  "dojazd_sr": null,
  "dieta_sr": "1",
  "od_cz": "06.00",
  "do_cz": "16.00",
  "przestoje_cz": null,
  "dojazd_cz": null,
  "dieta_cz": "1",
  "od_pi": "06.00",
  "do_pi": "14.00",
  "przestoje_pi": null,
  "dojazd_pi": null,
  "dieta_pi": "1",
  "od_so": "06.00",
  "do_so": "10.00",
  "przestoje_so": null,
  "dojazd_so": null,
  "dieta_so": "1",
  "od_ni": "00.00",
  "do_ni": "00.00",
  "przestoje_ni": null,
  "dojazd_ni": null,
  "dieta_ni": "0",
  "rokTydzien": "2019.36",
  "export": 0,
  "komentarz": null
}
:::Tydzień:::2019.36

:::Budowa:::[823] Projekt LGCWA P3 Project. Wykonanie Obudowy i Dachu Budynku Electrode (401) oraz Budynku Formation 2 (701) [Umowa nr LGCWA-P3-WP-18-02-03-011]
***************************************
07-09-2019 09:46:23
{
  "Id": 2381,
  "rok": 2019,
  "miesiac": 0,
  "brygadzistaID": 10758,
  "data_wprowadzenia": "07-09-2019 12:00    ",
  "data_modyfikacji": "07-09-2019 12:00",
  "budowaID": 12257,
  "podpis": "10758-10810-2019.36-07-09-2019.png",
  "pracownikID": 10810,
  "od_pn": "07.00",
  "do_pn": "15.00",
  "przestoje_pn": null,
  "dojazd_pn": null,
  "dieta_pn": "1",
  "od_wt": "07.00",
  "do_wt": "17.00",
  "przestoje_wt": null,
  "dojazd_wt": null,
  "dieta_wt": "1",
  "od_sr": "06.00",
  "do_sr": "16.00",
  "przestoje_sr": null,
  "dojazd_sr": null,
  "dieta_sr": "1",
  "od_cz": "06.00",
  "do_cz": "16.00",
  "przestoje_cz": null,
  "dojazd_cz": null,
  "dieta_cz": "1",
  "od_pi": "06.00",
  "do_pi": "14.00",
  "przestoje_pi": null,
  "dojazd_pi": null,
  "dieta_pi": "1",
  "od_so": "06.00",
  "do_so": "10.00",
  "przestoje_so": null,
  "dojazd_so": null,
  "dieta_so": "1",
  "od_ni": "00.00",
  "do_ni": "00.00",
  "przestoje_ni": null,
  "dojazd_ni": null,
  "dieta_ni": "0",
  "rokTydzien": "2019.36",
  "export": 0,
  "komentarz": null
}
:::Tydzień:::2019.36

:::Budowa:::[823] Projekt LGCWA P3 Project. Wykonanie Obudowy i Dachu Budynku Electrode (401) oraz Budynku Formation 2 (701) [Umowa nr LGCWA-P3-WP-18-02-03-011]
***************************************
07-09-2019 09:46:23
{
  "Id": 2382,
  "rok": 2019,
  "miesiac": 0,
  "brygadzistaID": 10758,
  "data_wprowadzenia": "07-09-2019 12:00    ",
  "data_modyfikacji": "07-09-2019 12:00",
  "budowaID": 12257,
  "podpis": "10758-10786-2019.36-07-09-2019.png",
  "pracownikID": 10786,
  "od_pn": "07.00",
  "do_pn": "15.00",
  "przestoje_pn": null,
  "dojazd_pn": null,
  "dieta_pn": "1",
  "od_wt": "07.00",
  "do_wt": "17.00",
  "przestoje_wt": null,
  "dojazd_wt": null,
  "dieta_wt": "1",
  "od_sr": "06.00",
  "do_sr": "16.00",
  "przestoje_sr": null,
  "dojazd_sr": null,
  "dieta_sr": "1",
  "od_cz": "06.00",
  "do_cz": "16.00",
  "przestoje_cz": null,
  "dojazd_cz": null,
  "dieta_cz": "1",
  "od_pi": "06.00",
  "do_pi": "14.00",
  "przestoje_pi": null,
  "dojazd_pi": null,
  "dieta_pi": "1",
  "od_so": "06.00",
  "do_so": "10.00",
  "przestoje_so": null,
  "dojazd_so": null,
  "dieta_so": "1",
  "od_ni": "00.00",
  "do_ni": "00.00",
  "przestoje_ni": null,
  "dojazd_ni": null,
  "dieta_ni": "0",
  "rokTydzien": "2019.36",
  "export": 0,
  "komentarz": null
}
:::Tydzień:::2019.36

:::Budowa:::[823] Projekt LGCWA P3 Project. Wykonanie Obudowy i Dachu Budynku Electrode (401) oraz Budynku Formation 2 (701) [Umowa nr LGCWA-P3-WP-18-02-03-011]
***************************************
07-09-2019 09:46:23
{
  "Id": 2383,
  "rok": 2019,
  "miesiac": 0,
  "brygadzistaID": 10758,
  "data_wprowadzenia": "07-09-2019 12:00    ",
  "data_modyfikacji": "07-09-2019 12:00",
  "budowaID": 12257,
  "podpis": "10758-10791-2019.36-07-09-2019.png",
  "pracownikID": 10791,
  "od_pn": "07.00",
  "do_pn": "15.00",
  "przestoje_pn": null,
  "dojazd_pn": null,
  "dieta_pn": "1",
  "od_wt": "07.00",
  "do_wt": "17.00",
  "przestoje_wt": null,
  "dojazd_wt": null,
  "dieta_wt": "1",
  "od_sr": "06.00",
  "do_sr": "16.00",
  "przestoje_sr": null,
  "dojazd_sr": null,
  "dieta_sr": "1",
  "od_cz": "06.00",
  "do_cz": "16.00",
  "przestoje_cz": null,
  "dojazd_cz": null,
  "dieta_cz": "1",
  "od_pi": "06.00",
  "do_pi": "14.00",
  "przestoje_pi": null,
  "dojazd_pi": null,
  "dieta_pi": "1",
  "od_so": "06.00",
  "do_so": "10.00",
  "przestoje_so": null,
  "dojazd_so": null,
  "dieta_so": "1",
  "od_ni": "00.00",
  "do_ni": "00.00",
  "przestoje_ni": null,
  "dojazd_ni": null,
  "dieta_ni": "0",
  "rokTydzien": "2019.36",
  "export": 0,
  "komentarz": null
}
:::Tydzień:::2019.36

:::Budowa:::[823] Projekt LGCWA P3 Project. Wykonanie Obudowy i Dachu Budynku Electrode (401) oraz Budynku Formation 2 (701) [Umowa nr LGCWA-P3-WP-18-02-03-011]
***************************************
