14-08-2019 08:09:02
{
  "Brygada": [
    {
      "Nazwa": "BAŃCARZ ANDRZEJ",
      "Id": 49,
      "Brygadzista": "WDOWIAK ANDREAS",
      "BrygadzistaId": 0,
      "Stanowisko": 0
    },
    {
      "Nazwa": "BAŃCARZ WIKTOR",
      "Id": 10682,
      "Brygadzista": "BAŃCARZ ANDRZEJ",
      "BrygadzistaId": 49,
      "Stanowisko": 0
    },
    {
      "Nazwa": "CHANOS PIOTR",
      "Id": 10819,
      "Brygadzista": "BAŃCARZ ANDRZEJ",
      "BrygadzistaId": 49,
      "Stanowisko": 0
    },
    {
      "Nazwa": "CHANOS RYSZARD",
      "Id": 10735,
      "Brygadzista": "BAŃCARZ ANDRZEJ",
      "BrygadzistaId": 49,
      "Stanowisko": 0
    },
    {
      "Nazwa": "GRZEGORZEWSKI ADRIAN",
      "Id": 10863,
      "Brygadzista": "BAŃCARZ ANDRZEJ",
      "BrygadzistaId": 49,
      "Stanowisko": 0
    },
    {
      "Nazwa": "KOZIOŁEK MAREK",
      "Id": 10772,
      "Brygadzista": "BAŃCARZ ANDRZEJ",
      "BrygadzistaId": 49,
      "Stanowisko": 0
    },
    {
      "Nazwa": "KOZIOŁEK MATEUSZ",
      "Id": 10869,
      "Brygadzista": "BAŃCARZ ANDRZEJ",
      "BrygadzistaId": 49,
      "Stanowisko": 0
    },
    {
      "Nazwa": "SPYRCZAK WIESŁAW",
      "Id": 20,
      "Brygadzista": "PŁYBAŃSKI BOGUSŁAW",
      "BrygadzistaId": 10028,
      "Stanowisko": 0
    },
    {
      "Nazwa": "TERNOVYI OLEKSANDR",
      "Id": 10798,
      "Brygadzista": "BAŃCARZ ANDRZEJ",
      "BrygadzistaId": 49,
      "Stanowisko": 0
    },
    {
      "Nazwa": "ŻÓŁTASZEK PRZEMYSŁAW",
      "Id": 10771,
      "Brygadzista": "BAŃCARZ ANDRZEJ",
      "BrygadzistaId": 49,
      "Stanowisko": 0
    }
  ],
  "DniTygodnia": [
    {
      "data_pn": null,
      "data_wt": null,
      "data_sr": null,
      "data_cz": null,
      "data_pi": null,
      "data_so": null,
      "data_ni": null,
      "od_pn": "08.00",
      "od_wt": "05.00",
      "od_sr": "05.00",
      "od_cz": "05.00",
      "od_pi": "05.00",
      "od_so": "05.00",
      "od_ni": "00.00",
      "do_pn": "16.30",
      "do_wt": "17.00",
      "do_sr": "14.00",
      "do_cz": "16.00",
      "do_pi": "18.00",
      "do_so": "14.00",
      "do_ni": "00.00",
      "przestoje_pn": null,
      "przestoje_wt": null,
      "przestoje_sr": null,
      "przestoje_cz": null,
      "przestoje_pi": null,
      "przestoje_so": null,
      "przestoje_ni": null,
      "dojazd_pn": "4",
      "dojazd_wt": "1",
      "dojazd_sr": "1",
      "dojazd_cz": "1",
      "dojazd_pi": "1",
      "dojazd_so": "4",
      "dojazd_ni": null,
      "dieta_pn": 1,
      "dieta_wt": 1,
      "dieta_sr": 1,
      "dieta_cz": 1,
      "dieta_pi": 1,
      "dieta_so": 1,
      "dieta_ni": 0
    },
    {
      "data_pn": null,
      "data_wt": null,
      "data_sr": null,
      "data_cz": null,
      "data_pi": null,
      "data_so": null,
      "data_ni": null,
      "od_pn": "08.00",
      "od_wt": "05.00",
      "od_sr": "05.00",
      "od_cz": "05.00",
      "od_pi": "05.00",
      "od_so": "05.00",
      "od_ni": "00.00",
      "do_pn": "16.30",
      "do_wt": "13.00",
      "do_sr": "14.00",
      "do_cz": "15.00",
      "do_pi": "15.00",
      "do_so": "14.00",
      "do_ni": "00.00",
      "przestoje_pn": null,
      "przestoje_wt": null,
      "przestoje_sr": null,
      "przestoje_cz": null,
      "przestoje_pi": null,
      "przestoje_so": null,
      "przestoje_ni": null,
      "dojazd_pn": null,
      "dojazd_wt": null,
      "dojazd_sr": null,
      "dojazd_cz": null,
      "dojazd_pi": null,
      "dojazd_so": null,
      "dojazd_ni": null,
      "dieta_pn": 1,
      "dieta_wt": 1,
      "dieta_sr": 1,
      "dieta_cz": 1,
      "dieta_pi": 1,
      "dieta_so": 1,
      "dieta_ni": 0
    },
    {
      "data_pn": null,
      "data_wt": null,
      "data_sr": null,
      "data_cz": null,
      "data_pi": null,
      "data_so": null,
      "data_ni": null,
      "od_pn": "08.00",
      "od_wt": "05.00",
      "od_sr": "05.00",
      "od_cz": "05.00",
      "od_pi": "05.00",
      "od_so": "05.00",
      "od_ni": "00.00",
      "do_pn": "16.30",
      "do_wt": "13.00",
      "do_sr": "14.00",
      "do_cz": "15.00",
      "do_pi": "15.00",
      "do_so": "14.00",
      "do_ni": "00.00",
      "przestoje_pn": null,
      "przestoje_wt": null,
      "przestoje_sr": null,
      "przestoje_cz": null,
      "przestoje_pi": null,
      "przestoje_so": null,
      "przestoje_ni": null,
      "dojazd_pn": null,
      "dojazd_wt": null,
      "dojazd_sr": null,
      "dojazd_cz": null,
      "dojazd_pi": null,
      "dojazd_so": null,
      "dojazd_ni": null,
      "dieta_pn": 1,
      "dieta_wt": 1,
      "dieta_sr": 1,
      "dieta_cz": 1,
      "dieta_pi": 1,
      "dieta_so": 1,
      "dieta_ni": 0
    },
    {
      "data_pn": null,
      "data_wt": null,
      "data_sr": null,
      "data_cz": null,
      "data_pi": null,
      "data_so": null,
      "data_ni": null,
      "od_pn": "08.00",
      "od_wt": "05.00",
      "od_sr": "05.00",
      "od_cz": "05.00",
      "od_pi": "05.00",
      "od_so": "05.00",
      "od_ni": "00.00",
      "do_pn": "16.30",
      "do_wt": "13.00",
      "do_sr": "14.00",
      "do_cz": "15.00",
      "do_pi": "15.00",
      "do_so": "14.00",
      "do_ni": "00.00",
      "przestoje_pn": null,
      "przestoje_wt": null,
      "przestoje_sr": null,
      "przestoje_cz": null,
      "przestoje_pi": null,
      "przestoje_so": null,
      "przestoje_ni": null,
      "dojazd_pn": null,
      "dojazd_wt": null,
      "dojazd_sr": null,
      "dojazd_cz": null,
      "dojazd_pi": null,
      "dojazd_so": null,
      "dojazd_ni": null,
      "dieta_pn": 1,
      "dieta_wt": 1,
      "dieta_sr": 1,
      "dieta_cz": 1,
      "dieta_pi": 1,
      "dieta_so": 1,
      "dieta_ni": 0
    },
    {
      "data_pn": null,
      "data_wt": null,
      "data_sr": null,
      "data_cz": null,
      "data_pi": null,
      "data_so": null,
      "data_ni": null,
      "od_pn": "08.00",
      "od_wt": "05.00",
      "od_sr": "05.00",
      "od_cz": "05.00",
      "od_pi": "05.00",
      "od_so": "05.00",
      "od_ni": "00.00",
      "do_pn": "16.30",
      "do_wt": "13.00",
      "do_sr": "14.00",
      "do_cz": "15.00",
      "do_pi": "15.00",
      "do_so": "14.00",
      "do_ni": "00.00",
      "przestoje_pn": null,
      "przestoje_wt": null,
      "przestoje_sr": null,
      "przestoje_cz": null,
      "przestoje_pi": null,
      "przestoje_so": null,
      "przestoje_ni": null,
      "dojazd_pn": null,
      "dojazd_wt": null,
      "dojazd_sr": null,
      "dojazd_cz": null,
      "dojazd_pi": null,
      "dojazd_so": null,
      "dojazd_ni": null,
      "dieta_pn": 1,
      "dieta_wt": 1,
      "dieta_sr": 1,
      "dieta_cz": 1,
      "dieta_pi": 1,
      "dieta_so": 1,
      "dieta_ni": 0
    },
    {
      "data_pn": null,
      "data_wt": null,
      "data_sr": null,
      "data_cz": null,
      "data_pi": null,
      "data_so": null,
      "data_ni": null,
      "od_pn": "08.00",
      "od_wt": "05.00",
      "od_sr": "05.00",
      "od_cz": "05.00",
      "od_pi": "05.00",
      "od_so": "05.00",
      "od_ni": "00.00",
      "do_pn": "16.30",
      "do_wt": "13.00",
      "do_sr": "14.00",
      "do_cz": "15.00",
      "do_pi": "15.00",
      "do_so": "14.00",
      "do_ni": "00.00",
      "przestoje_pn": null,
      "przestoje_wt": null,
      "przestoje_sr": null,
      "przestoje_cz": null,
      "przestoje_pi": null,
      "przestoje_so": null,
      "przestoje_ni": null,
      "dojazd_pn": null,
      "dojazd_wt": null,
      "dojazd_sr": null,
      "dojazd_cz": null,
      "dojazd_pi": null,
      "dojazd_so": null,
      "dojazd_ni": null,
      "dieta_pn": 1,
      "dieta_wt": 1,
      "dieta_sr": 1,
      "dieta_cz": 1,
      "dieta_pi": 1,
      "dieta_so": 1,
      "dieta_ni": 0
    },
    {
      "data_pn": null,
      "data_wt": null,
      "data_sr": null,
      "data_cz": null,
      "data_pi": null,
      "data_so": null,
      "data_ni": null,
      "od_pn": "08.00",
      "od_wt": "05.00",
      "od_sr": "05.00",
      "od_cz": "05.00",
      "od_pi": "05.00",
      "od_so": "05.00",
      "od_ni": "00.00",
      "do_pn": "16.30",
      "do_wt": "13.00",
      "do_sr": "14.00",
      "do_cz": "15.00",
      "do_pi": "15.00",
      "do_so": "14.00",
      "do_ni": "00.00",
      "przestoje_pn": null,
      "przestoje_wt": null,
      "przestoje_sr": null,
      "przestoje_cz": null,
      "przestoje_pi": null,
      "przestoje_so": null,
      "przestoje_ni": null,
      "dojazd_pn": null,
      "dojazd_wt": null,
      "dojazd_sr": null,
      "dojazd_cz": null,
      "dojazd_pi": null,
      "dojazd_so": null,
      "dojazd_ni": null,
      "dieta_pn": 1,
      "dieta_wt": 1,
      "dieta_sr": 1,
      "dieta_cz": 1,
      "dieta_pi": 1,
      "dieta_so": 1,
      "dieta_ni": 0
    },
    {
      "data_pn": null,
      "data_wt": null,
      "data_sr": null,
      "data_cz": null,
      "data_pi": null,
      "data_so": null,
      "data_ni": null,
      "od_pn": "08.00",
      "od_wt": "05.00",
      "od_sr": "05.00",
      "od_cz": "05.00",
      "od_pi": "05.00",
      "od_so": "05.00",
      "od_ni": "00.00",
      "do_pn": "16.30",
      "do_wt": "13.00",
      "do_sr": "14.00",
      "do_cz": "15.00",
      "do_pi": "15.00",
      "do_so": "14.00",
      "do_ni": "00.00",
      "przestoje_pn": null,
      "przestoje_wt": null,
      "przestoje_sr": null,
      "przestoje_cz": null,
      "przestoje_pi": null,
      "przestoje_so": null,
      "przestoje_ni": null,
      "dojazd_pn": null,
      "dojazd_wt": null,
      "dojazd_sr": null,
      "dojazd_cz": null,
      "dojazd_pi": null,
      "dojazd_so": null,
      "dojazd_ni": null,
      "dieta_pn": 1,
      "dieta_wt": 1,
      "dieta_sr": 1,
      "dieta_cz": 1,
      "dieta_pi": 1,
      "dieta_so": 1,
      "dieta_ni": 0
    },
    {
      "data_pn": null,
      "data_wt": null,
      "data_sr": null,
      "data_cz": null,
      "data_pi": null,
      "data_so": null,
      "data_ni": null,
      "od_pn": "08.00",
      "od_wt": "05.00",
      "od_sr": "05.00",
      "od_cz": "05.00",
      "od_pi": "05.00",
      "od_so": "05.00",
      "od_ni": "00.00",
      "do_pn": "16.30",
      "do_wt": "13.00",
      "do_sr": "14.00",
      "do_cz": "15.00",
      "do_pi": "15.00",
      "do_so": "14.00",
      "do_ni": "00.00",
      "przestoje_pn": null,
      "przestoje_wt": null,
      "przestoje_sr": null,
      "przestoje_cz": null,
      "przestoje_pi": null,
      "przestoje_so": null,
      "przestoje_ni": null,
      "dojazd_pn": null,
      "dojazd_wt": null,
      "dojazd_sr": null,
      "dojazd_cz": null,
      "dojazd_pi": null,
      "dojazd_so": null,
      "dojazd_ni": null,
      "dieta_pn": 1,
      "dieta_wt": 1,
      "dieta_sr": 1,
      "dieta_cz": 1,
      "dieta_pi": 1,
      "dieta_so": 1,
      "dieta_ni": 0
    },
    {
      "data_pn": null,
      "data_wt": null,
      "data_sr": null,
      "data_cz": null,
      "data_pi": null,
      "data_so": null,
      "data_ni": null,
      "od_pn": "08.00",
      "od_wt": "05.00",
      "od_sr": "05.00",
      "od_cz": "05.00",
      "od_pi": "05.00",
      "od_so": "05.00",
      "od_ni": "00.00",
      "do_pn": "16.30",
      "do_wt": "13.00",
      "do_sr": "14.00",
      "do_cz": "15.00",
      "do_pi": "15.00",
      "do_so": "14.00",
      "do_ni": "00.00",
      "przestoje_pn": null,
      "przestoje_wt": null,
      "przestoje_sr": null,
      "przestoje_cz": null,
      "przestoje_pi": null,
      "przestoje_so": null,
      "przestoje_ni": null,
      "dojazd_pn": "4",
      "dojazd_wt": "1",
      "dojazd_sr": "1",
      "dojazd_cz": "1",
      "dojazd_pi": "1",
      "dojazd_so": "4",
      "dojazd_ni": null,
      "dieta_pn": 1,
      "dieta_wt": 1,
      "dieta_sr": 1,
      "dieta_cz": 1,
      "dieta_pi": 1,
      "dieta_so": 1,
      "dieta_ni": 0
    }
  ],
  "Tydzien": {},
  "Brygadzista": {
    "Nazwa": "BAŃCARZ ANDRZEJ",
    "Id": 49,
    "Brygadzista": "WDOWIAK ANDREAS",
    "BrygadzistaId": 0,
    "Stanowisko": 0
  }
}
:::Tydzień:::2019.32

:::Budowa:::[837] VW Szedy Poznań
***************************************
14-08-2019 08:09:19
{
  "Brygada": [
    {
      "Nazwa": "BAŃCARZ ANDRZEJ",
      "Id": 49,
      "Brygadzista": "WDOWIAK ANDREAS",
      "BrygadzistaId": 0,
      "Stanowisko": 0
    },
    {
      "Nazwa": "BAŃCARZ WIKTOR",
      "Id": 10682,
      "Brygadzista": "BAŃCARZ ANDRZEJ",
      "BrygadzistaId": 49,
      "Stanowisko": 0
    },
    {
      "Nazwa": "CHANOS PIOTR",
      "Id": 10819,
      "Brygadzista": "BAŃCARZ ANDRZEJ",
      "BrygadzistaId": 49,
      "Stanowisko": 0
    },
    {
      "Nazwa": "CHANOS RYSZARD",
      "Id": 10735,
      "Brygadzista": "BAŃCARZ ANDRZEJ",
      "BrygadzistaId": 49,
      "Stanowisko": 0
    },
    {
      "Nazwa": "GRZEGORZEWSKI ADRIAN",
      "Id": 10863,
      "Brygadzista": "BAŃCARZ ANDRZEJ",
      "BrygadzistaId": 49,
      "Stanowisko": 0
    },
    {
      "Nazwa": "KOZIOŁEK MAREK",
      "Id": 10772,
      "Brygadzista": "BAŃCARZ ANDRZEJ",
      "BrygadzistaId": 49,
      "Stanowisko": 0
    },
    {
      "Nazwa": "KOZIOŁEK MATEUSZ",
      "Id": 10869,
      "Brygadzista": "BAŃCARZ ANDRZEJ",
      "BrygadzistaId": 49,
      "Stanowisko": 0
    },
    {
      "Nazwa": "SPYRCZAK WIESŁAW",
      "Id": 20,
      "Brygadzista": "PŁYBAŃSKI BOGUSŁAW",
      "BrygadzistaId": 10028,
      "Stanowisko": 0
    },
    {
      "Nazwa": "TERNOVYI OLEKSANDR",
      "Id": 10798,
      "Brygadzista": "BAŃCARZ ANDRZEJ",
      "BrygadzistaId": 49,
      "Stanowisko": 0
    },
    {
      "Nazwa": "ŻÓŁTASZEK PRZEMYSŁAW",
      "Id": 10771,
      "Brygadzista": "BAŃCARZ ANDRZEJ",
      "BrygadzistaId": 49,
      "Stanowisko": 0
    }
  ],
  "DniTygodnia": [
    {
      "data_pn": null,
      "data_wt": null,
      "data_sr": null,
      "data_cz": null,
      "data_pi": null,
      "data_so": null,
      "data_ni": null,
      "od_pn": "08.00",
      "od_wt": "05.00",
      "od_sr": "05.00",
      "od_cz": "05.00",
      "od_pi": "05.00",
      "od_so": "05.00",
      "od_ni": "00.00",
      "do_pn": "16.30",
      "do_wt": "17.00",
      "do_sr": "14.00",
      "do_cz": "16.00",
      "do_pi": "18.00",
      "do_so": "14.00",
      "do_ni": "00.00",
      "przestoje_pn": null,
      "przestoje_wt": null,
      "przestoje_sr": null,
      "przestoje_cz": null,
      "przestoje_pi": null,
      "przestoje_so": null,
      "przestoje_ni": null,
      "dojazd_pn": "4",
      "dojazd_wt": "1",
      "dojazd_sr": "1",
      "dojazd_cz": "1",
      "dojazd_pi": "1",
      "dojazd_so": "4",
      "dojazd_ni": null,
      "dieta_pn": 1,
      "dieta_wt": 1,
      "dieta_sr": 1,
      "dieta_cz": 1,
      "dieta_pi": 1,
      "dieta_so": 1,
      "dieta_ni": 0
    },
    {
      "data_pn": null,
      "data_wt": null,
      "data_sr": null,
      "data_cz": null,
      "data_pi": null,
      "data_so": null,
      "data_ni": null,
      "od_pn": "08.00",
      "od_wt": "05.00",
      "od_sr": "05.00",
      "od_cz": "05.00",
      "od_pi": "05.00",
      "od_so": "05.00",
      "od_ni": "00.00",
      "do_pn": "16.30",
      "do_wt": "13.00",
      "do_sr": "14.00",
      "do_cz": "15.00",
      "do_pi": "15.00",
      "do_so": "14.00",
      "do_ni": "00.00",
      "przestoje_pn": null,
      "przestoje_wt": null,
      "przestoje_sr": null,
      "przestoje_cz": null,
      "przestoje_pi": null,
      "przestoje_so": null,
      "przestoje_ni": null,
      "dojazd_pn": null,
      "dojazd_wt": null,
      "dojazd_sr": null,
      "dojazd_cz": null,
      "dojazd_pi": null,
      "dojazd_so": null,
      "dojazd_ni": null,
      "dieta_pn": 1,
      "dieta_wt": 1,
      "dieta_sr": 1,
      "dieta_cz": 1,
      "dieta_pi": 1,
      "dieta_so": 1,
      "dieta_ni": 0
    },
    {
      "data_pn": null,
      "data_wt": null,
      "data_sr": null,
      "data_cz": null,
      "data_pi": null,
      "data_so": null,
      "data_ni": null,
      "od_pn": "08.00",
      "od_wt": "05.00",
      "od_sr": "05.00",
      "od_cz": "05.00",
      "od_pi": "05.00",
      "od_so": "05.00",
      "od_ni": "00.00",
      "do_pn": "16.30",
      "do_wt": "13.00",
      "do_sr": "14.00",
      "do_cz": "15.00",
      "do_pi": "15.00",
      "do_so": "14.00",
      "do_ni": "00.00",
      "przestoje_pn": null,
      "przestoje_wt": null,
      "przestoje_sr": null,
      "przestoje_cz": null,
      "przestoje_pi": null,
      "przestoje_so": null,
      "przestoje_ni": null,
      "dojazd_pn": null,
      "dojazd_wt": null,
      "dojazd_sr": null,
      "dojazd_cz": null,
      "dojazd_pi": null,
      "dojazd_so": null,
      "dojazd_ni": null,
      "dieta_pn": 1,
      "dieta_wt": 1,
      "dieta_sr": 1,
      "dieta_cz": 1,
      "dieta_pi": 1,
      "dieta_so": 1,
      "dieta_ni": 0
    },
    {
      "data_pn": null,
      "data_wt": null,
      "data_sr": null,
      "data_cz": null,
      "data_pi": null,
      "data_so": null,
      "data_ni": null,
      "od_pn": "08.00",
      "od_wt": "05.00",
      "od_sr": "05.00",
      "od_cz": "05.00",
      "od_pi": "05.00",
      "od_so": "05.00",
      "od_ni": "00.00",
      "do_pn": "16.30",
      "do_wt": "13.00",
      "do_sr": "14.00",
      "do_cz": "15.00",
      "do_pi": "15.00",
      "do_so": "14.00",
      "do_ni": "00.00",
      "przestoje_pn": null,
      "przestoje_wt": null,
      "przestoje_sr": null,
      "przestoje_cz": null,
      "przestoje_pi": null,
      "przestoje_so": null,
      "przestoje_ni": null,
      "dojazd_pn": null,
      "dojazd_wt": null,
      "dojazd_sr": null,
      "dojazd_cz": null,
      "dojazd_pi": null,
      "dojazd_so": null,
      "dojazd_ni": null,
      "dieta_pn": 1,
      "dieta_wt": 1,
      "dieta_sr": 1,
      "dieta_cz": 1,
      "dieta_pi": 1,
      "dieta_so": 1,
      "dieta_ni": 0
    },
    {
      "data_pn": null,
      "data_wt": null,
      "data_sr": null,
      "data_cz": null,
      "data_pi": null,
      "data_so": null,
      "data_ni": null,
      "od_pn": "08.00",
      "od_wt": "05.00",
      "od_sr": "05.00",
      "od_cz": "05.00",
      "od_pi": "05.00",
      "od_so": "05.00",
      "od_ni": "00.00",
      "do_pn": "16.30",
      "do_wt": "13.00",
      "do_sr": "14.00",
      "do_cz": "15.00",
      "do_pi": "15.00",
      "do_so": "14.00",
      "do_ni": "00.00",
      "przestoje_pn": null,
      "przestoje_wt": null,
      "przestoje_sr": null,
      "przestoje_cz": null,
      "przestoje_pi": null,
      "przestoje_so": null,
      "przestoje_ni": null,
      "dojazd_pn": null,
      "dojazd_wt": null,
      "dojazd_sr": null,
      "dojazd_cz": null,
      "dojazd_pi": null,
      "dojazd_so": null,
      "dojazd_ni": null,
      "dieta_pn": 1,
      "dieta_wt": 1,
      "dieta_sr": 1,
      "dieta_cz": 1,
      "dieta_pi": 1,
      "dieta_so": 1,
      "dieta_ni": 0
    },
    {
      "data_pn": null,
      "data_wt": null,
      "data_sr": null,
      "data_cz": null,
      "data_pi": null,
      "data_so": null,
      "data_ni": null,
      "od_pn": "08.00",
      "od_wt": "05.00",
      "od_sr": "05.00",
      "od_cz": "05.00",
      "od_pi": "05.00",
      "od_so": "05.00",
      "od_ni": "00.00",
      "do_pn": "16.30",
      "do_wt": "13.00",
      "do_sr": "14.00",
      "do_cz": "15.00",
      "do_pi": "15.00",
      "do_so": "14.00",
      "do_ni": "00.00",
      "przestoje_pn": null,
      "przestoje_wt": null,
      "przestoje_sr": null,
      "przestoje_cz": null,
      "przestoje_pi": null,
      "przestoje_so": null,
      "przestoje_ni": null,
      "dojazd_pn": null,
      "dojazd_wt": null,
      "dojazd_sr": null,
      "dojazd_cz": null,
      "dojazd_pi": null,
      "dojazd_so": null,
      "dojazd_ni": null,
      "dieta_pn": 1,
      "dieta_wt": 1,
      "dieta_sr": 1,
      "dieta_cz": 1,
      "dieta_pi": 1,
      "dieta_so": 1,
      "dieta_ni": 0
    },
    {
      "data_pn": null,
      "data_wt": null,
      "data_sr": null,
      "data_cz": null,
      "data_pi": null,
      "data_so": null,
      "data_ni": null,
      "od_pn": "08.00",
      "od_wt": "05.00",
      "od_sr": "05.00",
      "od_cz": "05.00",
      "od_pi": "05.00",
      "od_so": "05.00",
      "od_ni": "00.00",
      "do_pn": "16.30",
      "do_wt": "13.00",
      "do_sr": "14.00",
      "do_cz": "15.00",
      "do_pi": "15.00",
      "do_so": "14.00",
      "do_ni": "00.00",
      "przestoje_pn": null,
      "przestoje_wt": null,
      "przestoje_sr": null,
      "przestoje_cz": null,
      "przestoje_pi": null,
      "przestoje_so": null,
      "przestoje_ni": null,
      "dojazd_pn": null,
      "dojazd_wt": null,
      "dojazd_sr": null,
      "dojazd_cz": null,
      "dojazd_pi": null,
      "dojazd_so": null,
      "dojazd_ni": null,
      "dieta_pn": 1,
      "dieta_wt": 1,
      "dieta_sr": 1,
      "dieta_cz": 1,
      "dieta_pi": 1,
      "dieta_so": 1,
      "dieta_ni": 0
    },
    {
      "data_pn": null,
      "data_wt": null,
      "data_sr": null,
      "data_cz": null,
      "data_pi": null,
      "data_so": null,
      "data_ni": null,
      "od_pn": "08.00",
      "od_wt": "05.00",
      "od_sr": "05.00",
      "od_cz": "05.00",
      "od_pi": "05.00",
      "od_so": "05.00",
      "od_ni": "00.00",
      "do_pn": "16.30",
      "do_wt": "13.00",
      "do_sr": "14.00",
      "do_cz": "15.00",
      "do_pi": "15.00",
      "do_so": "14.00",
      "do_ni": "00.00",
      "przestoje_pn": null,
      "przestoje_wt": null,
      "przestoje_sr": null,
      "przestoje_cz": null,
      "przestoje_pi": null,
      "przestoje_so": null,
      "przestoje_ni": null,
      "dojazd_pn": null,
      "dojazd_wt": null,
      "dojazd_sr": null,
      "dojazd_cz": null,
      "dojazd_pi": null,
      "dojazd_so": null,
      "dojazd_ni": null,
      "dieta_pn": 1,
      "dieta_wt": 1,
      "dieta_sr": 1,
      "dieta_cz": 1,
      "dieta_pi": 1,
      "dieta_so": 1,
      "dieta_ni": 0
    },
    {
      "data_pn": null,
      "data_wt": null,
      "data_sr": null,
      "data_cz": null,
      "data_pi": null,
      "data_so": null,
      "data_ni": null,
      "od_pn": "08.00",
      "od_wt": "05.00",
      "od_sr": "05.00",
      "od_cz": "05.00",
      "od_pi": "05.00",
      "od_so": "05.00",
      "od_ni": "00.00",
      "do_pn": "16.30",
      "do_wt": "13.00",
      "do_sr": "14.00",
      "do_cz": "15.00",
      "do_pi": "15.00",
      "do_so": "14.00",
      "do_ni": "00.00",
      "przestoje_pn": null,
      "przestoje_wt": null,
      "przestoje_sr": null,
      "przestoje_cz": null,
      "przestoje_pi": null,
      "przestoje_so": null,
      "przestoje_ni": null,
      "dojazd_pn": null,
      "dojazd_wt": null,
      "dojazd_sr": null,
      "dojazd_cz": null,
      "dojazd_pi": null,
      "dojazd_so": null,
      "dojazd_ni": null,
      "dieta_pn": 1,
      "dieta_wt": 1,
      "dieta_sr": 1,
      "dieta_cz": 1,
      "dieta_pi": 1,
      "dieta_so": 1,
      "dieta_ni": 0
    },
    {
      "data_pn": null,
      "data_wt": null,
      "data_sr": null,
      "data_cz": null,
      "data_pi": null,
      "data_so": null,
      "data_ni": null,
      "od_pn": "08.00",
      "od_wt": "05.00",
      "od_sr": "05.00",
      "od_cz": "05.00",
      "od_pi": "05.00",
      "od_so": "05.00",
      "od_ni": "00.00",
      "do_pn": "16.30",
      "do_wt": "13.00",
      "do_sr": "14.00",
      "do_cz": "15.00",
      "do_pi": "15.00",
      "do_so": "14.00",
      "do_ni": "00.00",
      "przestoje_pn": null,
      "przestoje_wt": null,
      "przestoje_sr": null,
      "przestoje_cz": null,
      "przestoje_pi": null,
      "przestoje_so": null,
      "przestoje_ni": null,
      "dojazd_pn": "4",
      "dojazd_wt": "1",
      "dojazd_sr": "1",
      "dojazd_cz": "1",
      "dojazd_pi": "1",
      "dojazd_so": "4",
      "dojazd_ni": null,
      "dieta_pn": 1,
      "dieta_wt": 1,
      "dieta_sr": 1,
      "dieta_cz": 1,
      "dieta_pi": 1,
      "dieta_so": 1,
      "dieta_ni": 0
    }
  ],
  "Tydzien": {},
  "Brygadzista": {
    "Nazwa": "BAŃCARZ ANDRZEJ",
    "Id": 49,
    "Brygadzista": "WDOWIAK ANDREAS",
    "BrygadzistaId": 0,
    "Stanowisko": 0
  }
}
:::Tydzień:::2019.32

:::Budowa:::[837] VW Szedy Poznań
***************************************
