08-05-2020 15:45:36
{
  "Id": 0,
  "rok": 2020,
  "miesiac": 0,
  "brygadzistaID": 49,
  "data_wprowadzenia": "08-05-2020 12:00",
  "data_modyfikacji": null,
  "budowaID": 12429,
  "podpis": "49-49-2020.19-08-05-2020.png",
  "pracownikID": 49,
  "od_pn": "00.00",
  "do_pn": "00.00",
  "przestoje_pn": null,
  "dojazd_pn": null,
  "dieta_pn": "0",
  "od_wt": "06.30",
  "do_wt": "17.00",
  "przestoje_wt": null,
  "dojazd_wt": "1",
  "dieta_wt": "1",
  "od_sr": "06.30",
  "do_sr": "17.00",
  "przestoje_sr": null,
  "dojazd_sr": "1",
  "dieta_sr": "1",
  "od_cz": "06.30",
  "do_cz": "17.00",
  "przestoje_cz": null,
  "dojazd_cz": "1",
  "dieta_cz": "1",
  "od_pi": "06.30",
  "do_pi": "17.00",
  "przestoje_pi": null,
  "dojazd_pi": "3",
  "dieta_pi": "1",
  "od_so": "00.00",
  "do_so": "00.00",
  "przestoje_so": null,
  "dojazd_so": null,
  "dieta_so": "0",
  "od_ni": "00.00",
  "do_ni": "00.00",
  "przestoje_ni": null,
  "dojazd_ni": null,
  "dieta_ni": "0",
  "rokTydzien": "2020.19",
  "export": 0,
  "komentarz": null,
  "obecny": "brak"
}
:::Tydzień:::2020.19

:::Budowa:::[851] Budowa Budynku Komory Testowej w Środzie Śląskiej  - TEST CELL dla Xeos - Lufthanza - Etap II [Umowa Nr 33/2pd6/2020].
***************************************
08-05-2020 15:45:36
{
  "Id": 0,
  "rok": 2020,
  "miesiac": 0,
  "brygadzistaID": 49,
  "data_wprowadzenia": "08-05-2020 12:00",
  "data_modyfikacji": null,
  "budowaID": 12429,
  "podpis": null,
  "pracownikID": 10682,
  "od_pn": "00.00",
  "do_pn": "00.00",
  "przestoje_pn": null,
  "dojazd_pn": null,
  "dieta_pn": "0",
  "od_wt": "07.00",
  "do_wt": "17.00",
  "przestoje_wt": null,
  "dojazd_wt": null,
  "dieta_wt": "1",
  "od_sr": "07.00",
  "do_sr": "17.00",
  "przestoje_sr": null,
  "dojazd_sr": null,
  "dieta_sr": "1",
  "od_cz": "07.00",
  "do_cz": "17.00",
  "przestoje_cz": null,
  "dojazd_cz": null,
  "dieta_cz": "1",
  "od_pi": "07.00",
  "do_pi": "17.00",
  "przestoje_pi": null,
  "dojazd_pi": null,
  "dieta_pi": "1",
  "od_so": "00.00",
  "do_so": "00.00",
  "przestoje_so": null,
  "dojazd_so": null,
  "dieta_so": "0",
  "od_ni": "00.00",
  "do_ni": "00.00",
  "przestoje_ni": null,
  "dojazd_ni": null,
  "dieta_ni": "0",
  "rokTydzien": "2020.19",
  "export": 0,
  "komentarz": null,
  "obecny": "brak"
}
:::Tydzień:::2020.19

:::Budowa:::[851] Budowa Budynku Komory Testowej w Środzie Śląskiej  - TEST CELL dla Xeos - Lufthanza - Etap II [Umowa Nr 33/2pd6/2020].
***************************************
08-05-2020 15:45:36
{
  "Id": 0,
  "rok": 2020,
  "miesiac": 0,
  "brygadzistaID": 49,
  "data_wprowadzenia": "08-05-2020 12:00",
  "data_modyfikacji": null,
  "budowaID": 12429,
  "podpis": null,
  "pracownikID": 10819,
  "od_pn": "00.00",
  "do_pn": "00.00",
  "przestoje_pn": null,
  "dojazd_pn": null,
  "dieta_pn": "0",
  "od_wt": "07.00",
  "do_wt": "17.00",
  "przestoje_wt": null,
  "dojazd_wt": null,
  "dieta_wt": "1",
  "od_sr": "07.00",
  "do_sr": "17.00",
  "przestoje_sr": null,
  "dojazd_sr": null,
  "dieta_sr": "1",
  "od_cz": "07.00",
  "do_cz": "17.00",
  "przestoje_cz": null,
  "dojazd_cz": null,
  "dieta_cz": "1",
  "od_pi": "07.00",
  "do_pi": "17.00",
  "przestoje_pi": null,
  "dojazd_pi": null,
  "dieta_pi": "1",
  "od_so": "00.00",
  "do_so": "00.00",
  "przestoje_so": null,
  "dojazd_so": null,
  "dieta_so": "0",
  "od_ni": "00.00",
  "do_ni": "00.00",
  "przestoje_ni": null,
  "dojazd_ni": null,
  "dieta_ni": "0",
  "rokTydzien": "2020.19",
  "export": 0,
  "komentarz": null,
  "obecny": "brak"
}
:::Tydzień:::2020.19

:::Budowa:::[851] Budowa Budynku Komory Testowej w Środzie Śląskiej  - TEST CELL dla Xeos - Lufthanza - Etap II [Umowa Nr 33/2pd6/2020].
***************************************
08-05-2020 15:45:36
{
  "Id": 0,
  "rok": 2020,
  "miesiac": 0,
  "brygadzistaID": 49,
  "data_wprowadzenia": "08-05-2020 12:00",
  "data_modyfikacji": null,
  "budowaID": 12429,
  "podpis": null,
  "pracownikID": 10894,
  "od_pn": "00.00",
  "do_pn": "00.00",
  "przestoje_pn": null,
  "dojazd_pn": null,
  "dieta_pn": "0",
  "od_wt": "07.00",
  "do_wt": "17.00",
  "przestoje_wt": null,
  "dojazd_wt": null,
  "dieta_wt": "1",
  "od_sr": "07.00",
  "do_sr": "17.00",
  "przestoje_sr": null,
  "dojazd_sr": null,
  "dieta_sr": "1",
  "od_cz": "07.00",
  "do_cz": "17.00",
  "przestoje_cz": null,
  "dojazd_cz": null,
  "dieta_cz": "1",
  "od_pi": "07.00",
  "do_pi": "17.00",
  "przestoje_pi": null,
  "dojazd_pi": null,
  "dieta_pi": "1",
  "od_so": "00.00",
  "do_so": "00.00",
  "przestoje_so": null,
  "dojazd_so": null,
  "dieta_so": "0",
  "od_ni": "00.00",
  "do_ni": "00.00",
  "przestoje_ni": null,
  "dojazd_ni": null,
  "dieta_ni": "0",
  "rokTydzien": "2020.19",
  "export": 0,
  "komentarz": null,
  "obecny": "brak"
}
:::Tydzień:::2020.19

:::Budowa:::[851] Budowa Budynku Komory Testowej w Środzie Śląskiej  - TEST CELL dla Xeos - Lufthanza - Etap II [Umowa Nr 33/2pd6/2020].
***************************************
08-05-2020 15:45:36
{
  "Id": 0,
  "rok": 2020,
  "miesiac": 0,
  "brygadzistaID": 49,
  "data_wprowadzenia": "08-05-2020 12:00",
  "data_modyfikacji": null,
  "budowaID": 12429,
  "podpis": null,
  "pracownikID": 10869,
  "od_pn": "00.00",
  "do_pn": "00.00",
  "przestoje_pn": null,
  "dojazd_pn": null,
  "dieta_pn": "0",
  "od_wt": "00.00",
  "do_wt": "00.00",
  "przestoje_wt": null,
  "dojazd_wt": null,
  "dieta_wt": "0",
  "od_sr": "00.00",
  "do_sr": "00.00",
  "przestoje_sr": null,
  "dojazd_sr": null,
  "dieta_sr": "0",
  "od_cz": "00.00",
  "do_cz": "00.00",
  "przestoje_cz": null,
  "dojazd_cz": null,
  "dieta_cz": "0",
  "od_pi": "00.00",
  "do_pi": "00.00",
  "przestoje_pi": null,
  "dojazd_pi": null,
  "dieta_pi": "0",
  "od_so": "00.00",
  "do_so": "00.00",
  "przestoje_so": null,
  "dojazd_so": null,
  "dieta_so": "0",
  "od_ni": "00.00",
  "do_ni": "00.00",
  "przestoje_ni": null,
  "dojazd_ni": null,
  "dieta_ni": "0",
  "rokTydzien": "2020.19",
  "export": 0,
  "komentarz": null,
  "obecny": "U"
}
:::Tydzień:::2020.19

:::Budowa:::[851] Budowa Budynku Komory Testowej w Środzie Śląskiej  - TEST CELL dla Xeos - Lufthanza - Etap II [Umowa Nr 33/2pd6/2020].
***************************************
08-05-2020 15:45:37
{
  "Id": 0,
  "rok": 2020,
  "miesiac": 0,
  "brygadzistaID": 49,
  "data_wprowadzenia": "08-05-2020 12:00",
  "data_modyfikacji": null,
  "budowaID": 12429,
  "podpis": null,
  "pracownikID": 10771,
  "od_pn": "00.00",
  "do_pn": "00.00",
  "przestoje_pn": null,
  "dojazd_pn": null,
  "dieta_pn": "0",
  "od_wt": "07.00",
  "do_wt": "17.00",
  "przestoje_wt": null,
  "dojazd_wt": null,
  "dieta_wt": "1",
  "od_sr": "07.00",
  "do_sr": "17.00",
  "przestoje_sr": null,
  "dojazd_sr": null,
  "dieta_sr": "1",
  "od_cz": "07.00",
  "do_cz": "17.00",
  "przestoje_cz": null,
  "dojazd_cz": null,
  "dieta_cz": "1",
  "od_pi": "07.00",
  "do_pi": "17.00",
  "przestoje_pi": null,
  "dojazd_pi": null,
  "dieta_pi": "1",
  "od_so": "00.00",
  "do_so": "00.00",
  "przestoje_so": null,
  "dojazd_so": null,
  "dieta_so": "0",
  "od_ni": "00.00",
  "do_ni": "00.00",
  "przestoje_ni": null,
  "dojazd_ni": null,
  "dieta_ni": "0",
  "rokTydzien": "2020.19",
  "export": 0,
  "komentarz": null,
  "obecny": "brak"
}
:::Tydzień:::2020.19

:::Budowa:::[851] Budowa Budynku Komory Testowej w Środzie Śląskiej  - TEST CELL dla Xeos - Lufthanza - Etap II [Umowa Nr 33/2pd6/2020].
***************************************
08-05-2020 15:46:30
{
  "Id": 4498,
  "rok": 2020,
  "miesiac": 0,
  "brygadzistaID": 49,
  "data_wprowadzenia": "08-05-2020 12:00    ",
  "data_modyfikacji": "08-05-2020 12:00",
  "budowaID": 12429,
  "podpis": "49-49-2020.19-08-05-2020.png",
  "pracownikID": 49,
  "od_pn": "00.00",
  "do_pn": "00.00",
  "przestoje_pn": null,
  "dojazd_pn": null,
  "dieta_pn": "0",
  "od_wt": "06.30",
  "do_wt": "17.00",
  "przestoje_wt": null,
  "dojazd_wt": "1",
  "dieta_wt": "1",
  "od_sr": "06.30",
  "do_sr": "17.00",
  "przestoje_sr": null,
  "dojazd_sr": "1",
  "dieta_sr": "1",
  "od_cz": "06.30",
  "do_cz": "17.00",
  "przestoje_cz": null,
  "dojazd_cz": "1",
  "dieta_cz": "1",
  "od_pi": "06.30",
  "do_pi": "17.00",
  "przestoje_pi": null,
  "dojazd_pi": "3",
  "dieta_pi": "1",
  "od_so": "00.00",
  "do_so": "00.00",
  "przestoje_so": null,
  "dojazd_so": null,
  "dieta_so": "0",
  "od_ni": "00.00",
  "do_ni": "00.00",
  "przestoje_ni": null,
  "dojazd_ni": null,
  "dieta_ni": "0",
  "rokTydzien": "2020.19",
  "export": 0,
  "komentarz": null,
  "obecny": "brak"
}
:::Tydzień:::2020.19

:::Budowa:::[851] Budowa Budynku Komory Testowej w Środzie Śląskiej  - TEST CELL dla Xeos - Lufthanza - Etap II [Umowa Nr 33/2pd6/2020].
***************************************
08-05-2020 15:46:30
{
  "Id": 4499,
  "rok": 2020,
  "miesiac": 0,
  "brygadzistaID": 49,
  "data_wprowadzenia": "08-05-2020 12:00    ",
  "data_modyfikacji": "08-05-2020 12:00",
  "budowaID": 12429,
  "podpis": null,
  "pracownikID": 10682,
  "od_pn": "00.00",
  "do_pn": "00.00",
  "przestoje_pn": null,
  "dojazd_pn": null,
  "dieta_pn": "0",
  "od_wt": "07.00",
  "do_wt": "17.00",
  "przestoje_wt": null,
  "dojazd_wt": null,
  "dieta_wt": "1",
  "od_sr": "07.00",
  "do_sr": "17.00",
  "przestoje_sr": null,
  "dojazd_sr": null,
  "dieta_sr": "1",
  "od_cz": "07.00",
  "do_cz": "17.00",
  "przestoje_cz": null,
  "dojazd_cz": null,
  "dieta_cz": "1",
  "od_pi": "07.00",
  "do_pi": "17.00",
  "przestoje_pi": null,
  "dojazd_pi": null,
  "dieta_pi": "1",
  "od_so": "00.00",
  "do_so": "00.00",
  "przestoje_so": null,
  "dojazd_so": null,
  "dieta_so": "0",
  "od_ni": "00.00",
  "do_ni": "00.00",
  "przestoje_ni": null,
  "dojazd_ni": null,
  "dieta_ni": "0",
  "rokTydzien": "2020.19",
  "export": 0,
  "komentarz": null,
  "obecny": "brak"
}
:::Tydzień:::2020.19

:::Budowa:::[851] Budowa Budynku Komory Testowej w Środzie Śląskiej  - TEST CELL dla Xeos - Lufthanza - Etap II [Umowa Nr 33/2pd6/2020].
***************************************
08-05-2020 15:46:31
{
  "Id": 4500,
  "rok": 2020,
  "miesiac": 0,
  "brygadzistaID": 49,
  "data_wprowadzenia": "08-05-2020 12:00    ",
  "data_modyfikacji": "08-05-2020 12:00",
  "budowaID": 12429,
  "podpis": null,
  "pracownikID": 10819,
  "od_pn": "00.00",
  "do_pn": "00.00",
  "przestoje_pn": null,
  "dojazd_pn": null,
  "dieta_pn": "0",
  "od_wt": "07.00",
  "do_wt": "17.00",
  "przestoje_wt": null,
  "dojazd_wt": null,
  "dieta_wt": "1",
  "od_sr": "07.00",
  "do_sr": "17.00",
  "przestoje_sr": null,
  "dojazd_sr": null,
  "dieta_sr": "1",
  "od_cz": "07.00",
  "do_cz": "17.00",
  "przestoje_cz": null,
  "dojazd_cz": null,
  "dieta_cz": "1",
  "od_pi": "07.00",
  "do_pi": "17.00",
  "przestoje_pi": null,
  "dojazd_pi": null,
  "dieta_pi": "1",
  "od_so": "00.00",
  "do_so": "00.00",
  "przestoje_so": null,
  "dojazd_so": null,
  "dieta_so": "0",
  "od_ni": "00.00",
  "do_ni": "00.00",
  "przestoje_ni": null,
  "dojazd_ni": null,
  "dieta_ni": "0",
  "rokTydzien": "2020.19",
  "export": 0,
  "komentarz": null,
  "obecny": "brak"
}
:::Tydzień:::2020.19

:::Budowa:::[851] Budowa Budynku Komory Testowej w Środzie Śląskiej  - TEST CELL dla Xeos - Lufthanza - Etap II [Umowa Nr 33/2pd6/2020].
***************************************
08-05-2020 15:46:31
{
  "Id": 4501,
  "rok": 2020,
  "miesiac": 0,
  "brygadzistaID": 49,
  "data_wprowadzenia": "08-05-2020 12:00    ",
  "data_modyfikacji": "08-05-2020 12:00",
  "budowaID": 12429,
  "podpis": null,
  "pracownikID": 10894,
  "od_pn": "00.00",
  "do_pn": "00.00",
  "przestoje_pn": null,
  "dojazd_pn": null,
  "dieta_pn": "0",
  "od_wt": "00.00",
  "do_wt": "00.00",
  "przestoje_wt": null,
  "dojazd_wt": null,
  "dieta_wt": "1",
  "od_sr": "00.00",
  "do_sr": "00.00",
  "przestoje_sr": null,
  "dojazd_sr": null,
  "dieta_sr": "1",
  "od_cz": "09.00",
  "do_cz": "17.00",
  "przestoje_cz": null,
  "dojazd_cz": null,
  "dieta_cz": "1",
  "od_pi": "07.00",
  "do_pi": "17.00",
  "przestoje_pi": null,
  "dojazd_pi": null,
  "dieta_pi": "1",
  "od_so": "00.00",
  "do_so": "00.00",
  "przestoje_so": null,
  "dojazd_so": null,
  "dieta_so": "0",
  "od_ni": "00.00",
  "do_ni": "00.00",
  "przestoje_ni": null,
  "dojazd_ni": null,
  "dieta_ni": "0",
  "rokTydzien": "2020.19",
  "export": 0,
  "komentarz": null,
  "obecny": "brak"
}
:::Tydzień:::2020.19

:::Budowa:::[851] Budowa Budynku Komory Testowej w Środzie Śląskiej  - TEST CELL dla Xeos - Lufthanza - Etap II [Umowa Nr 33/2pd6/2020].
***************************************
08-05-2020 15:46:31
{
  "Id": 4502,
  "rok": 2020,
  "miesiac": 0,
  "brygadzistaID": 49,
  "data_wprowadzenia": "08-05-2020 12:00    ",
  "data_modyfikacji": "08-05-2020 12:00",
  "budowaID": 12429,
  "podpis": null,
  "pracownikID": 10869,
  "od_pn": "00.00",
  "do_pn": "00.00",
  "przestoje_pn": null,
  "dojazd_pn": null,
  "dieta_pn": "0",
  "od_wt": "00.00",
  "do_wt": "00.00",
  "przestoje_wt": null,
  "dojazd_wt": null,
  "dieta_wt": "0",
  "od_sr": "00.00",
  "do_sr": "00.00",
  "przestoje_sr": null,
  "dojazd_sr": null,
  "dieta_sr": "0",
  "od_cz": "00.00",
  "do_cz": "00.00",
  "przestoje_cz": null,
  "dojazd_cz": null,
  "dieta_cz": "0",
  "od_pi": "00.00",
  "do_pi": "00.00",
  "przestoje_pi": null,
  "dojazd_pi": null,
  "dieta_pi": "0",
  "od_so": "00.00",
  "do_so": "00.00",
  "przestoje_so": null,
  "dojazd_so": null,
  "dieta_so": "0",
  "od_ni": "00.00",
  "do_ni": "00.00",
  "przestoje_ni": null,
  "dojazd_ni": null,
  "dieta_ni": "0",
  "rokTydzien": "2020.19",
  "export": 0,
  "komentarz": null,
  "obecny": "U"
}
:::Tydzień:::2020.19

:::Budowa:::[851] Budowa Budynku Komory Testowej w Środzie Śląskiej  - TEST CELL dla Xeos - Lufthanza - Etap II [Umowa Nr 33/2pd6/2020].
***************************************
08-05-2020 15:46:31
{
  "Id": 4503,
  "rok": 2020,
  "miesiac": 0,
  "brygadzistaID": 49,
  "data_wprowadzenia": "08-05-2020 12:00    ",
  "data_modyfikacji": "08-05-2020 12:00",
  "budowaID": 12429,
  "podpis": null,
  "pracownikID": 10771,
  "od_pn": "00.00",
  "do_pn": "00.00",
  "przestoje_pn": null,
  "dojazd_pn": null,
  "dieta_pn": "0",
  "od_wt": "07.00",
  "do_wt": "17.00",
  "przestoje_wt": null,
  "dojazd_wt": null,
  "dieta_wt": "1",
  "od_sr": "07.00",
  "do_sr": "17.00",
  "przestoje_sr": null,
  "dojazd_sr": null,
  "dieta_sr": "1",
  "od_cz": "07.00",
  "do_cz": "17.00",
  "przestoje_cz": null,
  "dojazd_cz": null,
  "dieta_cz": "1",
  "od_pi": "07.00",
  "do_pi": "17.00",
  "przestoje_pi": null,
  "dojazd_pi": null,
  "dieta_pi": "1",
  "od_so": "00.00",
  "do_so": "00.00",
  "przestoje_so": null,
  "dojazd_so": null,
  "dieta_so": "0",
  "od_ni": "00.00",
  "do_ni": "00.00",
  "przestoje_ni": null,
  "dojazd_ni": null,
  "dieta_ni": "0",
  "rokTydzien": "2020.19",
  "export": 0,
  "komentarz": null,
  "obecny": "brak"
}
:::Tydzień:::2020.19

:::Budowa:::[851] Budowa Budynku Komory Testowej w Środzie Śląskiej  - TEST CELL dla Xeos - Lufthanza - Etap II [Umowa Nr 33/2pd6/2020].
***************************************
