17-09-2019 09:19:58
{
  "Id": 0,
  "rok": 2019,
  "miesiac": 0,
  "brygadzistaID": 49,
  "data_wprowadzenia": "17-09-2019 12:00",
  "data_modyfikacji": null,
  "budowaID": 12322,
  "podpis": "49-49-2019.36-17-09-2019.png",
  "pracownikID": 49,
  "od_pn": "07.00",
  "do_pn": "17.00",
  "przestoje_pn": null,
  "dojazd_pn": null,
  "dieta_pn": "1",
  "od_wt": "07.00",
  "do_wt": "17.00",
  "przestoje_wt": null,
  "dojazd_wt": null,
  "dieta_wt": "1",
  "od_sr": "07.00",
  "do_sr": "17.00",
  "przestoje_sr": null,
  "dojazd_sr": null,
  "dieta_sr": "1",
  "od_cz": "07.00",
  "do_cz": "17.00",
  "przestoje_cz": null,
  "dojazd_cz": null,
  "dieta_cz": "1",
  "od_pi": "05.00",
  "do_pi": "15.00",
  "przestoje_pi": null,
  "dojazd_pi": null,
  "dieta_pi": "1",
  "od_so": "00.00",
  "do_so": "00.00",
  "przestoje_so": null,
  "dojazd_so": null,
  "dieta_so": "0",
  "od_ni": "00.00",
  "do_ni": "00.00",
  "przestoje_ni": null,
  "dojazd_ni": null,
  "dieta_ni": "0",
  "rokTydzien": "2019.36",
  "export": 0,
  "komentarz": null
}
:::Tydzień:::2019.36

:::Budowa:::[831] Panattoni Tychy - Etap I [Nr projektu 23/19 BAS 3230]
***************************************
17-09-2019 09:19:58
{
  "Id": 0,
  "rok": 2019,
  "miesiac": 0,
  "brygadzistaID": 49,
  "data_wprowadzenia": "17-09-2019 12:00",
  "data_modyfikacji": null,
  "budowaID": 12322,
  "podpis": null,
  "pracownikID": 10560,
  "od_pn": "07.00",
  "do_pn": "17.00",
  "przestoje_pn": null,
  "dojazd_pn": "1",
  "dieta_pn": "1",
  "od_wt": "07.00",
  "do_wt": "17.00",
  "przestoje_wt": null,
  "dojazd_wt": "1",
  "dieta_wt": "1",
  "od_sr": "07.00",
  "do_sr": "17.00",
  "przestoje_sr": null,
  "dojazd_sr": "1",
  "dieta_sr": "1",
  "od_cz": "07.00",
  "do_cz": "17.00",
  "przestoje_cz": null,
  "dojazd_cz": "1",
  "dieta_cz": "1",
  "od_pi": "05.00",
  "do_pi": "15.00",
  "przestoje_pi": null,
  "dojazd_pi": "1",
  "dieta_pi": "1",
  "od_so": "00.00",
  "do_so": "00.00",
  "przestoje_so": null,
  "dojazd_so": null,
  "dieta_so": "0",
  "od_ni": "00.00",
  "do_ni": "00.00",
  "przestoje_ni": null,
  "dojazd_ni": null,
  "dieta_ni": "0",
  "rokTydzien": "2019.36",
  "export": 0,
  "komentarz": null
}
:::Tydzień:::2019.36

:::Budowa:::[831] Panattoni Tychy - Etap I [Nr projektu 23/19 BAS 3230]
***************************************
17-09-2019 09:19:58
{
  "Id": 0,
  "rok": 2019,
  "miesiac": 0,
  "brygadzistaID": 49,
  "data_wprowadzenia": "17-09-2019 12:00",
  "data_modyfikacji": null,
  "budowaID": 12322,
  "podpis": null,
  "pracownikID": 10682,
  "od_pn": "07.00",
  "do_pn": "17.00",
  "przestoje_pn": null,
  "dojazd_pn": null,
  "dieta_pn": "1",
  "od_wt": "07.00",
  "do_wt": "17.00",
  "przestoje_wt": null,
  "dojazd_wt": null,
  "dieta_wt": "1",
  "od_sr": "07.00",
  "do_sr": "17.00",
  "przestoje_sr": null,
  "dojazd_sr": null,
  "dieta_sr": "1",
  "od_cz": "07.00",
  "do_cz": "17.00",
  "przestoje_cz": null,
  "dojazd_cz": null,
  "dieta_cz": "1",
  "od_pi": "05.00",
  "do_pi": "15.00",
  "przestoje_pi": null,
  "dojazd_pi": null,
  "dieta_pi": "1",
  "od_so": "00.00",
  "do_so": "00.00",
  "przestoje_so": null,
  "dojazd_so": null,
  "dieta_so": "0",
  "od_ni": "00.00",
  "do_ni": "00.00",
  "przestoje_ni": null,
  "dojazd_ni": null,
  "dieta_ni": "0",
  "rokTydzien": "2019.36",
  "export": 0,
  "komentarz": null
}
:::Tydzień:::2019.36

:::Budowa:::[831] Panattoni Tychy - Etap I [Nr projektu 23/19 BAS 3230]
***************************************
17-09-2019 09:19:58
{
  "Id": 0,
  "rok": 2019,
  "miesiac": 0,
  "brygadzistaID": 49,
  "data_wprowadzenia": "17-09-2019 12:00",
  "data_modyfikacji": null,
  "budowaID": 12322,
  "podpis": null,
  "pracownikID": 10819,
  "od_pn": "07.00",
  "do_pn": "17.00",
  "przestoje_pn": null,
  "dojazd_pn": null,
  "dieta_pn": "1",
  "od_wt": "07.00",
  "do_wt": "17.00",
  "przestoje_wt": null,
  "dojazd_wt": null,
  "dieta_wt": "1",
  "od_sr": "07.00",
  "do_sr": "17.00",
  "przestoje_sr": null,
  "dojazd_sr": null,
  "dieta_sr": "1",
  "od_cz": "07.00",
  "do_cz": "17.00",
  "przestoje_cz": null,
  "dojazd_cz": null,
  "dieta_cz": "1",
  "od_pi": "05.00",
  "do_pi": "15.00",
  "przestoje_pi": null,
  "dojazd_pi": null,
  "dieta_pi": "1",
  "od_so": "00.00",
  "do_so": "00.00",
  "przestoje_so": null,
  "dojazd_so": null,
  "dieta_so": "0",
  "od_ni": "00.00",
  "do_ni": "00.00",
  "przestoje_ni": null,
  "dojazd_ni": null,
  "dieta_ni": "0",
  "rokTydzien": "2019.36",
  "export": 0,
  "komentarz": null
}
:::Tydzień:::2019.36

:::Budowa:::[831] Panattoni Tychy - Etap I [Nr projektu 23/19 BAS 3230]
***************************************
17-09-2019 09:19:58
{
  "Id": 0,
  "rok": 2019,
  "miesiac": 0,
  "brygadzistaID": 49,
  "data_wprowadzenia": "17-09-2019 12:00",
  "data_modyfikacji": null,
  "budowaID": 12322,
  "podpis": null,
  "pracownikID": 10735,
  "od_pn": "07.00",
  "do_pn": "17.00",
  "przestoje_pn": null,
  "dojazd_pn": null,
  "dieta_pn": "1",
  "od_wt": "07.00",
  "do_wt": "17.00",
  "przestoje_wt": null,
  "dojazd_wt": null,
  "dieta_wt": "1",
  "od_sr": "07.00",
  "do_sr": "17.00",
  "przestoje_sr": null,
  "dojazd_sr": null,
  "dieta_sr": "1",
  "od_cz": "07.00",
  "do_cz": "17.00",
  "przestoje_cz": null,
  "dojazd_cz": null,
  "dieta_cz": "1",
  "od_pi": "05.00",
  "do_pi": "15.00",
  "przestoje_pi": null,
  "dojazd_pi": null,
  "dieta_pi": "1",
  "od_so": "00.00",
  "do_so": "00.00",
  "przestoje_so": null,
  "dojazd_so": null,
  "dieta_so": "0",
  "od_ni": "00.00",
  "do_ni": "00.00",
  "przestoje_ni": null,
  "dojazd_ni": null,
  "dieta_ni": "0",
  "rokTydzien": "2019.36",
  "export": 0,
  "komentarz": null
}
:::Tydzień:::2019.36

:::Budowa:::[831] Panattoni Tychy - Etap I [Nr projektu 23/19 BAS 3230]
***************************************
17-09-2019 09:19:58
{
  "Id": 0,
  "rok": 2019,
  "miesiac": 0,
  "brygadzistaID": 49,
  "data_wprowadzenia": "17-09-2019 12:00",
  "data_modyfikacji": null,
  "budowaID": 12322,
  "podpis": null,
  "pracownikID": 10869,
  "od_pn": "07.00",
  "do_pn": "17.00",
  "przestoje_pn": null,
  "dojazd_pn": "2",
  "dieta_pn": "1",
  "od_wt": "07.00",
  "do_wt": "17.00",
  "przestoje_wt": null,
  "dojazd_wt": "1",
  "dieta_wt": "1",
  "od_sr": "07.00",
  "do_sr": "17.00",
  "przestoje_sr": null,
  "dojazd_sr": "1",
  "dieta_sr": "1",
  "od_cz": "07.00",
  "do_cz": "17.00",
  "przestoje_cz": null,
  "dojazd_cz": "1",
  "dieta_cz": "1",
  "od_pi": "05.00",
  "do_pi": "15.00",
  "przestoje_pi": null,
  "dojazd_pi": "2",
  "dieta_pi": "1",
  "od_so": "00.00",
  "do_so": "00.00",
  "przestoje_so": null,
  "dojazd_so": null,
  "dieta_so": "0",
  "od_ni": "00.00",
  "do_ni": "00.00",
  "przestoje_ni": null,
  "dojazd_ni": null,
  "dieta_ni": "0",
  "rokTydzien": "2019.36",
  "export": 0,
  "komentarz": null
}
:::Tydzień:::2019.36

:::Budowa:::[831] Panattoni Tychy - Etap I [Nr projektu 23/19 BAS 3230]
***************************************
17-09-2019 09:19:58
{
  "Id": 0,
  "rok": 2019,
  "miesiac": 0,
  "brygadzistaID": 49,
  "data_wprowadzenia": "17-09-2019 12:00",
  "data_modyfikacji": null,
  "budowaID": 12322,
  "podpis": null,
  "pracownikID": 10798,
  "od_pn": "07.00",
  "do_pn": "17.00",
  "przestoje_pn": null,
  "dojazd_pn": null,
  "dieta_pn": "1",
  "od_wt": "07.00",
  "do_wt": "17.00",
  "przestoje_wt": null,
  "dojazd_wt": null,
  "dieta_wt": "1",
  "od_sr": "07.00",
  "do_sr": "17.00",
  "przestoje_sr": null,
  "dojazd_sr": null,
  "dieta_sr": "1",
  "od_cz": "07.00",
  "do_cz": "17.00",
  "przestoje_cz": null,
  "dojazd_cz": null,
  "dieta_cz": "1",
  "od_pi": "05.00",
  "do_pi": "15.00",
  "przestoje_pi": null,
  "dojazd_pi": null,
  "dieta_pi": "1",
  "od_so": "00.00",
  "do_so": "00.00",
  "przestoje_so": null,
  "dojazd_so": null,
  "dieta_so": "0",
  "od_ni": "00.00",
  "do_ni": "00.00",
  "przestoje_ni": null,
  "dojazd_ni": null,
  "dieta_ni": "0",
  "rokTydzien": "2019.36",
  "export": 0,
  "komentarz": null
}
:::Tydzień:::2019.36

:::Budowa:::[831] Panattoni Tychy - Etap I [Nr projektu 23/19 BAS 3230]
***************************************
17-09-2019 09:22:50
{
  "Id": 2517,
  "rok": 2019,
  "miesiac": 0,
  "brygadzistaID": 49,
  "data_wprowadzenia": "17-09-2019 12:00    ",
  "data_modyfikacji": "17-09-2019 12:00",
  "budowaID": 12322,
  "podpis": "49-49-2019.36-17-09-2019.png",
  "pracownikID": 49,
  "od_pn": "07.00",
  "do_pn": "17.00",
  "przestoje_pn": null,
  "dojazd_pn": null,
  "dieta_pn": "1",
  "od_wt": "07.00",
  "do_wt": "17.00",
  "przestoje_wt": null,
  "dojazd_wt": null,
  "dieta_wt": "1",
  "od_sr": "07.00",
  "do_sr": "17.00",
  "przestoje_sr": null,
  "dojazd_sr": null,
  "dieta_sr": "1",
  "od_cz": "07.00",
  "do_cz": "17.00",
  "przestoje_cz": null,
  "dojazd_cz": null,
  "dieta_cz": "1",
  "od_pi": "05.00",
  "do_pi": "15.00",
  "przestoje_pi": null,
  "dojazd_pi": null,
  "dieta_pi": "1",
  "od_so": "00.00",
  "do_so": "00.00",
  "przestoje_so": null,
  "dojazd_so": null,
  "dieta_so": "0",
  "od_ni": "00.00",
  "do_ni": "00.00",
  "przestoje_ni": null,
  "dojazd_ni": null,
  "dieta_ni": "0",
  "rokTydzien": "2019.36",
  "export": 0,
  "komentarz": null
}
:::Tydzień:::2019.36

:::Budowa:::[831] Panattoni Tychy - Etap I [Nr projektu 23/19 BAS 3230]
***************************************
17-09-2019 09:22:50
{
  "Id": 2518,
  "rok": 2019,
  "miesiac": 0,
  "brygadzistaID": 49,
  "data_wprowadzenia": "17-09-2019 12:00    ",
  "data_modyfikacji": "17-09-2019 12:00",
  "budowaID": 12322,
  "podpis": null,
  "pracownikID": 10560,
  "od_pn": "07.00",
  "do_pn": "17.00",
  "przestoje_pn": null,
  "dojazd_pn": "1",
  "dieta_pn": "1",
  "od_wt": "07.00",
  "do_wt": "17.00",
  "przestoje_wt": null,
  "dojazd_wt": "1",
  "dieta_wt": "1",
  "od_sr": "07.00",
  "do_sr": "17.00",
  "przestoje_sr": null,
  "dojazd_sr": "1",
  "dieta_sr": "1",
  "od_cz": "07.00",
  "do_cz": "17.00",
  "przestoje_cz": null,
  "dojazd_cz": "1",
  "dieta_cz": "1",
  "od_pi": "05.00",
  "do_pi": "15.00",
  "przestoje_pi": null,
  "dojazd_pi": "1",
  "dieta_pi": "1",
  "od_so": "00.00",
  "do_so": "00.00",
  "przestoje_so": null,
  "dojazd_so": null,
  "dieta_so": "0",
  "od_ni": "00.00",
  "do_ni": "00.00",
  "przestoje_ni": null,
  "dojazd_ni": null,
  "dieta_ni": "0",
  "rokTydzien": "2019.36",
  "export": 0,
  "komentarz": null
}
:::Tydzień:::2019.36

:::Budowa:::[831] Panattoni Tychy - Etap I [Nr projektu 23/19 BAS 3230]
***************************************
17-09-2019 09:22:50
{
  "Id": 2519,
  "rok": 2019,
  "miesiac": 0,
  "brygadzistaID": 49,
  "data_wprowadzenia": "17-09-2019 12:00    ",
  "data_modyfikacji": "17-09-2019 12:00",
  "budowaID": 12322,
  "podpis": null,
  "pracownikID": 10682,
  "od_pn": "07.00",
  "do_pn": "17.00",
  "przestoje_pn": null,
  "dojazd_pn": null,
  "dieta_pn": "1",
  "od_wt": "07.00",
  "do_wt": "17.00",
  "przestoje_wt": null,
  "dojazd_wt": null,
  "dieta_wt": "1",
  "od_sr": "07.00",
  "do_sr": "17.00",
  "przestoje_sr": null,
  "dojazd_sr": null,
  "dieta_sr": "1",
  "od_cz": "07.00",
  "do_cz": "17.00",
  "przestoje_cz": null,
  "dojazd_cz": null,
  "dieta_cz": "1",
  "od_pi": "05.00",
  "do_pi": "15.00",
  "przestoje_pi": null,
  "dojazd_pi": null,
  "dieta_pi": "1",
  "od_so": "00.00",
  "do_so": "00.00",
  "przestoje_so": null,
  "dojazd_so": null,
  "dieta_so": "0",
  "od_ni": "00.00",
  "do_ni": "00.00",
  "przestoje_ni": null,
  "dojazd_ni": null,
  "dieta_ni": "0",
  "rokTydzien": "2019.36",
  "export": 0,
  "komentarz": null
}
:::Tydzień:::2019.36

:::Budowa:::[831] Panattoni Tychy - Etap I [Nr projektu 23/19 BAS 3230]
***************************************
17-09-2019 09:22:50
{
  "Id": 2520,
  "rok": 2019,
  "miesiac": 0,
  "brygadzistaID": 49,
  "data_wprowadzenia": "17-09-2019 12:00    ",
  "data_modyfikacji": "17-09-2019 12:00",
  "budowaID": 12322,
  "podpis": null,
  "pracownikID": 10819,
  "od_pn": "07.00",
  "do_pn": "17.00",
  "przestoje_pn": null,
  "dojazd_pn": null,
  "dieta_pn": "1",
  "od_wt": "07.00",
  "do_wt": "17.00",
  "przestoje_wt": null,
  "dojazd_wt": null,
  "dieta_wt": "1",
  "od_sr": "07.00",
  "do_sr": "17.00",
  "przestoje_sr": null,
  "dojazd_sr": null,
  "dieta_sr": "1",
  "od_cz": "07.00",
  "do_cz": "17.00",
  "przestoje_cz": null,
  "dojazd_cz": null,
  "dieta_cz": "1",
  "od_pi": "05.00",
  "do_pi": "15.00",
  "przestoje_pi": null,
  "dojazd_pi": null,
  "dieta_pi": "1",
  "od_so": "00.00",
  "do_so": "00.00",
  "przestoje_so": null,
  "dojazd_so": null,
  "dieta_so": "0",
  "od_ni": "00.00",
  "do_ni": "00.00",
  "przestoje_ni": null,
  "dojazd_ni": null,
  "dieta_ni": "0",
  "rokTydzien": "2019.36",
  "export": 0,
  "komentarz": null
}
:::Tydzień:::2019.36

:::Budowa:::[831] Panattoni Tychy - Etap I [Nr projektu 23/19 BAS 3230]
***************************************
17-09-2019 09:22:50
{
  "Id": 2521,
  "rok": 2019,
  "miesiac": 0,
  "brygadzistaID": 49,
  "data_wprowadzenia": "17-09-2019 12:00    ",
  "data_modyfikacji": "17-09-2019 12:00",
  "budowaID": 12322,
  "podpis": null,
  "pracownikID": 10735,
  "od_pn": "07.00",
  "do_pn": "17.00",
  "przestoje_pn": null,
  "dojazd_pn": null,
  "dieta_pn": "1",
  "od_wt": "07.00",
  "do_wt": "17.00",
  "przestoje_wt": null,
  "dojazd_wt": null,
  "dieta_wt": "1",
  "od_sr": "07.00",
  "do_sr": "17.00",
  "przestoje_sr": null,
  "dojazd_sr": null,
  "dieta_sr": "1",
  "od_cz": "07.00",
  "do_cz": "17.00",
  "przestoje_cz": null,
  "dojazd_cz": null,
  "dieta_cz": "1",
  "od_pi": "05.00",
  "do_pi": "15.00",
  "przestoje_pi": null,
  "dojazd_pi": null,
  "dieta_pi": "1",
  "od_so": "00.00",
  "do_so": "00.00",
  "przestoje_so": null,
  "dojazd_so": null,
  "dieta_so": "0",
  "od_ni": "00.00",
  "do_ni": "00.00",
  "przestoje_ni": null,
  "dojazd_ni": null,
  "dieta_ni": "0",
  "rokTydzien": "2019.36",
  "export": 0,
  "komentarz": null
}
:::Tydzień:::2019.36

:::Budowa:::[831] Panattoni Tychy - Etap I [Nr projektu 23/19 BAS 3230]
***************************************
17-09-2019 09:22:50
{
  "Id": 2522,
  "rok": 2019,
  "miesiac": 0,
  "brygadzistaID": 49,
  "data_wprowadzenia": "17-09-2019 12:00    ",
  "data_modyfikacji": "17-09-2019 12:00",
  "budowaID": 12322,
  "podpis": null,
  "pracownikID": 10869,
  "od_pn": "07.00",
  "do_pn": "17.00",
  "przestoje_pn": null,
  "dojazd_pn": "2",
  "dieta_pn": "1",
  "od_wt": "07.00",
  "do_wt": "17.00",
  "przestoje_wt": null,
  "dojazd_wt": "1",
  "dieta_wt": "1",
  "od_sr": "07.00",
  "do_sr": "17.00",
  "przestoje_sr": null,
  "dojazd_sr": "1",
  "dieta_sr": "1",
  "od_cz": "07.00",
  "do_cz": "17.00",
  "przestoje_cz": null,
  "dojazd_cz": "1",
  "dieta_cz": "1",
  "od_pi": "05.00",
  "do_pi": "15.00",
  "przestoje_pi": null,
  "dojazd_pi": "2",
  "dieta_pi": "1",
  "od_so": "00.00",
  "do_so": "00.00",
  "przestoje_so": null,
  "dojazd_so": null,
  "dieta_so": "0",
  "od_ni": "00.00",
  "do_ni": "00.00",
  "przestoje_ni": null,
  "dojazd_ni": null,
  "dieta_ni": "0",
  "rokTydzien": "2019.36",
  "export": 0,
  "komentarz": null
}
:::Tydzień:::2019.36

:::Budowa:::[831] Panattoni Tychy - Etap I [Nr projektu 23/19 BAS 3230]
***************************************
17-09-2019 09:22:50
{
  "Id": 2523,
  "rok": 2019,
  "miesiac": 0,
  "brygadzistaID": 49,
  "data_wprowadzenia": "17-09-2019 12:00    ",
  "data_modyfikacji": "17-09-2019 12:00",
  "budowaID": 12322,
  "podpis": null,
  "pracownikID": 10798,
  "od_pn": "07.00",
  "do_pn": "17.00",
  "przestoje_pn": null,
  "dojazd_pn": null,
  "dieta_pn": "1",
  "od_wt": "07.00",
  "do_wt": "17.00",
  "przestoje_wt": null,
  "dojazd_wt": null,
  "dieta_wt": "1",
  "od_sr": "07.00",
  "do_sr": "17.00",
  "przestoje_sr": null,
  "dojazd_sr": null,
  "dieta_sr": "1",
  "od_cz": "07.00",
  "do_cz": "17.00",
  "przestoje_cz": null,
  "dojazd_cz": null,
  "dieta_cz": "1",
  "od_pi": "05.00",
  "do_pi": "15.00",
  "przestoje_pi": null,
  "dojazd_pi": null,
  "dieta_pi": "1",
  "od_so": "00.00",
  "do_so": "00.00",
  "przestoje_so": null,
  "dojazd_so": null,
  "dieta_so": "0",
  "od_ni": "00.00",
  "do_ni": "00.00",
  "przestoje_ni": null,
  "dojazd_ni": null,
  "dieta_ni": "0",
  "rokTydzien": "2019.36",
  "export": 0,
  "komentarz": null
}
:::Tydzień:::2019.36

:::Budowa:::[831] Panattoni Tychy - Etap I [Nr projektu 23/19 BAS 3230]
***************************************
17-09-2019 09:33:22
{
  "Id": 0,
  "rok": 2019,
  "miesiac": 0,
  "brygadzistaID": 49,
  "data_wprowadzenia": "17-09-2019 12:00",
  "data_modyfikacji": null,
  "budowaID": 12322,
  "podpis": "49-49-2019.37-17-09-2019.png",
  "pracownikID": 49,
  "od_pn": "00.00",
  "do_pn": "00.00",
  "przestoje_pn": null,
  "dojazd_pn": null,
  "dieta_pn": "0",
  "od_wt": "00.00",
  "do_wt": "00.00",
  "przestoje_wt": null,
  "dojazd_wt": null,
  "dieta_wt": "0",
  "od_sr": "00.00",
  "do_sr": "00.00",
  "przestoje_sr": null,
  "dojazd_sr": null,
  "dieta_sr": "0",
  "od_cz": "00.00",
  "do_cz": "00.00",
  "przestoje_cz": null,
  "dojazd_cz": null,
  "dieta_cz": "0",
  "od_pi": "00.00",
  "do_pi": "00.00",
  "przestoje_pi": null,
  "dojazd_pi": null,
  "dieta_pi": "0",
  "od_so": "00.00",
  "do_so": "00.00",
  "przestoje_so": null,
  "dojazd_so": null,
  "dieta_so": "0",
  "od_ni": "00.00",
  "do_ni": "00.00",
  "przestoje_ni": null,
  "dojazd_ni": null,
  "dieta_ni": "0",
  "rokTydzien": "2019.37",
  "export": 0,
  "komentarz": null
}
:::Tydzień:::2019.37

:::Budowa:::[831] Panattoni Tychy - Etap I [Nr projektu 23/19 BAS 3230]
***************************************
17-09-2019 09:33:22
{
  "Id": 0,
  "rok": 2019,
  "miesiac": 0,
  "brygadzistaID": 49,
  "data_wprowadzenia": "17-09-2019 12:00",
  "data_modyfikacji": null,
  "budowaID": 12322,
  "podpis": null,
  "pracownikID": 10560,
  "od_pn": "07.00",
  "do_pn": "17.00",
  "przestoje_pn": null,
  "dojazd_pn": "1",
  "dieta_pn": "1",
  "od_wt": "07.00",
  "do_wt": "17.00",
  "przestoje_wt": null,
  "dojazd_wt": "1",
  "dieta_wt": "1",
  "od_sr": "07.00",
  "do_sr": "17.00",
  "przestoje_sr": null,
  "dojazd_sr": "1",
  "dieta_sr": "1",
  "od_cz": "07.00",
  "do_cz": "17.00",
  "przestoje_cz": null,
  "dojazd_cz": "1",
  "dieta_cz": "1",
  "od_pi": "07.00",
  "do_pi": "17.00",
  "przestoje_pi": null,
  "dojazd_pi": "1",
  "dieta_pi": "1",
  "od_so": "06.00",
  "do_so": "12.00",
  "przestoje_so": null,
  "dojazd_so": "1",
  "dieta_so": "1",
  "od_ni": "00.00",
  "do_ni": "00.00",
  "przestoje_ni": null,
  "dojazd_ni": null,
  "dieta_ni": "0",
  "rokTydzien": "2019.37",
  "export": 0,
  "komentarz": null
}
:::Tydzień:::2019.37

:::Budowa:::[831] Panattoni Tychy - Etap I [Nr projektu 23/19 BAS 3230]
***************************************
17-09-2019 09:33:22
{
  "Id": 0,
  "rok": 2019,
  "miesiac": 0,
  "brygadzistaID": 49,
  "data_wprowadzenia": "17-09-2019 12:00",
  "data_modyfikacji": null,
  "budowaID": 12322,
  "podpis": null,
  "pracownikID": 10682,
  "od_pn": "07.00",
  "do_pn": "17.00",
  "przestoje_pn": null,
  "dojazd_pn": "1",
  "dieta_pn": "1",
  "od_wt": "07.00",
  "do_wt": "17.00",
  "przestoje_wt": null,
  "dojazd_wt": null,
  "dieta_wt": "1",
  "od_sr": "07.00",
  "do_sr": "17.00",
  "przestoje_sr": null,
  "dojazd_sr": null,
  "dieta_sr": "1",
  "od_cz": "07.00",
  "do_cz": "17.00",
  "przestoje_cz": null,
  "dojazd_cz": null,
  "dieta_cz": "1",
  "od_pi": "07.00",
  "do_pi": "17.00",
  "przestoje_pi": null,
  "dojazd_pi": null,
  "dieta_pi": "1",
  "od_so": "06.00",
  "do_so": "12.00",
  "przestoje_so": null,
  "dojazd_so": "1",
  "dieta_so": "1",
  "od_ni": "00.00",
  "do_ni": "00.00",
  "przestoje_ni": null,
  "dojazd_ni": null,
  "dieta_ni": "0",
  "rokTydzien": "2019.37",
  "export": 0,
  "komentarz": null
}
:::Tydzień:::2019.37

:::Budowa:::[831] Panattoni Tychy - Etap I [Nr projektu 23/19 BAS 3230]
***************************************
17-09-2019 09:33:22
{
  "Id": 0,
  "rok": 2019,
  "miesiac": 0,
  "brygadzistaID": 49,
  "data_wprowadzenia": "17-09-2019 12:00",
  "data_modyfikacji": null,
  "budowaID": 12322,
  "podpis": null,
  "pracownikID": 10819,
  "od_pn": "07.00",
  "do_pn": "17.00",
  "przestoje_pn": null,
  "dojazd_pn": null,
  "dieta_pn": "1",
  "od_wt": "07.00",
  "do_wt": "17.00",
  "przestoje_wt": null,
  "dojazd_wt": null,
  "dieta_wt": "1",
  "od_sr": "07.00",
  "do_sr": "17.00",
  "przestoje_sr": null,
  "dojazd_sr": null,
  "dieta_sr": "1",
  "od_cz": "07.00",
  "do_cz": "17.00",
  "przestoje_cz": null,
  "dojazd_cz": null,
  "dieta_cz": "1",
  "od_pi": "07.00",
  "do_pi": "17.00",
  "przestoje_pi": null,
  "dojazd_pi": null,
  "dieta_pi": "1",
  "od_so": "06.00",
  "do_so": "12.00",
  "przestoje_so": null,
  "dojazd_so": null,
  "dieta_so": "1",
  "od_ni": "00.00",
  "do_ni": "00.00",
  "przestoje_ni": null,
  "dojazd_ni": null,
  "dieta_ni": "0",
  "rokTydzien": "2019.37",
  "export": 0,
  "komentarz": null
}
:::Tydzień:::2019.37

:::Budowa:::[831] Panattoni Tychy - Etap I [Nr projektu 23/19 BAS 3230]
***************************************
17-09-2019 09:33:22
{
  "Id": 0,
  "rok": 2019,
  "miesiac": 0,
  "brygadzistaID": 49,
  "data_wprowadzenia": "17-09-2019 12:00",
  "data_modyfikacji": null,
  "budowaID": 12322,
  "podpis": null,
  "pracownikID": 10735,
  "od_pn": "07.00",
  "do_pn": "17.00",
  "przestoje_pn": null,
  "dojazd_pn": null,
  "dieta_pn": "1",
  "od_wt": "07.00",
  "do_wt": "17.00",
  "przestoje_wt": null,
  "dojazd_wt": null,
  "dieta_wt": "1",
  "od_sr": "07.00",
  "do_sr": "17.00",
  "przestoje_sr": null,
  "dojazd_sr": null,
  "dieta_sr": "1",
  "od_cz": "07.00",
  "do_cz": "17.00",
  "przestoje_cz": null,
  "dojazd_cz": null,
  "dieta_cz": "1",
  "od_pi": "07.00",
  "do_pi": "17.00",
  "przestoje_pi": null,
  "dojazd_pi": null,
  "dieta_pi": "1",
  "od_so": "06.00",
  "do_so": "12.00",
  "przestoje_so": null,
  "dojazd_so": null,
  "dieta_so": "1",
  "od_ni": "00.00",
  "do_ni": "00.00",
  "przestoje_ni": null,
  "dojazd_ni": null,
  "dieta_ni": "0",
  "rokTydzien": "2019.37",
  "export": 0,
  "komentarz": null
}
:::Tydzień:::2019.37

:::Budowa:::[831] Panattoni Tychy - Etap I [Nr projektu 23/19 BAS 3230]
***************************************
17-09-2019 09:33:22
{
  "Id": 0,
  "rok": 2019,
  "miesiac": 0,
  "brygadzistaID": 49,
  "data_wprowadzenia": "17-09-2019 12:00",
  "data_modyfikacji": null,
  "budowaID": 12322,
  "podpis": null,
  "pracownikID": 10772,
  "od_pn": "07.00",
  "do_pn": "17.00",
  "przestoje_pn": null,
  "dojazd_pn": null,
  "dieta_pn": "1",
  "od_wt": "07.00",
  "do_wt": "17.00",
  "przestoje_wt": null,
  "dojazd_wt": null,
  "dieta_wt": "1",
  "od_sr": "07.00",
  "do_sr": "17.00",
  "przestoje_sr": null,
  "dojazd_sr": null,
  "dieta_sr": "1",
  "od_cz": "07.00",
  "do_cz": "17.00",
  "przestoje_cz": null,
  "dojazd_cz": null,
  "dieta_cz": "1",
  "od_pi": "07.00",
  "do_pi": "17.00",
  "przestoje_pi": null,
  "dojazd_pi": null,
  "dieta_pi": "1",
  "od_so": "06.00",
  "do_so": "12.00",
  "przestoje_so": null,
  "dojazd_so": null,
  "dieta_so": "1",
  "od_ni": "00.00",
  "do_ni": "00.00",
  "przestoje_ni": null,
  "dojazd_ni": null,
  "dieta_ni": "0",
  "rokTydzien": "2019.37",
  "export": 0,
  "komentarz": null
}
:::Tydzień:::2019.37

:::Budowa:::[831] Panattoni Tychy - Etap I [Nr projektu 23/19 BAS 3230]
***************************************
17-09-2019 09:33:22
{
  "Id": 0,
  "rok": 2019,
  "miesiac": 0,
  "brygadzistaID": 49,
  "data_wprowadzenia": "17-09-2019 12:00",
  "data_modyfikacji": null,
  "budowaID": 12322,
  "podpis": "49-10869-2019.37-17-09-2019.png",
  "pracownikID": 10869,
  "od_pn": "07.00",
  "do_pn": "17.00",
  "przestoje_pn": null,
  "dojazd_pn": null,
  "dieta_pn": "1",
  "od_wt": "07.00",
  "do_wt": "17.00",
  "przestoje_wt": null,
  "dojazd_wt": null,
  "dieta_wt": "1",
  "od_sr": "07.00",
  "do_sr": "17.00",
  "przestoje_sr": null,
  "dojazd_sr": null,
  "dieta_sr": "1",
  "od_cz": "07.00",
  "do_cz": "17.00",
  "przestoje_cz": null,
  "dojazd_cz": null,
  "dieta_cz": "1",
  "od_pi": "07.00",
  "do_pi": "17.00",
  "przestoje_pi": null,
  "dojazd_pi": null,
  "dieta_pi": "1",
  "od_so": "06.00",
  "do_so": "12.00",
  "przestoje_so": null,
  "dojazd_so": null,
  "dieta_so": "1",
  "od_ni": "00.00",
  "do_ni": "00.00",
  "przestoje_ni": null,
  "dojazd_ni": null,
  "dieta_ni": "0",
  "rokTydzien": "2019.37",
  "export": 0,
  "komentarz": null
}
:::Tydzień:::2019.37

:::Budowa:::[831] Panattoni Tychy - Etap I [Nr projektu 23/19 BAS 3230]
***************************************
17-09-2019 09:33:22
{
  "Id": 0,
  "rok": 2019,
  "miesiac": 0,
  "brygadzistaID": 49,
  "data_wprowadzenia": "17-09-2019 12:00",
  "data_modyfikacji": null,
  "budowaID": 12322,
  "podpis": null,
  "pracownikID": 10798,
  "od_pn": "07.00",
  "do_pn": "17.00",
  "przestoje_pn": null,
  "dojazd_pn": null,
  "dieta_pn": "1",
  "od_wt": "07.00",
  "do_wt": "17.00",
  "przestoje_wt": null,
  "dojazd_wt": null,
  "dieta_wt": "1",
  "od_sr": "07.00",
  "do_sr": "17.00",
  "przestoje_sr": null,
  "dojazd_sr": null,
  "dieta_sr": "1",
  "od_cz": "07.00",
  "do_cz": "17.00",
  "przestoje_cz": null,
  "dojazd_cz": null,
  "dieta_cz": "1",
  "od_pi": "07.00",
  "do_pi": "17.00",
  "przestoje_pi": null,
  "dojazd_pi": null,
  "dieta_pi": "1",
  "od_so": "06.00",
  "do_so": "12.00",
  "przestoje_so": null,
  "dojazd_so": null,
  "dieta_so": "1",
  "od_ni": "00.00",
  "do_ni": "00.00",
  "przestoje_ni": null,
  "dojazd_ni": null,
  "dieta_ni": "0",
  "rokTydzien": "2019.37",
  "export": 0,
  "komentarz": null
}
:::Tydzień:::2019.37

:::Budowa:::[831] Panattoni Tychy - Etap I [Nr projektu 23/19 BAS 3230]
***************************************
17-09-2019 09:33:22
{
  "Id": 0,
  "rok": 2019,
  "miesiac": 0,
  "brygadzistaID": 49,
  "data_wprowadzenia": "17-09-2019 12:00",
  "data_modyfikacji": null,
  "budowaID": 12322,
  "podpis": null,
  "pracownikID": 10771,
  "od_pn": "07.00",
  "do_pn": "17.00",
  "przestoje_pn": null,
  "dojazd_pn": "2",
  "dieta_pn": "1",
  "od_wt": "07.00",
  "do_wt": "17.00",
  "przestoje_wt": null,
  "dojazd_wt": "1",
  "dieta_wt": "1",
  "od_sr": "07.00",
  "do_sr": "17.00",
  "przestoje_sr": null,
  "dojazd_sr": "1",
  "dieta_sr": "1",
  "od_cz": "07.00",
  "do_cz": "17.00",
  "przestoje_cz": null,
  "dojazd_cz": "1",
  "dieta_cz": "1",
  "od_pi": "07.00",
  "do_pi": "17.00",
  "przestoje_pi": null,
  "dojazd_pi": "1",
  "dieta_pi": "1",
  "od_so": "06.00",
  "do_so": "12.00",
  "przestoje_so": null,
  "dojazd_so": "2",
  "dieta_so": "1",
  "od_ni": "00.00",
  "do_ni": "00.00",
  "przestoje_ni": null,
  "dojazd_ni": null,
  "dieta_ni": "0",
  "rokTydzien": "2019.37",
  "export": 0,
  "komentarz": null
}
:::Tydzień:::2019.37

:::Budowa:::[831] Panattoni Tychy - Etap I [Nr projektu 23/19 BAS 3230]
***************************************
