21-08-2019 18:36:05
{
  "Id": 2155,
  "rok": 2019,
  "miesiac": 0,
  "brygadzistaID": 10308,
  "data_wprowadzenia": "20-08-2019 12:00    ",
  "data_modyfikacji": "21-08-2019 12:00",
  "budowaID": 12296,
  "podpis": null,
  "pracownikID": 10308,
  "od_pn": "07.00",
  "do_pn": "17.15",
  "przestoje_pn": null,
  "dojazd_pn": "5",
  "dieta_pn": "1",
  "od_wt": "07.00",
  "do_wt": "18.15",
  "przestoje_wt": null,
  "dojazd_wt": null,
  "dieta_wt": "1",
  "od_sr": "00.00",
  "do_sr": "00.00",
  "przestoje_sr": null,
  "dojazd_sr": null,
  "dieta_sr": "0",
  "od_cz": "00.00",
  "do_cz": "00.00",
  "przestoje_cz": null,
  "dojazd_cz": null,
  "dieta_cz": "0",
  "od_pi": "00.00",
  "do_pi": "00.00",
  "przestoje_pi": null,
  "dojazd_pi": null,
  "dieta_pi": "0",
  "od_so": "00.00",
  "do_so": "00.00",
  "przestoje_so": null,
  "dojazd_so": null,
  "dieta_so": "0",
  "od_ni": "00.00",
  "do_ni": "00.00",
  "przestoje_ni": null,
  "dojazd_ni": null,
  "dieta_ni": "0",
  "rokTydzien": "2019.34",
  "export": 0,
  "komentarz": null
}
:::Tydzień:::2019.34

:::Budowa:::[829] MTU Areo Engines Polska Tajęcin k. Rzeszowa [303 MTU].
***************************************
21-08-2019 18:36:05
{
  "Id": 2156,
  "rok": 2019,
  "miesiac": 0,
  "brygadzistaID": 10308,
  "data_wprowadzenia": "20-08-2019 12:00    ",
  "data_modyfikacji": "21-08-2019 12:00",
  "budowaID": 12296,
  "podpis": null,
  "pracownikID": 10753,
  "od_pn": "00.00",
  "do_pn": "00.00",
  "przestoje_pn": null,
  "dojazd_pn": null,
  "dieta_pn": "0",
  "od_wt": "00.00",
  "do_wt": "00.00",
  "przestoje_wt": null,
  "dojazd_wt": null,
  "dieta_wt": "0",
  "od_sr": "00.00",
  "do_sr": "00.00",
  "przestoje_sr": null,
  "dojazd_sr": null,
  "dieta_sr": "0",
  "od_cz": "00.00",
  "do_cz": "00.00",
  "przestoje_cz": null,
  "dojazd_cz": null,
  "dieta_cz": "0",
  "od_pi": "00.00",
  "do_pi": "00.00",
  "przestoje_pi": null,
  "dojazd_pi": null,
  "dieta_pi": "0",
  "od_so": "00.00",
  "do_so": "00.00",
  "przestoje_so": null,
  "dojazd_so": null,
  "dieta_so": "0",
  "od_ni": "00.00",
  "do_ni": "00.00",
  "przestoje_ni": null,
  "dojazd_ni": null,
  "dieta_ni": "0",
  "rokTydzien": "2019.34",
  "export": 0,
  "komentarz": null
}
:::Tydzień:::2019.34

:::Budowa:::[829] MTU Areo Engines Polska Tajęcin k. Rzeszowa [303 MTU].
***************************************
21-08-2019 18:36:05
{
  "Id": 2157,
  "rok": 2019,
  "miesiac": 0,
  "brygadzistaID": 10308,
  "data_wprowadzenia": "20-08-2019 12:00    ",
  "data_modyfikacji": "21-08-2019 12:00",
  "budowaID": 12296,
  "podpis": null,
  "pracownikID": 10198,
  "od_pn": "00.00",
  "do_pn": "00.00",
  "przestoje_pn": null,
  "dojazd_pn": null,
  "dieta_pn": "0",
  "od_wt": "00.00",
  "do_wt": "00.00",
  "przestoje_wt": null,
  "dojazd_wt": null,
  "dieta_wt": "0",
  "od_sr": "00.00",
  "do_sr": "00.00",
  "przestoje_sr": null,
  "dojazd_sr": null,
  "dieta_sr": "0",
  "od_cz": "00.00",
  "do_cz": "00.00",
  "przestoje_cz": null,
  "dojazd_cz": null,
  "dieta_cz": "0",
  "od_pi": "00.00",
  "do_pi": "00.00",
  "przestoje_pi": null,
  "dojazd_pi": null,
  "dieta_pi": "0",
  "od_so": "00.00",
  "do_so": "00.00",
  "przestoje_so": null,
  "dojazd_so": null,
  "dieta_so": "0",
  "od_ni": "00.00",
  "do_ni": "00.00",
  "przestoje_ni": null,
  "dojazd_ni": null,
  "dieta_ni": "0",
  "rokTydzien": "2019.34",
  "export": 0,
  "komentarz": null
}
:::Tydzień:::2019.34

:::Budowa:::[829] MTU Areo Engines Polska Tajęcin k. Rzeszowa [303 MTU].
***************************************
21-08-2019 18:36:05
{
  "Id": 2158,
  "rok": 2019,
  "miesiac": 0,
  "brygadzistaID": 10308,
  "data_wprowadzenia": "20-08-2019 12:00    ",
  "data_modyfikacji": "21-08-2019 12:00",
  "budowaID": 12296,
  "podpis": null,
  "pracownikID": 60,
  "od_pn": "07.00",
  "do_pn": "17.15",
  "przestoje_pn": null,
  "dojazd_pn": null,
  "dieta_pn": "1",
  "od_wt": "07.00",
  "do_wt": "18.15",
  "przestoje_wt": null,
  "dojazd_wt": null,
  "dieta_wt": "1",
  "od_sr": "00.00",
  "do_sr": "00.00",
  "przestoje_sr": null,
  "dojazd_sr": null,
  "dieta_sr": "0",
  "od_cz": "00.00",
  "do_cz": "00.00",
  "przestoje_cz": null,
  "dojazd_cz": null,
  "dieta_cz": "0",
  "od_pi": "00.00",
  "do_pi": "00.00",
  "przestoje_pi": null,
  "dojazd_pi": null,
  "dieta_pi": "0",
  "od_so": "00.00",
  "do_so": "00.00",
  "przestoje_so": null,
  "dojazd_so": null,
  "dieta_so": "0",
  "od_ni": "00.00",
  "do_ni": "00.00",
  "przestoje_ni": null,
  "dojazd_ni": null,
  "dieta_ni": "0",
  "rokTydzien": "2019.34",
  "export": 0,
  "komentarz": null
}
:::Tydzień:::2019.34

:::Budowa:::[829] MTU Areo Engines Polska Tajęcin k. Rzeszowa [303 MTU].
***************************************
21-08-2019 18:36:05
{
  "Id": 2159,
  "rok": 2019,
  "miesiac": 0,
  "brygadzistaID": 10308,
  "data_wprowadzenia": "20-08-2019 12:00    ",
  "data_modyfikacji": "21-08-2019 12:00",
  "budowaID": 12296,
  "podpis": null,
  "pracownikID": 10822,
  "od_pn": "07.00",
  "do_pn": "17.15",
  "przestoje_pn": null,
  "dojazd_pn": null,
  "dieta_pn": "1",
  "od_wt": "07.00",
  "do_wt": "18.15",
  "przestoje_wt": null,
  "dojazd_wt": null,
  "dieta_wt": "1",
  "od_sr": "00.00",
  "do_sr": "00.00",
  "przestoje_sr": null,
  "dojazd_sr": null,
  "dieta_sr": "0",
  "od_cz": "00.00",
  "do_cz": "00.00",
  "przestoje_cz": null,
  "dojazd_cz": null,
  "dieta_cz": "0",
  "od_pi": "00.00",
  "do_pi": "00.00",
  "przestoje_pi": null,
  "dojazd_pi": null,
  "dieta_pi": "0",
  "od_so": "00.00",
  "do_so": "00.00",
  "przestoje_so": null,
  "dojazd_so": null,
  "dieta_so": "0",
  "od_ni": "00.00",
  "do_ni": "00.00",
  "przestoje_ni": null,
  "dojazd_ni": null,
  "dieta_ni": "0",
  "rokTydzien": "2019.34",
  "export": 0,
  "komentarz": null
}
:::Tydzień:::2019.34

:::Budowa:::[829] MTU Areo Engines Polska Tajęcin k. Rzeszowa [303 MTU].
***************************************
21-08-2019 18:36:05
{
  "Id": 2160,
  "rok": 2019,
  "miesiac": 0,
  "brygadzistaID": 10308,
  "data_wprowadzenia": "20-08-2019 12:00    ",
  "data_modyfikacji": "21-08-2019 12:00",
  "budowaID": 12296,
  "podpis": null,
  "pracownikID": 10624,
  "od_pn": "07.00",
  "do_pn": "17.15",
  "przestoje_pn": null,
  "dojazd_pn": null,
  "dieta_pn": "1",
  "od_wt": "07.00",
  "do_wt": "18.15",
  "przestoje_wt": null,
  "dojazd_wt": null,
  "dieta_wt": "1",
  "od_sr": "00.00",
  "do_sr": "00.00",
  "przestoje_sr": null,
  "dojazd_sr": null,
  "dieta_sr": "0",
  "od_cz": "00.00",
  "do_cz": "00.00",
  "przestoje_cz": null,
  "dojazd_cz": null,
  "dieta_cz": "0",
  "od_pi": "00.00",
  "do_pi": "00.00",
  "przestoje_pi": null,
  "dojazd_pi": null,
  "dieta_pi": "0",
  "od_so": "00.00",
  "do_so": "00.00",
  "przestoje_so": null,
  "dojazd_so": null,
  "dieta_so": "0",
  "od_ni": "00.00",
  "do_ni": "00.00",
  "przestoje_ni": null,
  "dojazd_ni": null,
  "dieta_ni": "0",
  "rokTydzien": "2019.34",
  "export": 0,
  "komentarz": null
}
:::Tydzień:::2019.34

:::Budowa:::[829] MTU Areo Engines Polska Tajęcin k. Rzeszowa [303 MTU].
***************************************
21-08-2019 18:38:53
{
  "Id": 0,
  "rok": 2019,
  "miesiac": 0,
  "brygadzistaID": 10308,
  "data_wprowadzenia": "21-08-2019 12:00",
  "data_modyfikacji": null,
  "budowaID": 12159,
  "podpis": null,
  "pracownikID": 10308,
  "od_pn": "00.00",
  "do_pn": "00.00",
  "przestoje_pn": null,
  "dojazd_pn": null,
  "dieta_pn": "0",
  "od_wt": "00.00",
  "do_wt": "00.00",
  "przestoje_wt": null,
  "dojazd_wt": null,
  "dieta_wt": "0",
  "od_sr": "07.00",
  "do_sr": "18.15",
  "przestoje_sr": null,
  "dojazd_sr": null,
  "dieta_sr": "1",
  "od_cz": "00.00",
  "do_cz": "00.00",
  "przestoje_cz": null,
  "dojazd_cz": null,
  "dieta_cz": "0",
  "od_pi": "00.00",
  "do_pi": "00.00",
  "przestoje_pi": null,
  "dojazd_pi": null,
  "dieta_pi": "0",
  "od_so": "00.00",
  "do_so": "00.00",
  "przestoje_so": null,
  "dojazd_so": null,
  "dieta_so": "0",
  "od_ni": "00.00",
  "do_ni": "00.00",
  "przestoje_ni": null,
  "dojazd_ni": null,
  "dieta_ni": "0",
  "rokTydzien": "2019.34",
  "export": 0,
  "komentarz": null
}
:::Tydzień:::2019.34

:::Budowa:::[806] Zalando III Hilwood Olsztynek [018/18  BAS32300]
***************************************
21-08-2019 18:38:53
{
  "Id": 0,
  "rok": 2019,
  "miesiac": 0,
  "brygadzistaID": 10308,
  "data_wprowadzenia": "21-08-2019 12:00",
  "data_modyfikacji": null,
  "budowaID": 12159,
  "podpis": null,
  "pracownikID": 10753,
  "od_pn": "00.00",
  "do_pn": "00.00",
  "przestoje_pn": null,
  "dojazd_pn": null,
  "dieta_pn": "0",
  "od_wt": "00.00",
  "do_wt": "00.00",
  "przestoje_wt": null,
  "dojazd_wt": null,
  "dieta_wt": "0",
  "od_sr": "00.00",
  "do_sr": "00.00",
  "przestoje_sr": null,
  "dojazd_sr": null,
  "dieta_sr": "0",
  "od_cz": "00.00",
  "do_cz": "00.00",
  "przestoje_cz": null,
  "dojazd_cz": null,
  "dieta_cz": "0",
  "od_pi": "00.00",
  "do_pi": "00.00",
  "przestoje_pi": null,
  "dojazd_pi": null,
  "dieta_pi": "0",
  "od_so": "00.00",
  "do_so": "00.00",
  "przestoje_so": null,
  "dojazd_so": null,
  "dieta_so": "0",
  "od_ni": "00.00",
  "do_ni": "00.00",
  "przestoje_ni": null,
  "dojazd_ni": null,
  "dieta_ni": "0",
  "rokTydzien": "2019.34",
  "export": 0,
  "komentarz": null
}
:::Tydzień:::2019.34

:::Budowa:::[806] Zalando III Hilwood Olsztynek [018/18  BAS32300]
***************************************
21-08-2019 18:38:53
{
  "Id": 0,
  "rok": 2019,
  "miesiac": 0,
  "brygadzistaID": 10308,
  "data_wprowadzenia": "21-08-2019 12:00",
  "data_modyfikacji": null,
  "budowaID": 12159,
  "podpis": null,
  "pracownikID": 10198,
  "od_pn": "00.00",
  "do_pn": "00.00",
  "przestoje_pn": null,
  "dojazd_pn": null,
  "dieta_pn": "0",
  "od_wt": "00.00",
  "do_wt": "00.00",
  "przestoje_wt": null,
  "dojazd_wt": null,
  "dieta_wt": "0",
  "od_sr": "00.00",
  "do_sr": "00.00",
  "przestoje_sr": null,
  "dojazd_sr": null,
  "dieta_sr": "0",
  "od_cz": "00.00",
  "do_cz": "00.00",
  "przestoje_cz": null,
  "dojazd_cz": null,
  "dieta_cz": "0",
  "od_pi": "00.00",
  "do_pi": "00.00",
  "przestoje_pi": null,
  "dojazd_pi": null,
  "dieta_pi": "0",
  "od_so": "00.00",
  "do_so": "00.00",
  "przestoje_so": null,
  "dojazd_so": null,
  "dieta_so": "0",
  "od_ni": "00.00",
  "do_ni": "00.00",
  "przestoje_ni": null,
  "dojazd_ni": null,
  "dieta_ni": "0",
  "rokTydzien": "2019.34",
  "export": 0,
  "komentarz": null
}
:::Tydzień:::2019.34

:::Budowa:::[806] Zalando III Hilwood Olsztynek [018/18  BAS32300]
***************************************
21-08-2019 18:38:53
{
  "Id": 0,
  "rok": 2019,
  "miesiac": 0,
  "brygadzistaID": 10308,
  "data_wprowadzenia": "21-08-2019 12:00",
  "data_modyfikacji": null,
  "budowaID": 12159,
  "podpis": null,
  "pracownikID": 60,
  "od_pn": "00.00",
  "do_pn": "00.00",
  "przestoje_pn": null,
  "dojazd_pn": null,
  "dieta_pn": "0",
  "od_wt": "00.00",
  "do_wt": "00.00",
  "przestoje_wt": null,
  "dojazd_wt": null,
  "dieta_wt": "0",
  "od_sr": "07.00",
  "do_sr": "18.15",
  "przestoje_sr": null,
  "dojazd_sr": null,
  "dieta_sr": "1",
  "od_cz": "00.00",
  "do_cz": "00.00",
  "przestoje_cz": null,
  "dojazd_cz": null,
  "dieta_cz": "0",
  "od_pi": "00.00",
  "do_pi": "00.00",
  "przestoje_pi": null,
  "dojazd_pi": null,
  "dieta_pi": "0",
  "od_so": "00.00",
  "do_so": "00.00",
  "przestoje_so": null,
  "dojazd_so": null,
  "dieta_so": "0",
  "od_ni": "00.00",
  "do_ni": "00.00",
  "przestoje_ni": null,
  "dojazd_ni": null,
  "dieta_ni": "0",
  "rokTydzien": "2019.34",
  "export": 0,
  "komentarz": null
}
:::Tydzień:::2019.34

:::Budowa:::[806] Zalando III Hilwood Olsztynek [018/18  BAS32300]
***************************************
21-08-2019 18:38:53
{
  "Id": 0,
  "rok": 2019,
  "miesiac": 0,
  "brygadzistaID": 10308,
  "data_wprowadzenia": "21-08-2019 12:00",
  "data_modyfikacji": null,
  "budowaID": 12159,
  "podpis": null,
  "pracownikID": 10822,
  "od_pn": "00.00",
  "do_pn": "00.00",
  "przestoje_pn": null,
  "dojazd_pn": null,
  "dieta_pn": "0",
  "od_wt": "00.00",
  "do_wt": "00.00",
  "przestoje_wt": null,
  "dojazd_wt": null,
  "dieta_wt": "0",
  "od_sr": "07.00",
  "do_sr": "18.15",
  "przestoje_sr": null,
  "dojazd_sr": null,
  "dieta_sr": "1",
  "od_cz": "00.00",
  "do_cz": "00.00",
  "przestoje_cz": null,
  "dojazd_cz": null,
  "dieta_cz": "0",
  "od_pi": "00.00",
  "do_pi": "00.00",
  "przestoje_pi": null,
  "dojazd_pi": null,
  "dieta_pi": "0",
  "od_so": "00.00",
  "do_so": "00.00",
  "przestoje_so": null,
  "dojazd_so": null,
  "dieta_so": "0",
  "od_ni": "00.00",
  "do_ni": "00.00",
  "przestoje_ni": null,
  "dojazd_ni": null,
  "dieta_ni": "0",
  "rokTydzien": "2019.34",
  "export": 0,
  "komentarz": null
}
:::Tydzień:::2019.34

:::Budowa:::[806] Zalando III Hilwood Olsztynek [018/18  BAS32300]
***************************************
21-08-2019 18:38:53
{
  "Id": 0,
  "rok": 2019,
  "miesiac": 0,
  "brygadzistaID": 10308,
  "data_wprowadzenia": "21-08-2019 12:00",
  "data_modyfikacji": null,
  "budowaID": 12159,
  "podpis": null,
  "pracownikID": 10624,
  "od_pn": "00.00",
  "do_pn": "00.00",
  "przestoje_pn": null,
  "dojazd_pn": null,
  "dieta_pn": "0",
  "od_wt": "00.00",
  "do_wt": "00.00",
  "przestoje_wt": null,
  "dojazd_wt": null,
  "dieta_wt": "0",
  "od_sr": "07.00",
  "do_sr": "18.15",
  "przestoje_sr": null,
  "dojazd_sr": null,
  "dieta_sr": "1",
  "od_cz": "00.00",
  "do_cz": "00.00",
  "przestoje_cz": null,
  "dojazd_cz": null,
  "dieta_cz": "0",
  "od_pi": "00.00",
  "do_pi": "00.00",
  "przestoje_pi": null,
  "dojazd_pi": null,
  "dieta_pi": "0",
  "od_so": "00.00",
  "do_so": "00.00",
  "przestoje_so": null,
  "dojazd_so": null,
  "dieta_so": "0",
  "od_ni": "00.00",
  "do_ni": "00.00",
  "przestoje_ni": null,
  "dojazd_ni": null,
  "dieta_ni": "0",
  "rokTydzien": "2019.34",
  "export": 0,
  "komentarz": null
}
:::Tydzień:::2019.34

:::Budowa:::[806] Zalando III Hilwood Olsztynek [018/18  BAS32300]
***************************************
