23-08-2019 06:25:50
{
  "Brygada": [
    {
      "Nazwa": "JAWORSKI MAREK",
      "Id": 10308,
      "Brygadzista": "WDOWIAK ANDREAS",
      "BrygadzistaId": 0,
      "Stanowisko": 0
    },
    {
      "Nazwa": "DAVYDOVYCH OLEH",
      "Id": 10753,
      "Brygadzista": "JAWORSKI MAREK",
      "BrygadzistaId": 10308,
      "Stanowisko": 0
    },
    {
      "Nazwa": "MIKOŁAJCZAK MARCIN",
      "Id": 10198,
      "Brygadzista": "JAWORSKI MAREK",
      "BrygadzistaId": 10308,
      "Stanowisko": 0
    },
    {
      "Nazwa": "NAWROCKI BŁAŻEJ",
      "Id": 60,
      "Brygadzista": "JAWORSKI MAREK",
      "BrygadzistaId": 10308,
      "Stanowisko": 0
    },
    {
      "Nazwa": "ROMIŃSKI ADRIAN",
      "Id": 10822,
      "Brygadzista": "SZYMAŃCZUK PIOTR",
      "BrygadzistaId": 10520,
      "Stanowisko": 0
    },
    {
      "Nazwa": "ROMIŃSKI IRENEUSZ",
      "Id": 10624,
      "Brygadzista": "SZYMAŃCZUK PIOTR",
      "BrygadzistaId": 10520,
      "Stanowisko": 0
    }
  ],
  "DniTygodnia": [
    {
      "data_pn": null,
      "data_wt": null,
      "data_sr": null,
      "data_cz": null,
      "data_pi": null,
      "data_so": null,
      "data_ni": null,
      "od_pn": "00.00",
      "od_wt": "00.00",
      "od_sr": "07.00",
      "od_cz": "06.00",
      "od_pi": "00.00",
      "od_so": "00.00",
      "od_ni": "00.00",
      "do_pn": "00.00",
      "do_wt": "00.00",
      "do_sr": "18.15",
      "do_cz": "17.30",
      "do_pi": "00.00",
      "do_so": "00.00",
      "do_ni": "00.00",
      "przestoje_pn": null,
      "przestoje_wt": null,
      "przestoje_sr": null,
      "przestoje_cz": null,
      "przestoje_pi": null,
      "przestoje_so": null,
      "przestoje_ni": null,
      "dojazd_pn": null,
      "dojazd_wt": null,
      "dojazd_sr": "1",
      "dojazd_cz": "1",
      "dojazd_pi": null,
      "dojazd_so": null,
      "dojazd_ni": null,
      "dieta_pn": 0,
      "dieta_wt": 0,
      "dieta_sr": 1,
      "dieta_cz": 1,
      "dieta_pi": 0,
      "dieta_so": 0,
      "dieta_ni": 0
    },
    {
      "data_pn": null,
      "data_wt": null,
      "data_sr": null,
      "data_cz": null,
      "data_pi": null,
      "data_so": null,
      "data_ni": null,
      "od_pn": "00.00",
      "od_wt": "00.00",
      "od_sr": "00.00",
      "od_cz": "00.00",
      "od_pi": "00.00",
      "od_so": "00.00",
      "od_ni": "00.00",
      "do_pn": "00.00",
      "do_wt": "00.00",
      "do_sr": "00.00",
      "do_cz": "00.00",
      "do_pi": "00.00",
      "do_so": "00.00",
      "do_ni": "00.00",
      "przestoje_pn": null,
      "przestoje_wt": null,
      "przestoje_sr": null,
      "przestoje_cz": null,
      "przestoje_pi": null,
      "przestoje_so": null,
      "przestoje_ni": null,
      "dojazd_pn": null,
      "dojazd_wt": null,
      "dojazd_sr": null,
      "dojazd_cz": null,
      "dojazd_pi": null,
      "dojazd_so": null,
      "dojazd_ni": null,
      "dieta_pn": 0,
      "dieta_wt": 0,
      "dieta_sr": 0,
      "dieta_cz": 0,
      "dieta_pi": 0,
      "dieta_so": 0,
      "dieta_ni": 0
    },
    {
      "data_pn": null,
      "data_wt": null,
      "data_sr": null,
      "data_cz": null,
      "data_pi": null,
      "data_so": null,
      "data_ni": null,
      "od_pn": "00.00",
      "od_wt": "00.00",
      "od_sr": "00.00",
      "od_cz": "00.00",
      "od_pi": "00.00",
      "od_so": "00.00",
      "od_ni": "00.00",
      "do_pn": "00.00",
      "do_wt": "00.00",
      "do_sr": "00.00",
      "do_cz": "00.00",
      "do_pi": "00.00",
      "do_so": "00.00",
      "do_ni": "00.00",
      "przestoje_pn": null,
      "przestoje_wt": null,
      "przestoje_sr": null,
      "przestoje_cz": null,
      "przestoje_pi": null,
      "przestoje_so": null,
      "przestoje_ni": null,
      "dojazd_pn": null,
      "dojazd_wt": null,
      "dojazd_sr": null,
      "dojazd_cz": null,
      "dojazd_pi": null,
      "dojazd_so": null,
      "dojazd_ni": null,
      "dieta_pn": 0,
      "dieta_wt": 0,
      "dieta_sr": 0,
      "dieta_cz": 0,
      "dieta_pi": 0,
      "dieta_so": 0,
      "dieta_ni": 0
    },
    {
      "data_pn": null,
      "data_wt": null,
      "data_sr": null,
      "data_cz": null,
      "data_pi": null,
      "data_so": null,
      "data_ni": null,
      "od_pn": "00.00",
      "od_wt": "00.00",
      "od_sr": "07.00",
      "od_cz": "06.00",
      "od_pi": "00.00",
      "od_so": "00.00",
      "od_ni": "00.00",
      "do_pn": "00.00",
      "do_wt": "00.00",
      "do_sr": "18.15",
      "do_cz": "17.30",
      "do_pi": "00.00",
      "do_so": "00.00",
      "do_ni": "00.00",
      "przestoje_pn": null,
      "przestoje_wt": null,
      "przestoje_sr": null,
      "przestoje_cz": null,
      "przestoje_pi": null,
      "przestoje_so": null,
      "przestoje_ni": null,
      "dojazd_pn": null,
      "dojazd_wt": null,
      "dojazd_sr": null,
      "dojazd_cz": null,
      "dojazd_pi": null,
      "dojazd_so": null,
      "dojazd_ni": null,
      "dieta_pn": 0,
      "dieta_wt": 0,
      "dieta_sr": 1,
      "dieta_cz": 1,
      "dieta_pi": 0,
      "dieta_so": 0,
      "dieta_ni": 0
    },
    {
      "data_pn": null,
      "data_wt": null,
      "data_sr": null,
      "data_cz": null,
      "data_pi": null,
      "data_so": null,
      "data_ni": null,
      "od_pn": "00.00",
      "od_wt": "00.00",
      "od_sr": "07.00",
      "od_cz": "06.00",
      "od_pi": "00.00",
      "od_so": "00.00",
      "od_ni": "00.00",
      "do_pn": "00.00",
      "do_wt": "00.00",
      "do_sr": "18.15",
      "do_cz": "17.30",
      "do_pi": "00.00",
      "do_so": "00.00",
      "do_ni": "00.00",
      "przestoje_pn": null,
      "przestoje_wt": null,
      "przestoje_sr": null,
      "przestoje_cz": null,
      "przestoje_pi": null,
      "przestoje_so": null,
      "przestoje_ni": null,
      "dojazd_pn": null,
      "dojazd_wt": null,
      "dojazd_sr": null,
      "dojazd_cz": null,
      "dojazd_pi": null,
      "dojazd_so": null,
      "dojazd_ni": null,
      "dieta_pn": 0,
      "dieta_wt": 0,
      "dieta_sr": 1,
      "dieta_cz": 1,
      "dieta_pi": 0,
      "dieta_so": 0,
      "dieta_ni": 0
    },
    {
      "data_pn": null,
      "data_wt": null,
      "data_sr": null,
      "data_cz": null,
      "data_pi": null,
      "data_so": null,
      "data_ni": null,
      "od_pn": "00.00",
      "od_wt": "00.00",
      "od_sr": "07.00",
      "od_cz": "06.00",
      "od_pi": "00.00",
      "od_so": "00.00",
      "od_ni": "00.00",
      "do_pn": "00.00",
      "do_wt": "00.00",
      "do_sr": "18.15",
      "do_cz": "17.30",
      "do_pi": "00.00",
      "do_so": "00.00",
      "do_ni": "00.00",
      "przestoje_pn": null,
      "przestoje_wt": null,
      "przestoje_sr": null,
      "przestoje_cz": null,
      "przestoje_pi": null,
      "przestoje_so": null,
      "przestoje_ni": null,
      "dojazd_pn": null,
      "dojazd_wt": null,
      "dojazd_sr": null,
      "dojazd_cz": null,
      "dojazd_pi": null,
      "dojazd_so": null,
      "dojazd_ni": null,
      "dieta_pn": 0,
      "dieta_wt": 0,
      "dieta_sr": 1,
      "dieta_cz": 1,
      "dieta_pi": 0,
      "dieta_so": 0,
      "dieta_ni": 0
    }
  ],
  "Tydzien": {},
  "Brygadzista": {
    "Nazwa": "JAWORSKI MAREK",
    "Id": 10308,
    "Brygadzista": "WDOWIAK ANDREAS",
    "BrygadzistaId": 0,
    "Stanowisko": 0
  }
}
:::Tydzień:::2019.34

:::Budowa:::[806] Zalando III Hilwood Olsztynek [018/18  BAS32300]
***************************************
23-08-2019 16:47:42
{
  "Brygada": [
    {
      "Nazwa": "JAWORSKI MAREK",
      "Id": 10308,
      "Brygadzista": "WDOWIAK ANDREAS",
      "BrygadzistaId": 0,
      "Stanowisko": 0
    },
    {
      "Nazwa": "DAVYDOVYCH OLEH",
      "Id": 10753,
      "Brygadzista": "JAWORSKI MAREK",
      "BrygadzistaId": 10308,
      "Stanowisko": 0
    },
    {
      "Nazwa": "MIKOŁAJCZAK MARCIN",
      "Id": 10198,
      "Brygadzista": "JAWORSKI MAREK",
      "BrygadzistaId": 10308,
      "Stanowisko": 0
    },
    {
      "Nazwa": "NAWROCKI BŁAŻEJ",
      "Id": 60,
      "Brygadzista": "JAWORSKI MAREK",
      "BrygadzistaId": 10308,
      "Stanowisko": 0
    },
    {
      "Nazwa": "ROMIŃSKI ADRIAN",
      "Id": 10822,
      "Brygadzista": "SZYMAŃCZUK PIOTR",
      "BrygadzistaId": 10520,
      "Stanowisko": 0
    },
    {
      "Nazwa": "ROMIŃSKI ADRIAN",
      "Id": 10822,
      "Brygadzista": "SZYMAŃCZUK PIOTR",
      "BrygadzistaId": 10520,
      "Stanowisko": 0
    },
    {
      "Nazwa": "ROMIŃSKI IRENEUSZ",
      "Id": 10624,
      "Brygadzista": "SZYMAŃCZUK PIOTR",
      "BrygadzistaId": 10520,
      "Stanowisko": 0
    }
  ],
  "DniTygodnia": [
    {
      "data_pn": null,
      "data_wt": null,
      "data_sr": null,
      "data_cz": null,
      "data_pi": null,
      "data_so": null,
      "data_ni": null,
      "od_pn": "00.00",
      "od_wt": "00.00",
      "od_sr": "07.00",
      "od_cz": "06.00",
      "od_pi": "06.00",
      "od_so": "00.00",
      "od_ni": "00.00",
      "do_pn": "00.00",
      "do_wt": "00.00",
      "do_sr": "18.15",
      "do_cz": "17.30",
      "do_pi": "15.15",
      "do_so": "00.00",
      "do_ni": "00.00",
      "przestoje_pn": null,
      "przestoje_wt": null,
      "przestoje_sr": null,
      "przestoje_cz": null,
      "przestoje_pi": null,
      "przestoje_so": null,
      "przestoje_ni": null,
      "dojazd_pn": null,
      "dojazd_wt": null,
      "dojazd_sr": "1",
      "dojazd_cz": "1",
      "dojazd_pi": "4",
      "dojazd_so": null,
      "dojazd_ni": null,
      "dieta_pn": 0,
      "dieta_wt": 0,
      "dieta_sr": 1,
      "dieta_cz": 1,
      "dieta_pi": 1,
      "dieta_so": 0,
      "dieta_ni": 0
    },
    {
      "data_pn": null,
      "data_wt": null,
      "data_sr": null,
      "data_cz": null,
      "data_pi": null,
      "data_so": null,
      "data_ni": null,
      "od_pn": "00.00",
      "od_wt": "00.00",
      "od_sr": "00.00",
      "od_cz": "00.00",
      "od_pi": "00.00",
      "od_so": "00.00",
      "od_ni": "00.00",
      "do_pn": "00.00",
      "do_wt": "00.00",
      "do_sr": "00.00",
      "do_cz": "00.00",
      "do_pi": "00.00",
      "do_so": "00.00",
      "do_ni": "00.00",
      "przestoje_pn": null,
      "przestoje_wt": null,
      "przestoje_sr": null,
      "przestoje_cz": null,
      "przestoje_pi": null,
      "przestoje_so": null,
      "przestoje_ni": null,
      "dojazd_pn": null,
      "dojazd_wt": null,
      "dojazd_sr": null,
      "dojazd_cz": null,
      "dojazd_pi": null,
      "dojazd_so": null,
      "dojazd_ni": null,
      "dieta_pn": 0,
      "dieta_wt": 0,
      "dieta_sr": 0,
      "dieta_cz": 0,
      "dieta_pi": 0,
      "dieta_so": 0,
      "dieta_ni": 0
    },
    {
      "data_pn": null,
      "data_wt": null,
      "data_sr": null,
      "data_cz": null,
      "data_pi": null,
      "data_so": null,
      "data_ni": null,
      "od_pn": "00.00",
      "od_wt": "00.00",
      "od_sr": "00.00",
      "od_cz": "00.00",
      "od_pi": "00.00",
      "od_so": "00.00",
      "od_ni": "00.00",
      "do_pn": "00.00",
      "do_wt": "00.00",
      "do_sr": "00.00",
      "do_cz": "00.00",
      "do_pi": "00.00",
      "do_so": "00.00",
      "do_ni": "00.00",
      "przestoje_pn": null,
      "przestoje_wt": null,
      "przestoje_sr": null,
      "przestoje_cz": null,
      "przestoje_pi": null,
      "przestoje_so": null,
      "przestoje_ni": null,
      "dojazd_pn": null,
      "dojazd_wt": null,
      "dojazd_sr": null,
      "dojazd_cz": null,
      "dojazd_pi": null,
      "dojazd_so": null,
      "dojazd_ni": null,
      "dieta_pn": 0,
      "dieta_wt": 0,
      "dieta_sr": 0,
      "dieta_cz": 0,
      "dieta_pi": 0,
      "dieta_so": 0,
      "dieta_ni": 0
    },
    {
      "data_pn": null,
      "data_wt": null,
      "data_sr": null,
      "data_cz": null,
      "data_pi": null,
      "data_so": null,
      "data_ni": null,
      "od_pn": "00.00",
      "od_wt": "00.00",
      "od_sr": "07.00",
      "od_cz": "06.00",
      "od_pi": "06.00",
      "od_so": "00.00",
      "od_ni": "00.00",
      "do_pn": "00.00",
      "do_wt": "00.00",
      "do_sr": "18.15",
      "do_cz": "17.30",
      "do_pi": "15.15",
      "do_so": "00.00",
      "do_ni": "00.00",
      "przestoje_pn": null,
      "przestoje_wt": null,
      "przestoje_sr": null,
      "przestoje_cz": null,
      "przestoje_pi": null,
      "przestoje_so": null,
      "przestoje_ni": null,
      "dojazd_pn": null,
      "dojazd_wt": null,
      "dojazd_sr": null,
      "dojazd_cz": null,
      "dojazd_pi": null,
      "dojazd_so": null,
      "dojazd_ni": null,
      "dieta_pn": 0,
      "dieta_wt": 0,
      "dieta_sr": 1,
      "dieta_cz": 1,
      "dieta_pi": 1,
      "dieta_so": 0,
      "dieta_ni": 0
    },
    {
      "data_pn": null,
      "data_wt": null,
      "data_sr": null,
      "data_cz": null,
      "data_pi": null,
      "data_so": null,
      "data_ni": null,
      "od_pn": "00.00",
      "od_wt": "00.00",
      "od_sr": "07.00",
      "od_cz": "06.00",
      "od_pi": "06.00",
      "od_so": "00.00",
      "od_ni": "00.00",
      "do_pn": "00.00",
      "do_wt": "00.00",
      "do_sr": "18.15",
      "do_cz": "17.30",
      "do_pi": "15.15",
      "do_so": "00.00",
      "do_ni": "00.00",
      "przestoje_pn": null,
      "przestoje_wt": null,
      "przestoje_sr": null,
      "przestoje_cz": null,
      "przestoje_pi": null,
      "przestoje_so": null,
      "przestoje_ni": null,
      "dojazd_pn": null,
      "dojazd_wt": null,
      "dojazd_sr": null,
      "dojazd_cz": null,
      "dojazd_pi": null,
      "dojazd_so": null,
      "dojazd_ni": null,
      "dieta_pn": 0,
      "dieta_wt": 0,
      "dieta_sr": 1,
      "dieta_cz": 1,
      "dieta_pi": 1,
      "dieta_so": 0,
      "dieta_ni": 0
    },
    {
      "data_pn": null,
      "data_wt": null,
      "data_sr": null,
      "data_cz": null,
      "data_pi": null,
      "data_so": null,
      "data_ni": null,
      "od_pn": "00.00",
      "od_wt": "00.00",
      "od_sr": "07.00",
      "od_cz": "06.00",
      "od_pi": "00.00",
      "od_so": "00.00",
      "od_ni": "00.00",
      "do_pn": "00.00",
      "do_wt": "00.00",
      "do_sr": "18.15",
      "do_cz": "17.30",
      "do_pi": "00.00",
      "do_so": "00.00",
      "do_ni": "00.00",
      "przestoje_pn": null,
      "przestoje_wt": null,
      "przestoje_sr": null,
      "przestoje_cz": null,
      "przestoje_pi": null,
      "przestoje_so": null,
      "przestoje_ni": null,
      "dojazd_pn": null,
      "dojazd_wt": null,
      "dojazd_sr": null,
      "dojazd_cz": null,
      "dojazd_pi": null,
      "dojazd_so": null,
      "dojazd_ni": null,
      "dieta_pn": 0,
      "dieta_wt": 0,
      "dieta_sr": 1,
      "dieta_cz": 1,
      "dieta_pi": 0,
      "dieta_so": 0,
      "dieta_ni": 0
    },
    {
      "data_pn": null,
      "data_wt": null,
      "data_sr": null,
      "data_cz": null,
      "data_pi": null,
      "data_so": null,
      "data_ni": null,
      "od_pn": "00.00",
      "od_wt": "00.00",
      "od_sr": "07.00",
      "od_cz": "06.00",
      "od_pi": "06.00",
      "od_so": "00.00",
      "od_ni": "00.00",
      "do_pn": "00.00",
      "do_wt": "00.00",
      "do_sr": "18.15",
      "do_cz": "17.30",
      "do_pi": "15.15",
      "do_so": "00.00",
      "do_ni": "00.00",
      "przestoje_pn": null,
      "przestoje_wt": null,
      "przestoje_sr": null,
      "przestoje_cz": null,
      "przestoje_pi": null,
      "przestoje_so": null,
      "przestoje_ni": null,
      "dojazd_pn": null,
      "dojazd_wt": null,
      "dojazd_sr": null,
      "dojazd_cz": null,
      "dojazd_pi": null,
      "dojazd_so": null,
      "dojazd_ni": null,
      "dieta_pn": 0,
      "dieta_wt": 0,
      "dieta_sr": 1,
      "dieta_cz": 1,
      "dieta_pi": 1,
      "dieta_so": 0,
      "dieta_ni": 0
    }
  ],
  "Tydzien": {},
  "Brygadzista": {
    "Nazwa": "JAWORSKI MAREK",
    "Id": 10308,
    "Brygadzista": "WDOWIAK ANDREAS",
    "BrygadzistaId": 0,
    "Stanowisko": 0
  }
}
:::Tydzień:::2019.34

:::Budowa:::[806] Zalando III Hilwood Olsztynek [018/18  BAS32300]
***************************************
