﻿01-08-2019 07:40:31
{
  "Id": 0,
  "rok": 2019,
  "miesiac": 0,
  "brygadzistaID": 10494,
  "data_wprowadzenia": "01-08-2019 12:00",
  "data_modyfikacji": null,
  "budowaID": 12362,
  "podpis": "10494-10494-2019.31-01-08-2019.png",
  "pracownikID": 10494,
  "od_pn": "07.00",
  "do_pn": "14.00",
  "przestoje_pn": null,
  "dojazd_pn": "2",
  "dieta_pn": "1",
  "od_wt": "05.00",
  "do_wt": "15.00",
  "przestoje_wt": null,
  "dojazd_wt": null,
  "dieta_wt": "1",
  "od_sr": "05.00",
  "do_sr": "15.00",
  "przestoje_sr": null,
  "dojazd_sr": null,
  "dieta_sr": "1",
  "od_cz": "00.00",
  "do_cz": "00.00",
  "przestoje_cz": null,
  "dojazd_cz": null,
  "dieta_cz": "0",
  "od_pi": "00.00",
  "do_pi": "00.00",
  "przestoje_pi": null,
  "dojazd_pi": null,
  "dieta_pi": "0",
  "od_so": "00.00",
  "do_so": "00.00",
  "przestoje_so": null,
  "dojazd_so": null,
  "dieta_so": "0",
  "od_ni": "00.00",
  "do_ni": "00.00",
  "przestoje_ni": null,
  "dojazd_ni": null,
  "dieta_ni": "0",
  "rokTydzien": "2019.31",
  "export": 0,
  "komentarz": null
}
:::Tydzień:::2019.31

:::Budowa:::[832] Chespa Chorula
***************************************
01-08-2019 07:40:31
{
  "Id": 0,
  "rok": 2019,
  "miesiac": 0,
  "brygadzistaID": 10494,
  "data_wprowadzenia": "01-08-2019 12:00",
  "data_modyfikacji": null,
  "budowaID": 12362,
  "podpis": "10494-10857-2019.31-01-08-2019.png",
  "pracownikID": 10857,
  "od_pn": "07.00",
  "do_pn": "14.00",
  "przestoje_pn": null,
  "dojazd_pn": null,
  "dieta_pn": "1",
  "od_wt": "05.00",
  "do_wt": "15.00",
  "przestoje_wt": null,
  "dojazd_wt": null,
  "dieta_wt": "1",
  "od_sr": "05.00",
  "do_sr": "15.00",
  "przestoje_sr": null,
  "dojazd_sr": null,
  "dieta_sr": "1",
  "od_cz": "00.00",
  "do_cz": "00.00",
  "przestoje_cz": null,
  "dojazd_cz": null,
  "dieta_cz": "0",
  "od_pi": "00.00",
  "do_pi": "00.00",
  "przestoje_pi": null,
  "dojazd_pi": null,
  "dieta_pi": "0",
  "od_so": "00.00",
  "do_so": "00.00",
  "przestoje_so": null,
  "dojazd_so": null,
  "dieta_so": "0",
  "od_ni": "00.00",
  "do_ni": "00.00",
  "przestoje_ni": null,
  "dojazd_ni": null,
  "dieta_ni": "0",
  "rokTydzien": "2019.31",
  "export": 0,
  "komentarz": null
}
:::Tydzień:::2019.31

:::Budowa:::[832] Chespa Chorula
***************************************
01-08-2019 07:40:31
{
  "Id": 0,
  "rok": 2019,
  "miesiac": 0,
  "brygadzistaID": 10494,
  "data_wprowadzenia": "01-08-2019 12:00",
  "data_modyfikacji": null,
  "budowaID": 12362,
  "podpis": "10494-10518-2019.31-01-08-2019.png",
  "pracownikID": 10518,
  "od_pn": "07.00",
  "do_pn": "14.00",
  "przestoje_pn": null,
  "dojazd_pn": null,
  "dieta_pn": "1",
  "od_wt": "05.00",
  "do_wt": "15.00",
  "przestoje_wt": null,
  "dojazd_wt": null,
  "dieta_wt": "1",
  "od_sr": "05.00",
  "do_sr": "15.00",
  "przestoje_sr": null,
  "dojazd_sr": null,
  "dieta_sr": "1",
  "od_cz": "00.00",
  "do_cz": "00.00",
  "przestoje_cz": null,
  "dojazd_cz": null,
  "dieta_cz": "0",
  "od_pi": "00.00",
  "do_pi": "00.00",
  "przestoje_pi": null,
  "dojazd_pi": null,
  "dieta_pi": "0",
  "od_so": "00.00",
  "do_so": "00.00",
  "przestoje_so": null,
  "dojazd_so": null,
  "dieta_so": "0",
  "od_ni": "00.00",
  "do_ni": "00.00",
  "przestoje_ni": null,
  "dojazd_ni": null,
  "dieta_ni": "0",
  "rokTydzien": "2019.31",
  "export": 0,
  "komentarz": null
}
:::Tydzień:::2019.31

:::Budowa:::[832] Chespa Chorula
***************************************
01-08-2019 07:40:31
{
  "Id": 0,
  "rok": 2019,
  "miesiac": 0,
  "brygadzistaID": 10494,
  "data_wprowadzenia": "01-08-2019 12:00",
  "data_modyfikacji": null,
  "budowaID": 12362,
  "podpis": "10494-10861-2019.31-01-08-2019.png",
  "pracownikID": 10861,
  "od_pn": "07.00",
  "do_pn": "14.00",
  "przestoje_pn": null,
  "dojazd_pn": null,
  "dieta_pn": "1",
  "od_wt": "05.00",
  "do_wt": "15.00",
  "przestoje_wt": null,
  "dojazd_wt": null,
  "dieta_wt": "1",
  "od_sr": "05.00",
  "do_sr": "15.00",
  "przestoje_sr": null,
  "dojazd_sr": null,
  "dieta_sr": "1",
  "od_cz": "00.00",
  "do_cz": "00.00",
  "przestoje_cz": null,
  "dojazd_cz": null,
  "dieta_cz": "0",
  "od_pi": "00.00",
  "do_pi": "00.00",
  "przestoje_pi": null,
  "dojazd_pi": null,
  "dieta_pi": "0",
  "od_so": "00.00",
  "do_so": "00.00",
  "przestoje_so": null,
  "dojazd_so": null,
  "dieta_so": "0",
  "od_ni": "00.00",
  "do_ni": "00.00",
  "przestoje_ni": null,
  "dojazd_ni": null,
  "dieta_ni": "0",
  "rokTydzien": "2019.31",
  "export": 0,
  "komentarz": null
}
:::Tydzień:::2019.31

:::Budowa:::[832] Chespa Chorula
***************************************
