14-05-2020 07:52:23
{
  "Id": 0,
  "rok": 2020,
  "miesiac": 0,
  "brygadzistaID": 10028,
  "data_wprowadzenia": "14-05-2020 12:00",
  "data_modyfikacji": null,
  "budowaID": 12441,
  "podpis": null,
  "pracownikID": 10028,
  "od_pn": "07.00",
  "do_pn": "16.15",
  "przestoje_pn": null,
  "dojazd_pn": "4",
  "dieta_pn": "1",
  "od_wt": "07.00",
  "do_wt": "16.30",
  "przestoje_wt": null,
  "dojazd_wt": null,
  "dieta_wt": "1",
  "od_sr": "07.00",
  "do_sr": "17.00",
  "przestoje_sr": null,
  "dojazd_sr": null,
  "dieta_sr": "1",
  "od_cz": "00.00",
  "do_cz": "00.00",
  "przestoje_cz": null,
  "dojazd_cz": null,
  "dieta_cz": "0",
  "od_pi": "00.00",
  "do_pi": "00.00",
  "przestoje_pi": null,
  "dojazd_pi": null,
  "dieta_pi": "0",
  "od_so": "00.00",
  "do_so": "00.00",
  "przestoje_so": null,
  "dojazd_so": null,
  "dieta_so": "0",
  "od_ni": "00.00",
  "do_ni": "00.00",
  "przestoje_ni": null,
  "dojazd_ni": null,
  "dieta_ni": "0",
  "rokTydzien": "2020.20",
  "export": 0,
  "komentarz": null,
  "obecny": "brak"
}
:::Tydzień:::2020.20

:::Budowa:::[854] Hala Goodman Modlniczka SMA [007/20 BAS 32300]
***************************************
14-05-2020 07:52:23
{
  "Id": 0,
  "rok": 2020,
  "miesiac": 0,
  "brygadzistaID": 10028,
  "data_wprowadzenia": "14-05-2020 12:00",
  "data_modyfikacji": null,
  "budowaID": 12441,
  "podpis": null,
  "pracownikID": 10728,
  "od_pn": "07.00",
  "do_pn": "16.15",
  "przestoje_pn": null,
  "dojazd_pn": null,
  "dieta_pn": "1",
  "od_wt": "07.00",
  "do_wt": "16.30",
  "przestoje_wt": null,
  "dojazd_wt": null,
  "dieta_wt": "1",
  "od_sr": "07.00",
  "do_sr": "17.00",
  "przestoje_sr": null,
  "dojazd_sr": null,
  "dieta_sr": "1",
  "od_cz": "00.00",
  "do_cz": "00.00",
  "przestoje_cz": null,
  "dojazd_cz": null,
  "dieta_cz": "0",
  "od_pi": "00.00",
  "do_pi": "00.00",
  "przestoje_pi": null,
  "dojazd_pi": null,
  "dieta_pi": "0",
  "od_so": "00.00",
  "do_so": "00.00",
  "przestoje_so": null,
  "dojazd_so": null,
  "dieta_so": "0",
  "od_ni": "00.00",
  "do_ni": "00.00",
  "przestoje_ni": null,
  "dojazd_ni": null,
  "dieta_ni": "0",
  "rokTydzien": "2020.20",
  "export": 0,
  "komentarz": null,
  "obecny": "brak"
}
:::Tydzień:::2020.20

:::Budowa:::[854] Hala Goodman Modlniczka SMA [007/20 BAS 32300]
***************************************
14-05-2020 07:52:23
{
  "Id": 0,
  "rok": 2020,
  "miesiac": 0,
  "brygadzistaID": 10028,
  "data_wprowadzenia": "14-05-2020 12:00",
  "data_modyfikacji": null,
  "budowaID": 12441,
  "podpis": null,
  "pracownikID": 10888,
  "od_pn": "07.00",
  "do_pn": "16.15",
  "przestoje_pn": null,
  "dojazd_pn": null,
  "dieta_pn": "1",
  "od_wt": "07.00",
  "do_wt": "16.30",
  "przestoje_wt": null,
  "dojazd_wt": null,
  "dieta_wt": "1",
  "od_sr": "07.00",
  "do_sr": "17.00",
  "przestoje_sr": null,
  "dojazd_sr": null,
  "dieta_sr": "1",
  "od_cz": "00.00",
  "do_cz": "00.00",
  "przestoje_cz": null,
  "dojazd_cz": null,
  "dieta_cz": "0",
  "od_pi": "00.00",
  "do_pi": "00.00",
  "przestoje_pi": null,
  "dojazd_pi": null,
  "dieta_pi": "0",
  "od_so": "00.00",
  "do_so": "00.00",
  "przestoje_so": null,
  "dojazd_so": null,
  "dieta_so": "0",
  "od_ni": "00.00",
  "do_ni": "00.00",
  "przestoje_ni": null,
  "dojazd_ni": null,
  "dieta_ni": "0",
  "rokTydzien": "2020.20",
  "export": 0,
  "komentarz": null,
  "obecny": "brak"
}
:::Tydzień:::2020.20

:::Budowa:::[854] Hala Goodman Modlniczka SMA [007/20 BAS 32300]
***************************************
14-05-2020 07:52:23
{
  "Id": 0,
  "rok": 2020,
  "miesiac": 0,
  "brygadzistaID": 10028,
  "data_wprowadzenia": "14-05-2020 12:00",
  "data_modyfikacji": null,
  "budowaID": 12441,
  "podpis": null,
  "pracownikID": 10120,
  "od_pn": "07.00",
  "do_pn": "16.15",
  "przestoje_pn": null,
  "dojazd_pn": null,
  "dieta_pn": "1",
  "od_wt": "07.00",
  "do_wt": "16.30",
  "przestoje_wt": null,
  "dojazd_wt": null,
  "dieta_wt": "1",
  "od_sr": "07.00",
  "do_sr": "17.00",
  "przestoje_sr": null,
  "dojazd_sr": null,
  "dieta_sr": "1",
  "od_cz": "00.00",
  "do_cz": "00.00",
  "przestoje_cz": null,
  "dojazd_cz": null,
  "dieta_cz": "0",
  "od_pi": "00.00",
  "do_pi": "00.00",
  "przestoje_pi": null,
  "dojazd_pi": null,
  "dieta_pi": "0",
  "od_so": "00.00",
  "do_so": "00.00",
  "przestoje_so": null,
  "dojazd_so": null,
  "dieta_so": "0",
  "od_ni": "00.00",
  "do_ni": "00.00",
  "przestoje_ni": null,
  "dojazd_ni": null,
  "dieta_ni": "0",
  "rokTydzien": "2020.20",
  "export": 0,
  "komentarz": null,
  "obecny": "brak"
}
:::Tydzień:::2020.20

:::Budowa:::[854] Hala Goodman Modlniczka SMA [007/20 BAS 32300]
***************************************
14-05-2020 07:52:23
{
  "Id": 0,
  "rok": 2020,
  "miesiac": 0,
  "brygadzistaID": 10028,
  "data_wprowadzenia": "14-05-2020 12:00",
  "data_modyfikacji": null,
  "budowaID": 12441,
  "podpis": null,
  "pracownikID": 10584,
  "od_pn": "07.00",
  "do_pn": "16.15",
  "przestoje_pn": null,
  "dojazd_pn": null,
  "dieta_pn": "1",
  "od_wt": "07.00",
  "do_wt": "16.30",
  "przestoje_wt": null,
  "dojazd_wt": null,
  "dieta_wt": "1",
  "od_sr": "07.00",
  "do_sr": "17.00",
  "przestoje_sr": null,
  "dojazd_sr": null,
  "dieta_sr": "1",
  "od_cz": "00.00",
  "do_cz": "00.00",
  "przestoje_cz": null,
  "dojazd_cz": null,
  "dieta_cz": "0",
  "od_pi": "00.00",
  "do_pi": "00.00",
  "przestoje_pi": null,
  "dojazd_pi": null,
  "dieta_pi": "0",
  "od_so": "00.00",
  "do_so": "00.00",
  "przestoje_so": null,
  "dojazd_so": null,
  "dieta_so": "0",
  "od_ni": "00.00",
  "do_ni": "00.00",
  "przestoje_ni": null,
  "dojazd_ni": null,
  "dieta_ni": "0",
  "rokTydzien": "2020.20",
  "export": 0,
  "komentarz": null,
  "obecny": "brak"
}
:::Tydzień:::2020.20

:::Budowa:::[854] Hala Goodman Modlniczka SMA [007/20 BAS 32300]
***************************************
14-05-2020 07:52:23
{
  "Id": 0,
  "rok": 2020,
  "miesiac": 0,
  "brygadzistaID": 10028,
  "data_wprowadzenia": "14-05-2020 12:00",
  "data_modyfikacji": null,
  "budowaID": 12441,
  "podpis": null,
  "pracownikID": 10155,
  "od_pn": "07.00",
  "do_pn": "16.15",
  "przestoje_pn": null,
  "dojazd_pn": null,
  "dieta_pn": "1",
  "od_wt": "07.00",
  "do_wt": "16.30",
  "przestoje_wt": null,
  "dojazd_wt": null,
  "dieta_wt": "1",
  "od_sr": "07.00",
  "do_sr": "17.00",
  "przestoje_sr": null,
  "dojazd_sr": null,
  "dieta_sr": "1",
  "od_cz": "00.00",
  "do_cz": "00.00",
  "przestoje_cz": null,
  "dojazd_cz": null,
  "dieta_cz": "0",
  "od_pi": "00.00",
  "do_pi": "00.00",
  "przestoje_pi": null,
  "dojazd_pi": null,
  "dieta_pi": "0",
  "od_so": "00.00",
  "do_so": "00.00",
  "przestoje_so": null,
  "dojazd_so": null,
  "dieta_so": "0",
  "od_ni": "00.00",
  "do_ni": "00.00",
  "przestoje_ni": null,
  "dojazd_ni": null,
  "dieta_ni": "0",
  "rokTydzien": "2020.20",
  "export": 0,
  "komentarz": null,
  "obecny": "brak"
}
:::Tydzień:::2020.20

:::Budowa:::[854] Hala Goodman Modlniczka SMA [007/20 BAS 32300]
***************************************
14-05-2020 07:52:23
{
  "Id": 0,
  "rok": 2020,
  "miesiac": 0,
  "brygadzistaID": 10028,
  "data_wprowadzenia": "14-05-2020 12:00",
  "data_modyfikacji": null,
  "budowaID": 12441,
  "podpis": null,
  "pracownikID": 20,
  "od_pn": "07.00",
  "do_pn": "16.15",
  "przestoje_pn": null,
  "dojazd_pn": null,
  "dieta_pn": "1",
  "od_wt": "07.00",
  "do_wt": "16.30",
  "przestoje_wt": null,
  "dojazd_wt": null,
  "dieta_wt": "1",
  "od_sr": "07.00",
  "do_sr": "17.00",
  "przestoje_sr": null,
  "dojazd_sr": null,
  "dieta_sr": "1",
  "od_cz": "00.00",
  "do_cz": "00.00",
  "przestoje_cz": null,
  "dojazd_cz": null,
  "dieta_cz": "0",
  "od_pi": "00.00",
  "do_pi": "00.00",
  "przestoje_pi": null,
  "dojazd_pi": null,
  "dieta_pi": "0",
  "od_so": "00.00",
  "do_so": "00.00",
  "przestoje_so": null,
  "dojazd_so": null,
  "dieta_so": "0",
  "od_ni": "00.00",
  "do_ni": "00.00",
  "przestoje_ni": null,
  "dojazd_ni": null,
  "dieta_ni": "0",
  "rokTydzien": "2020.20",
  "export": 0,
  "komentarz": null,
  "obecny": "brak"
}
:::Tydzień:::2020.20

:::Budowa:::[854] Hala Goodman Modlniczka SMA [007/20 BAS 32300]
***************************************
14-05-2020 07:52:23
{
  "Id": 0,
  "rok": 2020,
  "miesiac": 0,
  "brygadzistaID": 10028,
  "data_wprowadzenia": "14-05-2020 12:00",
  "data_modyfikacji": null,
  "budowaID": 12441,
  "podpis": null,
  "pracownikID": 10629,
  "od_pn": "07.00",
  "do_pn": "16.15",
  "przestoje_pn": null,
  "dojazd_pn": null,
  "dieta_pn": "1",
  "od_wt": "07.00",
  "do_wt": "16.30",
  "przestoje_wt": null,
  "dojazd_wt": null,
  "dieta_wt": "1",
  "od_sr": "07.00",
  "do_sr": "17.00",
  "przestoje_sr": null,
  "dojazd_sr": null,
  "dieta_sr": "1",
  "od_cz": "00.00",
  "do_cz": "00.00",
  "przestoje_cz": null,
  "dojazd_cz": null,
  "dieta_cz": "0",
  "od_pi": "00.00",
  "do_pi": "00.00",
  "przestoje_pi": null,
  "dojazd_pi": null,
  "dieta_pi": "0",
  "od_so": "00.00",
  "do_so": "00.00",
  "przestoje_so": null,
  "dojazd_so": null,
  "dieta_so": "0",
  "od_ni": "00.00",
  "do_ni": "00.00",
  "przestoje_ni": null,
  "dojazd_ni": null,
  "dieta_ni": "0",
  "rokTydzien": "2020.20",
  "export": 0,
  "komentarz": null,
  "obecny": "brak"
}
:::Tydzień:::2020.20

:::Budowa:::[854] Hala Goodman Modlniczka SMA [007/20 BAS 32300]
***************************************
