30-08-2019 13:47:57
{
  "Id": 0,
  "rok": 2019,
  "miesiac": 0,
  "brygadzistaID": 10028,
  "data_wprowadzenia": "30-08-2019 12:00",
  "data_modyfikacji": null,
  "budowaID": 12195,
  "podpis": null,
  "pracownikID": 10028,
  "od_pn": "06.00",
  "do_pn": "15.00",
  "przestoje_pn": null,
  "dojazd_pn": "4",
  "dieta_pn": "1",
  "od_wt": "05.30",
  "do_wt": "15.30",
  "przestoje_wt": null,
  "dojazd_wt": null,
  "dieta_wt": "1",
  "od_sr": "05.30",
  "do_sr": "15.30",
  "przestoje_sr": null,
  "dojazd_sr": null,
  "dieta_sr": "1",
  "od_cz": "05.30",
  "do_cz": "14.30",
  "przestoje_cz": null,
  "dojazd_cz": null,
  "dieta_cz": "1",
  "od_pi": "05.30",
  "do_pi": "14.00",
  "przestoje_pi": null,
  "dojazd_pi": "4",
  "dieta_pi": "1",
  "od_so": "00.00",
  "do_so": "00.00",
  "przestoje_so": null,
  "dojazd_so": null,
  "dieta_so": "0",
  "od_ni": "00.00",
  "do_ni": "00.00",
  "przestoje_ni": null,
  "dojazd_ni": null,
  "dieta_ni": "0",
  "rokTydzien": "2019.35",
  "export": 0,
  "komentarz": null
}
:::Tydzień:::2019.35

:::Budowa:::[812] Budowa zakładu produkcyjnego silników w Jaworze - Pakiet 4. [nr umowy PK007/UPW/005, nr projektu PK007] [03773181000001CST00000287]
***************************************
30-08-2019 13:47:57
{
  "Id": 0,
  "rok": 2019,
  "miesiac": 0,
  "brygadzistaID": 10028,
  "data_wprowadzenia": "30-08-2019 12:00",
  "data_modyfikacji": null,
  "budowaID": 12195,
  "podpis": null,
  "pracownikID": 12,
  "od_pn": "06.00",
  "do_pn": "15.00",
  "przestoje_pn": null,
  "dojazd_pn": null,
  "dieta_pn": "1",
  "od_wt": "05.30",
  "do_wt": "15.30",
  "przestoje_wt": null,
  "dojazd_wt": null,
  "dieta_wt": "1",
  "od_sr": "05.30",
  "do_sr": "15.30",
  "przestoje_sr": null,
  "dojazd_sr": null,
  "dieta_sr": "1",
  "od_cz": "05.30",
  "do_cz": "14.30",
  "przestoje_cz": null,
  "dojazd_cz": null,
  "dieta_cz": "1",
  "od_pi": "05.30",
  "do_pi": "14.00",
  "przestoje_pi": null,
  "dojazd_pi": null,
  "dieta_pi": "1",
  "od_so": "00.00",
  "do_so": "00.00",
  "przestoje_so": null,
  "dojazd_so": null,
  "dieta_so": "0",
  "od_ni": "00.00",
  "do_ni": "00.00",
  "przestoje_ni": null,
  "dojazd_ni": null,
  "dieta_ni": "0",
  "rokTydzien": "2019.35",
  "export": 0,
  "komentarz": null
}
:::Tydzień:::2019.35

:::Budowa:::[812] Budowa zakładu produkcyjnego silników w Jaworze - Pakiet 4. [nr umowy PK007/UPW/005, nr projektu PK007] [03773181000001CST00000287]
***************************************
30-08-2019 13:47:57
{
  "Id": 0,
  "rok": 2019,
  "miesiac": 0,
  "brygadzistaID": 10028,
  "data_wprowadzenia": "30-08-2019 12:00",
  "data_modyfikacji": null,
  "budowaID": 12195,
  "podpis": null,
  "pracownikID": 10120,
  "od_pn": "06.00",
  "do_pn": "15.00",
  "przestoje_pn": null,
  "dojazd_pn": null,
  "dieta_pn": "1",
  "od_wt": "05.30",
  "do_wt": "15.30",
  "przestoje_wt": null,
  "dojazd_wt": null,
  "dieta_wt": "1",
  "od_sr": "05.30",
  "do_sr": "15.30",
  "przestoje_sr": null,
  "dojazd_sr": null,
  "dieta_sr": "1",
  "od_cz": "05.30",
  "do_cz": "14.30",
  "przestoje_cz": null,
  "dojazd_cz": null,
  "dieta_cz": "1",
  "od_pi": "05.30",
  "do_pi": "14.00",
  "przestoje_pi": null,
  "dojazd_pi": null,
  "dieta_pi": "1",
  "od_so": "00.00",
  "do_so": "00.00",
  "przestoje_so": null,
  "dojazd_so": null,
  "dieta_so": "0",
  "od_ni": "00.00",
  "do_ni": "00.00",
  "przestoje_ni": null,
  "dojazd_ni": null,
  "dieta_ni": "0",
  "rokTydzien": "2019.35",
  "export": 0,
  "komentarz": null
}
:::Tydzień:::2019.35

:::Budowa:::[812] Budowa zakładu produkcyjnego silników w Jaworze - Pakiet 4. [nr umowy PK007/UPW/005, nr projektu PK007] [03773181000001CST00000287]
***************************************
30-08-2019 13:47:57
{
  "Id": 0,
  "rok": 2019,
  "miesiac": 0,
  "brygadzistaID": 10028,
  "data_wprowadzenia": "30-08-2019 12:00",
  "data_modyfikacji": null,
  "budowaID": 12195,
  "podpis": null,
  "pracownikID": 20,
  "od_pn": "06.00",
  "do_pn": "15.00",
  "przestoje_pn": null,
  "dojazd_pn": null,
  "dieta_pn": "1",
  "od_wt": "05.30",
  "do_wt": "15.30",
  "przestoje_wt": null,
  "dojazd_wt": null,
  "dieta_wt": "1",
  "od_sr": "05.30",
  "do_sr": "15.30",
  "przestoje_sr": null,
  "dojazd_sr": null,
  "dieta_sr": "1",
  "od_cz": "05.30",
  "do_cz": "14.30",
  "przestoje_cz": null,
  "dojazd_cz": null,
  "dieta_cz": "1",
  "od_pi": "05.30",
  "do_pi": "14.00",
  "przestoje_pi": null,
  "dojazd_pi": null,
  "dieta_pi": "1",
  "od_so": "00.00",
  "do_so": "00.00",
  "przestoje_so": null,
  "dojazd_so": null,
  "dieta_so": "0",
  "od_ni": "00.00",
  "do_ni": "00.00",
  "przestoje_ni": null,
  "dojazd_ni": null,
  "dieta_ni": "0",
  "rokTydzien": "2019.35",
  "export": 0,
  "komentarz": null
}
:::Tydzień:::2019.35

:::Budowa:::[812] Budowa zakładu produkcyjnego silników w Jaworze - Pakiet 4. [nr umowy PK007/UPW/005, nr projektu PK007] [03773181000001CST00000287]
***************************************
