13-09-2019 14:27:12
{
  "Id": 0,
  "rok": 2019,
  "miesiac": 0,
  "brygadzistaID": 21,
  "data_wprowadzenia": "13-09-2019 12:00",
  "data_modyfikacji": null,
  "budowaID": 12378,
  "podpis": "21-21-2019.37-13-09-2019.png",
  "pracownikID": 21,
  "od_pn": "08.00",
  "do_pn": "16.00",
  "przestoje_pn": null,
  "dojazd_pn": "5",
  "dieta_pn": "1",
  "od_wt": "07.00",
  "do_wt": "17.00",
  "przestoje_wt": null,
  "dojazd_wt": "1",
  "dieta_wt": "1",
  "od_sr": "07.00",
  "do_sr": "17.00",
  "przestoje_sr": null,
  "dojazd_sr": "1",
  "dieta_sr": "1",
  "od_cz": "07.00",
  "do_cz": "17.00",
  "przestoje_cz": null,
  "dojazd_cz": "1",
  "dieta_cz": "1",
  "od_pi": "07.00",
  "do_pi": "15.00",
  "przestoje_pi": null,
  "dojazd_pi": "5",
  "dieta_pi": "1",
  "od_so": "00.00",
  "do_so": "00.00",
  "przestoje_so": null,
  "dojazd_so": null,
  "dieta_so": "0",
  "od_ni": "00.00",
  "do_ni": "00.00",
  "przestoje_ni": null,
  "dojazd_ni": null,
  "dieta_ni": "0",
  "rokTydzien": "2019.37",
  "export": 0,
  "komentarz": null
}
:::Tydzień:::2019.37

:::Budowa:::[842] Park Handlowy Częstochowa
***************************************
13-09-2019 14:27:12
{
  "Id": 0,
  "rok": 2019,
  "miesiac": 0,
  "brygadzistaID": 21,
  "data_wprowadzenia": "13-09-2019 12:00",
  "data_modyfikacji": null,
  "budowaID": 12378,
  "podpis": "21-10566-2019.37-13-09-2019.png",
  "pracownikID": 10566,
  "od_pn": "08.00",
  "do_pn": "16.00",
  "przestoje_pn": "3",
  "dojazd_pn": null,
  "dieta_pn": "1",
  "od_wt": "07.00",
  "do_wt": "17.00",
  "przestoje_wt": null,
  "dojazd_wt": null,
  "dieta_wt": "1",
  "od_sr": "07.00",
  "do_sr": "17.00",
  "przestoje_sr": null,
  "dojazd_sr": null,
  "dieta_sr": "1",
  "od_cz": "07.00",
  "do_cz": "17.00",
  "przestoje_cz": null,
  "dojazd_cz": null,
  "dieta_cz": "1",
  "od_pi": "07.00",
  "do_pi": "15.00",
  "przestoje_pi": null,
  "dojazd_pi": null,
  "dieta_pi": "1",
  "od_so": "00.00",
  "do_so": "00.00",
  "przestoje_so": null,
  "dojazd_so": null,
  "dieta_so": "0",
  "od_ni": "00.00",
  "do_ni": "00.00",
  "przestoje_ni": null,
  "dojazd_ni": null,
  "dieta_ni": "0",
  "rokTydzien": "2019.37",
  "export": 0,
  "komentarz": null
}
:::Tydzień:::2019.37

:::Budowa:::[842] Park Handlowy Częstochowa
***************************************
13-09-2019 14:27:12
{
  "Id": 0,
  "rok": 2019,
  "miesiac": 0,
  "brygadzistaID": 21,
  "data_wprowadzenia": "13-09-2019 12:00",
  "data_modyfikacji": null,
  "budowaID": 12378,
  "podpis": "21-10062-2019.37-13-09-2019.png",
  "pracownikID": 10062,
  "od_pn": "08.00",
  "do_pn": "16.00",
  "przestoje_pn": "3",
  "dojazd_pn": null,
  "dieta_pn": "1",
  "od_wt": "07.00",
  "do_wt": "17.00",
  "przestoje_wt": null,
  "dojazd_wt": null,
  "dieta_wt": "1",
  "od_sr": "07.00",
  "do_sr": "17.00",
  "przestoje_sr": null,
  "dojazd_sr": null,
  "dieta_sr": "1",
  "od_cz": "07.00",
  "do_cz": "17.00",
  "przestoje_cz": null,
  "dojazd_cz": null,
  "dieta_cz": "1",
  "od_pi": "07.00",
  "do_pi": "15.00",
  "przestoje_pi": null,
  "dojazd_pi": null,
  "dieta_pi": "1",
  "od_so": "00.00",
  "do_so": "00.00",
  "przestoje_so": null,
  "dojazd_so": null,
  "dieta_so": "0",
  "od_ni": "00.00",
  "do_ni": "00.00",
  "przestoje_ni": null,
  "dojazd_ni": null,
  "dieta_ni": "0",
  "rokTydzien": "2019.37",
  "export": 0,
  "komentarz": null
}
:::Tydzień:::2019.37

:::Budowa:::[842] Park Handlowy Częstochowa
***************************************
13-09-2019 14:27:12
{
  "Id": 0,
  "rok": 2019,
  "miesiac": 0,
  "brygadzistaID": 21,
  "data_wprowadzenia": "13-09-2019 12:00",
  "data_modyfikacji": null,
  "budowaID": 12378,
  "podpis": "21-10553-2019.37-13-09-2019.png",
  "pracownikID": 10553,
  "od_pn": "08.00",
  "do_pn": "16.00",
  "przestoje_pn": "3",
  "dojazd_pn": null,
  "dieta_pn": "1",
  "od_wt": "07.00",
  "do_wt": "17.00",
  "przestoje_wt": null,
  "dojazd_wt": null,
  "dieta_wt": "1",
  "od_sr": "07.00",
  "do_sr": "17.00",
  "przestoje_sr": null,
  "dojazd_sr": null,
  "dieta_sr": "1",
  "od_cz": "07.00",
  "do_cz": "17.00",
  "przestoje_cz": null,
  "dojazd_cz": null,
  "dieta_cz": "1",
  "od_pi": "07.00",
  "do_pi": "15.00",
  "przestoje_pi": null,
  "dojazd_pi": null,
  "dieta_pi": "1",
  "od_so": "00.00",
  "do_so": "00.00",
  "przestoje_so": null,
  "dojazd_so": null,
  "dieta_so": "0",
  "od_ni": "00.00",
  "do_ni": "00.00",
  "przestoje_ni": null,
  "dojazd_ni": null,
  "dieta_ni": "0",
  "rokTydzien": "2019.37",
  "export": 0,
  "komentarz": null
}
:::Tydzień:::2019.37

:::Budowa:::[842] Park Handlowy Częstochowa
***************************************
13-09-2019 14:27:12
{
  "Id": 0,
  "rok": 2019,
  "miesiac": 0,
  "brygadzistaID": 21,
  "data_wprowadzenia": "13-09-2019 12:00",
  "data_modyfikacji": null,
  "budowaID": 12378,
  "podpis": "21-10114-2019.37-13-09-2019.png",
  "pracownikID": 10114,
  "od_pn": "08.00",
  "do_pn": "16.00",
  "przestoje_pn": "3",
  "dojazd_pn": null,
  "dieta_pn": "1",
  "od_wt": "07.00",
  "do_wt": "17.00",
  "przestoje_wt": null,
  "dojazd_wt": null,
  "dieta_wt": "1",
  "od_sr": "07.00",
  "do_sr": "17.00",
  "przestoje_sr": null,
  "dojazd_sr": null,
  "dieta_sr": "1",
  "od_cz": "07.00",
  "do_cz": "17.00",
  "przestoje_cz": null,
  "dojazd_cz": null,
  "dieta_cz": "1",
  "od_pi": "07.00",
  "do_pi": "15.00",
  "przestoje_pi": null,
  "dojazd_pi": null,
  "dieta_pi": "1",
  "od_so": "00.00",
  "do_so": "00.00",
  "przestoje_so": null,
  "dojazd_so": null,
  "dieta_so": "0",
  "od_ni": "00.00",
  "do_ni": "00.00",
  "przestoje_ni": null,
  "dojazd_ni": null,
  "dieta_ni": "0",
  "rokTydzien": "2019.37",
  "export": 0,
  "komentarz": null
}
:::Tydzień:::2019.37

:::Budowa:::[842] Park Handlowy Częstochowa
***************************************
13-09-2019 14:27:12
{
  "Id": 0,
  "rok": 2019,
  "miesiac": 0,
  "brygadzistaID": 21,
  "data_wprowadzenia": "13-09-2019 12:00",
  "data_modyfikacji": null,
  "budowaID": 12378,
  "podpis": "21-10647-2019.37-13-09-2019.png",
  "pracownikID": 10647,
  "od_pn": "08.00",
  "do_pn": "16.00",
  "przestoje_pn": "3",
  "dojazd_pn": null,
  "dieta_pn": "1",
  "od_wt": "07.00",
  "do_wt": "17.00",
  "przestoje_wt": null,
  "dojazd_wt": null,
  "dieta_wt": "1",
  "od_sr": "07.00",
  "do_sr": "17.00",
  "przestoje_sr": null,
  "dojazd_sr": null,
  "dieta_sr": "1",
  "od_cz": "07.00",
  "do_cz": "17.00",
  "przestoje_cz": null,
  "dojazd_cz": null,
  "dieta_cz": "1",
  "od_pi": "07.00",
  "do_pi": "15.00",
  "przestoje_pi": null,
  "dojazd_pi": null,
  "dieta_pi": "1",
  "od_so": "07.00",
  "do_so": "12.00",
  "przestoje_so": null,
  "dojazd_so": null,
  "dieta_so": "1",
  "od_ni": "00.00",
  "do_ni": "00.00",
  "przestoje_ni": null,
  "dojazd_ni": null,
  "dieta_ni": "0",
  "rokTydzien": "2019.37",
  "export": 0,
  "komentarz": null
}
:::Tydzień:::2019.37

:::Budowa:::[842] Park Handlowy Częstochowa
***************************************
13-09-2019 14:27:12
{
  "Id": 0,
  "rok": 2019,
  "miesiac": 0,
  "brygadzistaID": 21,
  "data_wprowadzenia": "13-09-2019 12:00",
  "data_modyfikacji": null,
  "budowaID": 12378,
  "podpis": "21-10573-2019.37-13-09-2019.png",
  "pracownikID": 10573,
  "od_pn": "08.00",
  "do_pn": "16.00",
  "przestoje_pn": "3",
  "dojazd_pn": null,
  "dieta_pn": "1",
  "od_wt": "07.00",
  "do_wt": "17.00",
  "przestoje_wt": null,
  "dojazd_wt": null,
  "dieta_wt": "1",
  "od_sr": "07.00",
  "do_sr": "17.00",
  "przestoje_sr": null,
  "dojazd_sr": null,
  "dieta_sr": "1",
  "od_cz": "07.00",
  "do_cz": "17.00",
  "przestoje_cz": null,
  "dojazd_cz": null,
  "dieta_cz": "1",
  "od_pi": "07.00",
  "do_pi": "15.00",
  "przestoje_pi": null,
  "dojazd_pi": null,
  "dieta_pi": "1",
  "od_so": "07.00",
  "do_so": "12.00",
  "przestoje_so": null,
  "dojazd_so": null,
  "dieta_so": "1",
  "od_ni": "00.00",
  "do_ni": "00.00",
  "przestoje_ni": null,
  "dojazd_ni": null,
  "dieta_ni": "0",
  "rokTydzien": "2019.37",
  "export": 0,
  "komentarz": null
}
:::Tydzień:::2019.37

:::Budowa:::[842] Park Handlowy Częstochowa
***************************************
13-09-2019 14:27:12
{
  "Id": 0,
  "rok": 2019,
  "miesiac": 0,
  "brygadzistaID": 21,
  "data_wprowadzenia": "13-09-2019 12:00",
  "data_modyfikacji": null,
  "budowaID": 12378,
  "podpis": "21-10571-2019.37-13-09-2019.png",
  "pracownikID": 10571,
  "od_pn": "08.00",
  "do_pn": "16.00",
  "przestoje_pn": "3",
  "dojazd_pn": "2",
  "dieta_pn": "1",
  "od_wt": "07.00",
  "do_wt": "17.00",
  "przestoje_wt": null,
  "dojazd_wt": null,
  "dieta_wt": "1",
  "od_sr": "07.00",
  "do_sr": "17.00",
  "przestoje_sr": null,
  "dojazd_sr": null,
  "dieta_sr": "1",
  "od_cz": "07.00",
  "do_cz": "17.00",
  "przestoje_cz": null,
  "dojazd_cz": null,
  "dieta_cz": "1",
  "od_pi": "07.00",
  "do_pi": "15.00",
  "przestoje_pi": null,
  "dojazd_pi": null,
  "dieta_pi": "1",
  "od_so": "07.00",
  "do_so": "12.00",
  "przestoje_so": null,
  "dojazd_so": null,
  "dieta_so": "0",
  "od_ni": "00.00",
  "do_ni": "00.00",
  "przestoje_ni": null,
  "dojazd_ni": null,
  "dieta_ni": "0",
  "rokTydzien": "2019.37",
  "export": 0,
  "komentarz": null
}
:::Tydzień:::2019.37

:::Budowa:::[842] Park Handlowy Częstochowa
***************************************
13-09-2019 14:27:12
{
  "Id": 0,
  "rok": 2019,
  "miesiac": 0,
  "brygadzistaID": 21,
  "data_wprowadzenia": "13-09-2019 12:00",
  "data_modyfikacji": null,
  "budowaID": 12378,
  "podpis": "21-10574-2019.37-13-09-2019.png",
  "pracownikID": 10574,
  "od_pn": "08.00",
  "do_pn": "16.00",
  "przestoje_pn": "3",
  "dojazd_pn": "2",
  "dieta_pn": "1",
  "od_wt": "07.00",
  "do_wt": "17.00",
  "przestoje_wt": null,
  "dojazd_wt": "1",
  "dieta_wt": "1",
  "od_sr": "07.00",
  "do_sr": "17.00",
  "przestoje_sr": null,
  "dojazd_sr": "1",
  "dieta_sr": "1",
  "od_cz": "07.00",
  "do_cz": "17.00",
  "przestoje_cz": null,
  "dojazd_cz": "1",
  "dieta_cz": "1",
  "od_pi": "07.00",
  "do_pi": "15.00",
  "przestoje_pi": null,
  "dojazd_pi": "1",
  "dieta_pi": "1",
  "od_so": "07.00",
  "do_so": "12.00",
  "przestoje_so": null,
  "dojazd_so": "1",
  "dieta_so": "1",
  "od_ni": "00.00",
  "do_ni": "00.00",
  "przestoje_ni": null,
  "dojazd_ni": null,
  "dieta_ni": "0",
  "rokTydzien": "2019.37",
  "export": 0,
  "komentarz": null
}
:::Tydzień:::2019.37

:::Budowa:::[842] Park Handlowy Częstochowa
***************************************
