08-08-2019 23:13:00
{
  "Id": 1978,
  "rok": 2019,
  "miesiac": 0,
  "brygadzistaID": 10520,
  "data_wprowadzenia": "07-08-2019 12:00    ",
  "data_modyfikacji": "08-08-2019 12:00",
  "budowaID": 12371,
  "podpis": "10520-10520-2019.32-07-08-2019.png",
  "pracownikID": 10520,
  "od_pn": "13.00",
  "do_pn": "21.00",
  "przestoje_pn": null,
  "dojazd_pn": "3",
  "dieta_pn": "1",
  "od_wt": "13.00",
  "do_wt": "21.00",
  "przestoje_wt": null,
  "dojazd_wt": "1",
  "dieta_wt": "1",
  "od_sr": "13.00",
  "do_sr": "21.00",
  "przestoje_sr": null,
  "dojazd_sr": "1",
  "dieta_sr": "1",
  "od_cz": "12.00",
  "do_cz": "21.00",
  "przestoje_cz": null,
  "dojazd_cz": "1",
  "dieta_cz": "1",
  "od_pi": "00.00",
  "do_pi": "00.00",
  "przestoje_pi": null,
  "dojazd_pi": null,
  "dieta_pi": "0",
  "od_so": "00.00",
  "do_so": "00.00",
  "przestoje_so": null,
  "dojazd_so": null,
  "dieta_so": "0",
  "od_ni": "00.00",
  "do_ni": "00.00",
  "przestoje_ni": null,
  "dojazd_ni": null,
  "dieta_ni": "0",
  "rokTydzien": "2019.32",
  "export": 0,
  "komentarz": null
}
:::Tydzień:::2019.32

:::Budowa:::[837] VW Szedy Poznań
***************************************
08-08-2019 23:13:00
{
  "Id": 1979,
  "rok": 2019,
  "miesiac": 0,
  "brygadzistaID": 10520,
  "data_wprowadzenia": "07-08-2019 12:00    ",
  "data_modyfikacji": "08-08-2019 12:00",
  "budowaID": 12371,
  "podpis": null,
  "pracownikID": 60,
  "od_pn": "13.00",
  "do_pn": "21.00",
  "przestoje_pn": null,
  "dojazd_pn": null,
  "dieta_pn": "1",
  "od_wt": "13.00",
  "do_wt": "21.00",
  "przestoje_wt": null,
  "dojazd_wt": null,
  "dieta_wt": "1",
  "od_sr": "13.00",
  "do_sr": "21.00",
  "przestoje_sr": null,
  "dojazd_sr": null,
  "dieta_sr": "1",
  "od_cz": "12.00",
  "do_cz": "21.00",
  "przestoje_cz": null,
  "dojazd_cz": null,
  "dieta_cz": "1",
  "od_pi": "00.00",
  "do_pi": "00.00",
  "przestoje_pi": null,
  "dojazd_pi": null,
  "dieta_pi": "0",
  "od_so": "00.00",
  "do_so": "00.00",
  "przestoje_so": null,
  "dojazd_so": null,
  "dieta_so": "0",
  "od_ni": "00.00",
  "do_ni": "00.00",
  "przestoje_ni": null,
  "dojazd_ni": null,
  "dieta_ni": "0",
  "rokTydzien": "2019.32",
  "export": 0,
  "komentarz": null
}
:::Tydzień:::2019.32

:::Budowa:::[837] VW Szedy Poznań
***************************************
08-08-2019 23:13:00
{
  "Id": 1980,
  "rok": 2019,
  "miesiac": 0,
  "brygadzistaID": 10520,
  "data_wprowadzenia": "07-08-2019 12:00    ",
  "data_modyfikacji": "08-08-2019 12:00",
  "budowaID": 12371,
  "podpis": null,
  "pracownikID": 10822,
  "od_pn": "13.00",
  "do_pn": "21.00",
  "przestoje_pn": null,
  "dojazd_pn": "1",
  "dieta_pn": "1",
  "od_wt": "13.00",
  "do_wt": "21.00",
  "przestoje_wt": null,
  "dojazd_wt": null,
  "dieta_wt": "1",
  "od_sr": "13.00",
  "do_sr": "21.00",
  "przestoje_sr": null,
  "dojazd_sr": null,
  "dieta_sr": "1",
  "od_cz": "12.00",
  "do_cz": "21.00",
  "przestoje_cz": null,
  "dojazd_cz": null,
  "dieta_cz": "1",
  "od_pi": "00.00",
  "do_pi": "00.00",
  "przestoje_pi": null,
  "dojazd_pi": null,
  "dieta_pi": "0",
  "od_so": "00.00",
  "do_so": "00.00",
  "przestoje_so": null,
  "dojazd_so": null,
  "dieta_so": "0",
  "od_ni": "00.00",
  "do_ni": "00.00",
  "przestoje_ni": null,
  "dojazd_ni": null,
  "dieta_ni": "0",
  "rokTydzien": "2019.32",
  "export": 0,
  "komentarz": null
}
:::Tydzień:::2019.32

:::Budowa:::[837] VW Szedy Poznań
***************************************
08-08-2019 23:13:00
{
  "Id": 1981,
  "rok": 2019,
  "miesiac": 0,
  "brygadzistaID": 10520,
  "data_wprowadzenia": "07-08-2019 12:00    ",
  "data_modyfikacji": "08-08-2019 12:00",
  "budowaID": 12371,
  "podpis": null,
  "pracownikID": 10624,
  "od_pn": "13.00",
  "do_pn": "21.00",
  "przestoje_pn": null,
  "dojazd_pn": null,
  "dieta_pn": "1",
  "od_wt": "13.00",
  "do_wt": "21.00",
  "przestoje_wt": null,
  "dojazd_wt": null,
  "dieta_wt": "1",
  "od_sr": "13.00",
  "do_sr": "21.00",
  "przestoje_sr": null,
  "dojazd_sr": null,
  "dieta_sr": "1",
  "od_cz": "12.00",
  "do_cz": "21.00",
  "przestoje_cz": null,
  "dojazd_cz": null,
  "dieta_cz": "1",
  "od_pi": "00.00",
  "do_pi": "00.00",
  "przestoje_pi": null,
  "dojazd_pi": null,
  "dieta_pi": "0",
  "od_so": "00.00",
  "do_so": "00.00",
  "przestoje_so": null,
  "dojazd_so": null,
  "dieta_so": "0",
  "od_ni": "00.00",
  "do_ni": "00.00",
  "przestoje_ni": null,
  "dojazd_ni": null,
  "dieta_ni": "0",
  "rokTydzien": "2019.32",
  "export": 0,
  "komentarz": null
}
:::Tydzień:::2019.32

:::Budowa:::[837] VW Szedy Poznań
***************************************
