09-09-2019 09:08:07
{
  "Brygada": [
    {
      "Nazwa": "SZYMAŃCZUK PIOTR",
      "Id": 10520,
      "Brygadzista": "WDOWIAK ANDREAS",
      "BrygadzistaId": 0,
      "Stanowisko": 0
    }
  ],
  "DniTygodnia": [
    {
      "data_pn": null,
      "data_wt": null,
      "data_sr": null,
      "data_cz": null,
      "data_pi": null,
      "data_so": null,
      "data_ni": null,
      "od_pn": "07.00",
      "od_wt": "00.00",
      "od_sr": "00.00",
      "od_cz": "00.00",
      "od_pi": "00.00",
      "od_so": "07.00",
      "od_ni": "00.00",
      "do_pn": "19.00",
      "do_wt": "00.00",
      "do_sr": "00.00",
      "do_cz": "00.00",
      "do_pi": "00.00",
      "do_so": "13.00",
      "do_ni": "00.00",
      "przestoje_pn": null,
      "przestoje_wt": null,
      "przestoje_sr": null,
      "przestoje_cz": null,
      "przestoje_pi": null,
      "przestoje_so": null,
      "przestoje_ni": null,
      "dojazd_pn": "3",
      "dojazd_wt": null,
      "dojazd_sr": null,
      "dojazd_cz": null,
      "dojazd_pi": null,
      "dojazd_so": "3",
      "dojazd_ni": null,
      "dieta_pn": 1,
      "dieta_wt": 0,
      "dieta_sr": 0,
      "dieta_cz": 0,
      "dieta_pi": 0,
      "dieta_so": 1,
      "dieta_ni": 0
    }
  ],
  "Tydzien": {},
  "Brygadzista": {
    "Nazwa": "SZYMAŃCZUK PIOTR",
    "Id": 10520,
    "Brygadzista": "WDOWIAK ANDREAS",
    "BrygadzistaId": 0,
    "Stanowisko": 0
  }
}
:::Tydzień:::2019.36

:::Budowa:::[6782] Zalando II Głuchów
***************************************
09-09-2019 09:09:40
{
  "Brygada": [
    {
      "Nazwa": "SZYMAŃCZUK PIOTR",
      "Id": 10520,
      "Brygadzista": "WDOWIAK ANDREAS",
      "BrygadzistaId": 0,
      "Stanowisko": 0
    }
  ],
  "DniTygodnia": [
    {
      "data_pn": null,
      "data_wt": null,
      "data_sr": null,
      "data_cz": null,
      "data_pi": null,
      "data_so": null,
      "data_ni": null,
      "od_pn": "00.00",
      "od_wt": "07.00",
      "od_sr": "00.00",
      "od_cz": "00.00",
      "od_pi": "00.00",
      "od_so": "00.00",
      "od_ni": "00.00",
      "do_pn": "00.00",
      "do_wt": "17.00",
      "do_sr": "00.00",
      "do_cz": "00.00",
      "do_pi": "00.00",
      "do_so": "00.00",
      "do_ni": "00.00",
      "przestoje_pn": null,
      "przestoje_wt": null,
      "przestoje_sr": null,
      "przestoje_cz": null,
      "przestoje_pi": null,
      "przestoje_so": null,
      "przestoje_ni": null,
      "dojazd_pn": null,
      "dojazd_wt": "1",
      "dojazd_sr": null,
      "dojazd_cz": null,
      "dojazd_pi": null,
      "dojazd_so": null,
      "dojazd_ni": null,
      "dieta_pn": 0,
      "dieta_wt": 1,
      "dieta_sr": 0,
      "dieta_cz": 0,
      "dieta_pi": 0,
      "dieta_so": 0,
      "dieta_ni": 0
    }
  ],
  "Tydzien": {},
  "Brygadzista": {
    "Nazwa": "SZYMAŃCZUK PIOTR",
    "Id": 10520,
    "Brygadzista": "WDOWIAK ANDREAS",
    "BrygadzistaId": 0,
    "Stanowisko": 0
  }
}
:::Tydzień:::2019.36

:::Budowa:::[664] VW Poznań
***************************************
09-09-2019 09:10:54
{
  "Brygada": [
    {
      "Nazwa": "SZYMAŃCZUK PIOTR",
      "Id": 10520,
      "Brygadzista": "WDOWIAK ANDREAS",
      "BrygadzistaId": 0,
      "Stanowisko": 0
    }
  ],
  "DniTygodnia": [
    {
      "data_pn": null,
      "data_wt": null,
      "data_sr": null,
      "data_cz": null,
      "data_pi": null,
      "data_so": null,
      "data_ni": null,
      "od_pn": "00.00",
      "od_wt": "00.00",
      "od_sr": "07.00",
      "od_cz": "00.00",
      "od_pi": "00.00",
      "od_so": "00.00",
      "od_ni": "00.00",
      "do_pn": "00.00",
      "do_wt": "00.00",
      "do_sr": "17.00",
      "do_cz": "00.00",
      "do_pi": "00.00",
      "do_so": "00.00",
      "do_ni": "00.00",
      "przestoje_pn": null,
      "przestoje_wt": null,
      "przestoje_sr": null,
      "przestoje_cz": null,
      "przestoje_pi": null,
      "przestoje_so": null,
      "przestoje_ni": null,
      "dojazd_pn": null,
      "dojazd_wt": null,
      "dojazd_sr": "1",
      "dojazd_cz": null,
      "dojazd_pi": null,
      "dojazd_so": null,
      "dojazd_ni": null,
      "dieta_pn": 0,
      "dieta_wt": 0,
      "dieta_sr": 1,
      "dieta_cz": 0,
      "dieta_pi": 0,
      "dieta_so": 0,
      "dieta_ni": 0
    }
  ],
  "Tydzien": {},
  "Brygadzista": {
    "Nazwa": "SZYMAŃCZUK PIOTR",
    "Id": 10520,
    "Brygadzista": "WDOWIAK ANDREAS",
    "BrygadzistaId": 0,
    "Stanowisko": 0
  }
}
:::Tydzień:::2019.36

:::Budowa:::[6178] Budowa Gądki H&M II oraz H&M
***************************************
09-09-2019 09:11:37
{
  "Brygada": [
    {
      "Nazwa": "SZYMAŃCZUK PIOTR",
      "Id": 10520,
      "Brygadzista": "WDOWIAK ANDREAS",
      "BrygadzistaId": 0,
      "Stanowisko": 0
    }
  ],
  "DniTygodnia": [
    {
      "data_pn": null,
      "data_wt": null,
      "data_sr": null,
      "data_cz": null,
      "data_pi": null,
      "data_so": null,
      "data_ni": null,
      "od_pn": "00.00",
      "od_wt": "00.00",
      "od_sr": "00.00",
      "od_cz": "07.00",
      "od_pi": "00.00",
      "od_so": "00.00",
      "od_ni": "00.00",
      "do_pn": "00.00",
      "do_wt": "00.00",
      "do_sr": "00.00",
      "do_cz": "17.00",
      "do_pi": "00.00",
      "do_so": "00.00",
      "do_ni": "00.00",
      "przestoje_pn": null,
      "przestoje_wt": null,
      "przestoje_sr": null,
      "przestoje_cz": null,
      "przestoje_pi": null,
      "przestoje_so": null,
      "przestoje_ni": null,
      "dojazd_pn": null,
      "dojazd_wt": null,
      "dojazd_sr": null,
      "dojazd_cz": "3",
      "dojazd_pi": null,
      "dojazd_so": null,
      "dojazd_ni": null,
      "dieta_pn": 0,
      "dieta_wt": 0,
      "dieta_sr": 0,
      "dieta_cz": 1,
      "dieta_pi": 0,
      "dieta_so": 0,
      "dieta_ni": 0
    }
  ],
  "Tydzien": {},
  "Brygadzista": {
    "Nazwa": "SZYMAŃCZUK PIOTR",
    "Id": 10520,
    "Brygadzista": "WDOWIAK ANDREAS",
    "BrygadzistaId": 0,
    "Stanowisko": 0
  }
}
:::Tydzień:::2019.36

:::Budowa:::[724] PZ0449 Zakroczym
***************************************
09-09-2019 09:14:02
{
  "Brygada": [
    {
      "Nazwa": "SZYMAŃCZUK PIOTR",
      "Id": 10520,
      "Brygadzista": "WDOWIAK ANDREAS",
      "BrygadzistaId": 0,
      "Stanowisko": 0
    }
  ],
  "DniTygodnia": [
    {
      "data_pn": null,
      "data_wt": null,
      "data_sr": null,
      "data_cz": null,
      "data_pi": null,
      "data_so": null,
      "data_ni": null,
      "od_pn": "00.00",
      "od_wt": "00.00",
      "od_sr": "00.00",
      "od_cz": "00.00",
      "od_pi": "07.00",
      "od_so": "00.00",
      "od_ni": "00.00",
      "do_pn": "00.00",
      "do_wt": "00.00",
      "do_sr": "00.00",
      "do_cz": "00.00",
      "do_pi": "17.00",
      "do_so": "00.00",
      "do_ni": "00.00",
      "przestoje_pn": null,
      "przestoje_wt": null,
      "przestoje_sr": null,
      "przestoje_cz": null,
      "przestoje_pi": null,
      "przestoje_so": null,
      "przestoje_ni": null,
      "dojazd_pn": null,
      "dojazd_wt": null,
      "dojazd_sr": null,
      "dojazd_cz": null,
      "dojazd_pi": "2",
      "dojazd_so": null,
      "dojazd_ni": null,
      "dieta_pn": 0,
      "dieta_wt": 0,
      "dieta_sr": 0,
      "dieta_cz": 0,
      "dieta_pi": 1,
      "dieta_so": 0,
      "dieta_ni": 0
    }
  ],
  "Tydzien": {},
  "Brygadzista": {
    "Nazwa": "SZYMAŃCZUK PIOTR",
    "Id": 10520,
    "Brygadzista": "WDOWIAK ANDREAS",
    "BrygadzistaId": 0,
    "Stanowisko": 0
  }
}
:::Tydzień:::2019.36

:::Budowa:::[785] Hala B na terenie HE Marki 1. Umowa BOB/01/31/05/2017 [PKWIU: 43.99.10.0]
***************************************
