14-05-2020 06:32:14
{
  "Id": 0,
  "rok": 2020,
  "miesiac": 0,
  "brygadzistaID": 10520,
  "data_wprowadzenia": "14-05-2020 12:00",
  "data_modyfikacji": null,
  "budowaID": 12421,
  "podpis": "10520-10520-2020.19-14-05-2020.png",
  "pracownikID": 10520,
  "od_pn": "07.00",
  "do_pn": "17.00",
  "przestoje_pn": null,
  "dojazd_pn": "3",
  "dieta_pn": "1",
  "od_wt": "07.00",
  "do_wt": "17.00",
  "przestoje_wt": null,
  "dojazd_wt": null,
  "dieta_wt": "1",
  "od_sr": "07.00",
  "do_sr": "17.00",
  "przestoje_sr": null,
  "dojazd_sr": null,
  "dieta_sr": "1",
  "od_cz": "07.00",
  "do_cz": "17.00",
  "przestoje_cz": null,
  "dojazd_cz": null,
  "dieta_cz": "1",
  "od_pi": "07.00",
  "do_pi": "17.00",
  "przestoje_pi": null,
  "dojazd_pi": null,
  "dieta_pi": "1",
  "od_so": "06.00",
  "do_so": "11.00",
  "przestoje_so": null,
  "dojazd_so": "2",
  "dieta_so": "1",
  "od_ni": "00.00",
  "do_ni": "00.00",
  "przestoje_ni": null,
  "dojazd_ni": null,
  "dieta_ni": "0",
  "rokTydzien": "2020.19",
  "export": 0,
  "komentarz": null,
  "obecny": "brak"
}
:::Tydzień:::2020.19

:::Budowa:::[847] Panattoni PARK AIRPORT  Gdańsk DC1  [097/19 - BAS 32300]
***************************************
