14-08-2019 14:47:54
{
  "Id": 0,
  "rok": 2019,
  "miesiac": 0,
  "brygadzistaID": 48,
  "data_wprowadzenia": "14-08-2019 12:00",
  "data_modyfikacji": null,
  "budowaID": 12257,
  "podpis": "48-48-2019.33-14-08-2019.png",
  "pracownikID": 48,
  "od_pn": "07.00",
  "do_pn": "17.00",
  "przestoje_pn": null,
  "dojazd_pn": "2",
  "dieta_pn": "1",
  "od_wt": "05.00",
  "do_wt": "15.00",
  "przestoje_wt": null,
  "dojazd_wt": "1",
  "dieta_wt": "1",
  "od_sr": "05.00",
  "do_sr": "15.00",
  "przestoje_sr": null,
  "dojazd_sr": "2",
  "dieta_sr": "1",
  "od_cz": "00.00",
  "do_cz": "00.00",
  "przestoje_cz": null,
  "dojazd_cz": null,
  "dieta_cz": "0",
  "od_pi": "00.00",
  "do_pi": "00.00",
  "przestoje_pi": null,
  "dojazd_pi": null,
  "dieta_pi": "0",
  "od_so": "00.00",
  "do_so": "00.00",
  "przestoje_so": null,
  "dojazd_so": null,
  "dieta_so": "0",
  "od_ni": "00.00",
  "do_ni": "00.00",
  "przestoje_ni": null,
  "dojazd_ni": null,
  "dieta_ni": "0",
  "rokTydzien": "2019.33",
  "export": 0,
  "komentarz": null
}
:::Tydzień:::2019.33

:::Budowa:::[823] Projekt LGCWA P3 Project. Wykonanie Obudowy i Dachu Budynku Electrode (401) oraz Budynku Formation 2 (701) [Umowa nr LGCWA-P3-WP-18-02-03-011]
***************************************
14-08-2019 14:47:54
{
  "Id": 0,
  "rok": 2019,
  "miesiac": 0,
  "brygadzistaID": 48,
  "data_wprowadzenia": "14-08-2019 12:00",
  "data_modyfikacji": null,
  "budowaID": 12257,
  "podpis": "48-10204-2019.33-14-08-2019.png",
  "pracownikID": 10204,
  "od_pn": "07.00",
  "do_pn": "17.00",
  "przestoje_pn": null,
  "dojazd_pn": null,
  "dieta_pn": "1",
  "od_wt": "05.00",
  "do_wt": "15.00",
  "przestoje_wt": null,
  "dojazd_wt": null,
  "dieta_wt": "1",
  "od_sr": "05.00",
  "do_sr": "15.00",
  "przestoje_sr": null,
  "dojazd_sr": null,
  "dieta_sr": "1",
  "od_cz": "00.00",
  "do_cz": "00.00",
  "przestoje_cz": null,
  "dojazd_cz": null,
  "dieta_cz": "0",
  "od_pi": "00.00",
  "do_pi": "00.00",
  "przestoje_pi": null,
  "dojazd_pi": null,
  "dieta_pi": "0",
  "od_so": "00.00",
  "do_so": "00.00",
  "przestoje_so": null,
  "dojazd_so": null,
  "dieta_so": "0",
  "od_ni": "00.00",
  "do_ni": "00.00",
  "przestoje_ni": null,
  "dojazd_ni": null,
  "dieta_ni": "0",
  "rokTydzien": "2019.33",
  "export": 0,
  "komentarz": null
}
:::Tydzień:::2019.33

:::Budowa:::[823] Projekt LGCWA P3 Project. Wykonanie Obudowy i Dachu Budynku Electrode (401) oraz Budynku Formation 2 (701) [Umowa nr LGCWA-P3-WP-18-02-03-011]
***************************************
14-08-2019 14:47:54
{
  "Id": 0,
  "rok": 2019,
  "miesiac": 0,
  "brygadzistaID": 48,
  "data_wprowadzenia": "14-08-2019 12:00",
  "data_modyfikacji": null,
  "budowaID": 12257,
  "podpis": "48-10866-2019.33-14-08-2019.png",
  "pracownikID": 10866,
  "od_pn": "07.00",
  "do_pn": "17.00",
  "przestoje_pn": null,
  "dojazd_pn": null,
  "dieta_pn": "1",
  "od_wt": "05.00",
  "do_wt": "15.00",
  "przestoje_wt": null,
  "dojazd_wt": null,
  "dieta_wt": "1",
  "od_sr": "05.00",
  "do_sr": "15.00",
  "przestoje_sr": null,
  "dojazd_sr": null,
  "dieta_sr": "1",
  "od_cz": "00.00",
  "do_cz": "00.00",
  "przestoje_cz": null,
  "dojazd_cz": null,
  "dieta_cz": "0",
  "od_pi": "00.00",
  "do_pi": "00.00",
  "przestoje_pi": null,
  "dojazd_pi": null,
  "dieta_pi": "0",
  "od_so": "00.00",
  "do_so": "00.00",
  "przestoje_so": null,
  "dojazd_so": null,
  "dieta_so": "0",
  "od_ni": "00.00",
  "do_ni": "00.00",
  "przestoje_ni": null,
  "dojazd_ni": null,
  "dieta_ni": "0",
  "rokTydzien": "2019.33",
  "export": 0,
  "komentarz": null
}
:::Tydzień:::2019.33

:::Budowa:::[823] Projekt LGCWA P3 Project. Wykonanie Obudowy i Dachu Budynku Electrode (401) oraz Budynku Formation 2 (701) [Umowa nr LGCWA-P3-WP-18-02-03-011]
***************************************
14-08-2019 14:47:54
{
  "Id": 0,
  "rok": 2019,
  "miesiac": 0,
  "brygadzistaID": 48,
  "data_wprowadzenia": "14-08-2019 12:00",
  "data_modyfikacji": null,
  "budowaID": 12257,
  "podpis": "48-10789-2019.33-14-08-2019.png",
  "pracownikID": 10789,
  "od_pn": "07.00",
  "do_pn": "17.00",
  "przestoje_pn": null,
  "dojazd_pn": null,
  "dieta_pn": "1",
  "od_wt": "05.00",
  "do_wt": "15.00",
  "przestoje_wt": null,
  "dojazd_wt": null,
  "dieta_wt": "1",
  "od_sr": "05.00",
  "do_sr": "15.00",
  "przestoje_sr": null,
  "dojazd_sr": null,
  "dieta_sr": "1",
  "od_cz": "00.00",
  "do_cz": "00.00",
  "przestoje_cz": null,
  "dojazd_cz": null,
  "dieta_cz": "0",
  "od_pi": "00.00",
  "do_pi": "00.00",
  "przestoje_pi": null,
  "dojazd_pi": null,
  "dieta_pi": "0",
  "od_so": "00.00",
  "do_so": "00.00",
  "przestoje_so": null,
  "dojazd_so": null,
  "dieta_so": "0",
  "od_ni": "00.00",
  "do_ni": "00.00",
  "przestoje_ni": null,
  "dojazd_ni": null,
  "dieta_ni": "0",
  "rokTydzien": "2019.33",
  "export": 0,
  "komentarz": null
}
:::Tydzień:::2019.33

:::Budowa:::[823] Projekt LGCWA P3 Project. Wykonanie Obudowy i Dachu Budynku Electrode (401) oraz Budynku Formation 2 (701) [Umowa nr LGCWA-P3-WP-18-02-03-011]
***************************************
14-08-2019 14:47:54
{
  "Id": 0,
  "rok": 2019,
  "miesiac": 0,
  "brygadzistaID": 48,
  "data_wprowadzenia": "14-08-2019 12:00",
  "data_modyfikacji": null,
  "budowaID": 12257,
  "podpis": "48-10868-2019.33-14-08-2019.png",
  "pracownikID": 10868,
  "od_pn": "07.00",
  "do_pn": "17.00",
  "przestoje_pn": null,
  "dojazd_pn": "3",
  "dieta_pn": "1",
  "od_wt": "05.00",
  "do_wt": "15.00",
  "przestoje_wt": null,
  "dojazd_wt": "1",
  "dieta_wt": "1",
  "od_sr": "05.00",
  "do_sr": "15.00",
  "przestoje_sr": null,
  "dojazd_sr": "3",
  "dieta_sr": "1",
  "od_cz": "00.00",
  "do_cz": "00.00",
  "przestoje_cz": null,
  "dojazd_cz": null,
  "dieta_cz": "0",
  "od_pi": "00.00",
  "do_pi": "00.00",
  "przestoje_pi": null,
  "dojazd_pi": null,
  "dieta_pi": "0",
  "od_so": "00.00",
  "do_so": "00.00",
  "przestoje_so": null,
  "dojazd_so": null,
  "dieta_so": "0",
  "od_ni": "00.00",
  "do_ni": "00.00",
  "przestoje_ni": null,
  "dojazd_ni": null,
  "dieta_ni": "0",
  "rokTydzien": "2019.33",
  "export": 0,
  "komentarz": null
}
:::Tydzień:::2019.33

:::Budowa:::[823] Projekt LGCWA P3 Project. Wykonanie Obudowy i Dachu Budynku Electrode (401) oraz Budynku Formation 2 (701) [Umowa nr LGCWA-P3-WP-18-02-03-011]
***************************************
14-08-2019 14:47:54
{
  "Id": 0,
  "rok": 2019,
  "miesiac": 0,
  "brygadzistaID": 48,
  "data_wprowadzenia": "14-08-2019 12:00",
  "data_modyfikacji": null,
  "budowaID": 12257,
  "podpis": "48-10438-2019.33-14-08-2019.png",
  "pracownikID": 10438,
  "od_pn": "07.00",
  "do_pn": "17.00",
  "przestoje_pn": null,
  "dojazd_pn": null,
  "dieta_pn": "1",
  "od_wt": "05.00",
  "do_wt": "15.00",
  "przestoje_wt": null,
  "dojazd_wt": null,
  "dieta_wt": "1",
  "od_sr": "05.00",
  "do_sr": "15.00",
  "przestoje_sr": null,
  "dojazd_sr": null,
  "dieta_sr": "1",
  "od_cz": "00.00",
  "do_cz": "00.00",
  "przestoje_cz": null,
  "dojazd_cz": null,
  "dieta_cz": "0",
  "od_pi": "00.00",
  "do_pi": "00.00",
  "przestoje_pi": null,
  "dojazd_pi": null,
  "dieta_pi": "0",
  "od_so": "00.00",
  "do_so": "00.00",
  "przestoje_so": null,
  "dojazd_so": null,
  "dieta_so": "0",
  "od_ni": "00.00",
  "do_ni": "00.00",
  "przestoje_ni": null,
  "dojazd_ni": null,
  "dieta_ni": "0",
  "rokTydzien": "2019.33",
  "export": 0,
  "komentarz": null
}
:::Tydzień:::2019.33

:::Budowa:::[823] Projekt LGCWA P3 Project. Wykonanie Obudowy i Dachu Budynku Electrode (401) oraz Budynku Formation 2 (701) [Umowa nr LGCWA-P3-WP-18-02-03-011]
***************************************
14-08-2019 14:47:54
{
  "Id": 0,
  "rok": 2019,
  "miesiac": 0,
  "brygadzistaID": 48,
  "data_wprowadzenia": "14-08-2019 12:00",
  "data_modyfikacji": null,
  "budowaID": 12257,
  "podpis": "48-10097-2019.33-14-08-2019.png",
  "pracownikID": 10097,
  "od_pn": "07.00",
  "do_pn": "17.00",
  "przestoje_pn": null,
  "dojazd_pn": null,
  "dieta_pn": "1",
  "od_wt": "05.00",
  "do_wt": "15.00",
  "przestoje_wt": null,
  "dojazd_wt": null,
  "dieta_wt": "1",
  "od_sr": "05.00",
  "do_sr": "15.00",
  "przestoje_sr": null,
  "dojazd_sr": null,
  "dieta_sr": "1",
  "od_cz": "00.00",
  "do_cz": "00.00",
  "przestoje_cz": null,
  "dojazd_cz": null,
  "dieta_cz": "0",
  "od_pi": "00.00",
  "do_pi": "00.00",
  "przestoje_pi": null,
  "dojazd_pi": null,
  "dieta_pi": "0",
  "od_so": "00.00",
  "do_so": "00.00",
  "przestoje_so": null,
  "dojazd_so": null,
  "dieta_so": "0",
  "od_ni": "00.00",
  "do_ni": "00.00",
  "przestoje_ni": null,
  "dojazd_ni": null,
  "dieta_ni": "0",
  "rokTydzien": "2019.33",
  "export": 0,
  "komentarz": null
}
:::Tydzień:::2019.33

:::Budowa:::[823] Projekt LGCWA P3 Project. Wykonanie Obudowy i Dachu Budynku Electrode (401) oraz Budynku Formation 2 (701) [Umowa nr LGCWA-P3-WP-18-02-03-011]
***************************************
14-08-2019 14:47:54
{
  "Id": 0,
  "rok": 2019,
  "miesiac": 0,
  "brygadzistaID": 48,
  "data_wprowadzenia": "14-08-2019 12:00",
  "data_modyfikacji": null,
  "budowaID": 12257,
  "podpis": "48-10679-2019.33-14-08-2019.png",
  "pracownikID": 10679,
  "od_pn": "07.00",
  "do_pn": "17.00",
  "przestoje_pn": null,
  "dojazd_pn": null,
  "dieta_pn": "1",
  "od_wt": "05.00",
  "do_wt": "15.00",
  "przestoje_wt": null,
  "dojazd_wt": null,
  "dieta_wt": "1",
  "od_sr": "05.00",
  "do_sr": "15.00",
  "przestoje_sr": null,
  "dojazd_sr": null,
  "dieta_sr": "1",
  "od_cz": "00.00",
  "do_cz": "00.00",
  "przestoje_cz": null,
  "dojazd_cz": null,
  "dieta_cz": "0",
  "od_pi": "00.00",
  "do_pi": "00.00",
  "przestoje_pi": null,
  "dojazd_pi": null,
  "dieta_pi": "0",
  "od_so": "00.00",
  "do_so": "00.00",
  "przestoje_so": null,
  "dojazd_so": null,
  "dieta_so": "0",
  "od_ni": "00.00",
  "do_ni": "00.00",
  "przestoje_ni": null,
  "dojazd_ni": null,
  "dieta_ni": "0",
  "rokTydzien": "2019.33",
  "export": 0,
  "komentarz": null
}
:::Tydzień:::2019.33

:::Budowa:::[823] Projekt LGCWA P3 Project. Wykonanie Obudowy i Dachu Budynku Electrode (401) oraz Budynku Formation 2 (701) [Umowa nr LGCWA-P3-WP-18-02-03-011]
***************************************
14-08-2019 14:47:54
{
  "Id": 0,
  "rok": 2019,
  "miesiac": 0,
  "brygadzistaID": 48,
  "data_wprowadzenia": "14-08-2019 12:00",
  "data_modyfikacji": null,
  "budowaID": 12257,
  "podpis": "48-10734-2019.33-14-08-2019.png",
  "pracownikID": 10734,
  "od_pn": "07.00",
  "do_pn": "17.00",
  "przestoje_pn": null,
  "dojazd_pn": null,
  "dieta_pn": "1",
  "od_wt": "05.00",
  "do_wt": "15.00",
  "przestoje_wt": null,
  "dojazd_wt": null,
  "dieta_wt": "1",
  "od_sr": "05.00",
  "do_sr": "15.00",
  "przestoje_sr": null,
  "dojazd_sr": null,
  "dieta_sr": "1",
  "od_cz": "00.00",
  "do_cz": "00.00",
  "przestoje_cz": null,
  "dojazd_cz": null,
  "dieta_cz": "0",
  "od_pi": "00.00",
  "do_pi": "00.00",
  "przestoje_pi": null,
  "dojazd_pi": null,
  "dieta_pi": "0",
  "od_so": "00.00",
  "do_so": "00.00",
  "przestoje_so": null,
  "dojazd_so": null,
  "dieta_so": "0",
  "od_ni": "00.00",
  "do_ni": "00.00",
  "przestoje_ni": null,
  "dojazd_ni": null,
  "dieta_ni": "0",
  "rokTydzien": "2019.33",
  "export": 0,
  "komentarz": null
}
:::Tydzień:::2019.33

:::Budowa:::[823] Projekt LGCWA P3 Project. Wykonanie Obudowy i Dachu Budynku Electrode (401) oraz Budynku Formation 2 (701) [Umowa nr LGCWA-P3-WP-18-02-03-011]
***************************************
14-08-2019 14:47:54
{
  "Id": 0,
  "rok": 2019,
  "miesiac": 0,
  "brygadzistaID": 48,
  "data_wprowadzenia": "14-08-2019 12:00",
  "data_modyfikacji": null,
  "budowaID": 12257,
  "podpis": "48-10007-2019.33-14-08-2019.png",
  "pracownikID": 10007,
  "od_pn": "07.00",
  "do_pn": "17.00",
  "przestoje_pn": null,
  "dojazd_pn": null,
  "dieta_pn": "1",
  "od_wt": "05.00",
  "do_wt": "15.00",
  "przestoje_wt": null,
  "dojazd_wt": null,
  "dieta_wt": "1",
  "od_sr": "05.00",
  "do_sr": "15.00",
  "przestoje_sr": null,
  "dojazd_sr": null,
  "dieta_sr": "1",
  "od_cz": "00.00",
  "do_cz": "00.00",
  "przestoje_cz": null,
  "dojazd_cz": null,
  "dieta_cz": "0",
  "od_pi": "00.00",
  "do_pi": "00.00",
  "przestoje_pi": null,
  "dojazd_pi": null,
  "dieta_pi": "0",
  "od_so": "00.00",
  "do_so": "00.00",
  "przestoje_so": null,
  "dojazd_so": null,
  "dieta_so": "0",
  "od_ni": "00.00",
  "do_ni": "00.00",
  "przestoje_ni": null,
  "dojazd_ni": null,
  "dieta_ni": "0",
  "rokTydzien": "2019.33",
  "export": 0,
  "komentarz": null
}
:::Tydzień:::2019.33

:::Budowa:::[823] Projekt LGCWA P3 Project. Wykonanie Obudowy i Dachu Budynku Electrode (401) oraz Budynku Formation 2 (701) [Umowa nr LGCWA-P3-WP-18-02-03-011]
***************************************
14-08-2019 14:47:54
{
  "Id": 0,
  "rok": 2019,
  "miesiac": 0,
  "brygadzistaID": 48,
  "data_wprowadzenia": "14-08-2019 12:00",
  "data_modyfikacji": null,
  "budowaID": 12257,
  "podpis": "48-10524-2019.33-14-08-2019.png",
  "pracownikID": 10524,
  "od_pn": "07.00",
  "do_pn": "17.00",
  "przestoje_pn": null,
  "dojazd_pn": null,
  "dieta_pn": "1",
  "od_wt": "05.00",
  "do_wt": "15.00",
  "przestoje_wt": null,
  "dojazd_wt": null,
  "dieta_wt": "1",
  "od_sr": "05.00",
  "do_sr": "15.00",
  "przestoje_sr": null,
  "dojazd_sr": null,
  "dieta_sr": "1",
  "od_cz": "00.00",
  "do_cz": "00.00",
  "przestoje_cz": null,
  "dojazd_cz": null,
  "dieta_cz": "0",
  "od_pi": "00.00",
  "do_pi": "00.00",
  "przestoje_pi": null,
  "dojazd_pi": null,
  "dieta_pi": "0",
  "od_so": "00.00",
  "do_so": "00.00",
  "przestoje_so": null,
  "dojazd_so": null,
  "dieta_so": "0",
  "od_ni": "00.00",
  "do_ni": "00.00",
  "przestoje_ni": null,
  "dojazd_ni": null,
  "dieta_ni": "0",
  "rokTydzien": "2019.33",
  "export": 0,
  "komentarz": null
}
:::Tydzień:::2019.33

:::Budowa:::[823] Projekt LGCWA P3 Project. Wykonanie Obudowy i Dachu Budynku Electrode (401) oraz Budynku Formation 2 (701) [Umowa nr LGCWA-P3-WP-18-02-03-011]
***************************************
14-08-2019 14:47:54
{
  "Id": 0,
  "rok": 2019,
  "miesiac": 0,
  "brygadzistaID": 48,
  "data_wprowadzenia": "14-08-2019 12:00",
  "data_modyfikacji": null,
  "budowaID": 12257,
  "podpis": "48-10281-2019.33-14-08-2019.png",
  "pracownikID": 10281,
  "od_pn": "07.00",
  "do_pn": "17.00",
  "przestoje_pn": null,
  "dojazd_pn": null,
  "dieta_pn": "1",
  "od_wt": "05.00",
  "do_wt": "15.00",
  "przestoje_wt": null,
  "dojazd_wt": null,
  "dieta_wt": "1",
  "od_sr": "05.00",
  "do_sr": "15.00",
  "przestoje_sr": null,
  "dojazd_sr": null,
  "dieta_sr": "1",
  "od_cz": "00.00",
  "do_cz": "00.00",
  "przestoje_cz": null,
  "dojazd_cz": null,
  "dieta_cz": "0",
  "od_pi": "00.00",
  "do_pi": "00.00",
  "przestoje_pi": null,
  "dojazd_pi": null,
  "dieta_pi": "0",
  "od_so": "00.00",
  "do_so": "00.00",
  "przestoje_so": null,
  "dojazd_so": null,
  "dieta_so": "0",
  "od_ni": "00.00",
  "do_ni": "00.00",
  "przestoje_ni": null,
  "dojazd_ni": null,
  "dieta_ni": "0",
  "rokTydzien": "2019.33",
  "export": 0,
  "komentarz": null
}
:::Tydzień:::2019.33

:::Budowa:::[823] Projekt LGCWA P3 Project. Wykonanie Obudowy i Dachu Budynku Electrode (401) oraz Budynku Formation 2 (701) [Umowa nr LGCWA-P3-WP-18-02-03-011]
***************************************
