09-09-2019 10:08:06
{
  "Id": 0,
  "rok": 2019,
  "miesiac": 0,
  "brygadzistaID": 48,
  "data_wprowadzenia": "09-09-2019 12:00",
  "data_modyfikacji": null,
  "budowaID": 12195,
  "podpis": "48-48-2019.36-09-09-2019.png",
  "pracownikID": 48,
  "od_pn": "07.00",
  "do_pn": "15.00",
  "przestoje_pn": null,
  "dojazd_pn": "3",
  "dieta_pn": "1",
  "od_wt": "00.00",
  "do_wt": "00.00",
  "przestoje_wt": null,
  "dojazd_wt": null,
  "dieta_wt": "0",
  "od_sr": "00.00",
  "do_sr": "00.00",
  "przestoje_sr": null,
  "dojazd_sr": null,
  "dieta_sr": "0",
  "od_cz": "00.00",
  "do_cz": "00.00",
  "przestoje_cz": null,
  "dojazd_cz": null,
  "dieta_cz": "0",
  "od_pi": "00.00",
  "do_pi": "00.00",
  "przestoje_pi": null,
  "dojazd_pi": null,
  "dieta_pi": "0",
  "od_so": "00.00",
  "do_so": "00.00",
  "przestoje_so": null,
  "dojazd_so": null,
  "dieta_so": "0",
  "od_ni": "00.00",
  "do_ni": "00.00",
  "przestoje_ni": null,
  "dojazd_ni": null,
  "dieta_ni": "0",
  "rokTydzien": "2019.36",
  "export": 0,
  "komentarz": null
}
:::Tydzień:::2019.36

:::Budowa:::[812] Budowa zakładu produkcyjnego silników w Jaworze - Pakiet 4. [nr umowy PK007/UPW/005, nr projektu PK007] [03773181000001CST00000287]
***************************************
09-09-2019 10:08:06
{
  "Id": 0,
  "rok": 2019,
  "miesiac": 0,
  "brygadzistaID": 48,
  "data_wprowadzenia": "09-09-2019 12:00",
  "data_modyfikacji": null,
  "budowaID": 12195,
  "podpis": "48-10204-2019.36-09-09-2019.png",
  "pracownikID": 10204,
  "od_pn": "07.00",
  "do_pn": "15.00",
  "przestoje_pn": null,
  "dojazd_pn": null,
  "dieta_pn": "1",
  "od_wt": "00.00",
  "do_wt": "00.00",
  "przestoje_wt": null,
  "dojazd_wt": null,
  "dieta_wt": "0",
  "od_sr": "00.00",
  "do_sr": "00.00",
  "przestoje_sr": null,
  "dojazd_sr": null,
  "dieta_sr": "0",
  "od_cz": "00.00",
  "do_cz": "00.00",
  "przestoje_cz": null,
  "dojazd_cz": null,
  "dieta_cz": "0",
  "od_pi": "00.00",
  "do_pi": "00.00",
  "przestoje_pi": null,
  "dojazd_pi": null,
  "dieta_pi": "0",
  "od_so": "00.00",
  "do_so": "00.00",
  "przestoje_so": null,
  "dojazd_so": null,
  "dieta_so": "0",
  "od_ni": "00.00",
  "do_ni": "00.00",
  "przestoje_ni": null,
  "dojazd_ni": null,
  "dieta_ni": "0",
  "rokTydzien": "2019.36",
  "export": 0,
  "komentarz": null
}
:::Tydzień:::2019.36

:::Budowa:::[812] Budowa zakładu produkcyjnego silników w Jaworze - Pakiet 4. [nr umowy PK007/UPW/005, nr projektu PK007] [03773181000001CST00000287]
***************************************
09-09-2019 10:08:06
{
  "Id": 0,
  "rok": 2019,
  "miesiac": 0,
  "brygadzistaID": 48,
  "data_wprowadzenia": "09-09-2019 12:00",
  "data_modyfikacji": null,
  "budowaID": 12195,
  "podpis": "48-10866-2019.36-09-09-2019.png",
  "pracownikID": 10866,
  "od_pn": "07.00",
  "do_pn": "15.00",
  "przestoje_pn": null,
  "dojazd_pn": null,
  "dieta_pn": "1",
  "od_wt": "00.00",
  "do_wt": "00.00",
  "przestoje_wt": null,
  "dojazd_wt": null,
  "dieta_wt": "0",
  "od_sr": "00.00",
  "do_sr": "00.00",
  "przestoje_sr": null,
  "dojazd_sr": null,
  "dieta_sr": "0",
  "od_cz": "00.00",
  "do_cz": "00.00",
  "przestoje_cz": null,
  "dojazd_cz": null,
  "dieta_cz": "0",
  "od_pi": "00.00",
  "do_pi": "00.00",
  "przestoje_pi": null,
  "dojazd_pi": null,
  "dieta_pi": "0",
  "od_so": "00.00",
  "do_so": "00.00",
  "przestoje_so": null,
  "dojazd_so": null,
  "dieta_so": "0",
  "od_ni": "00.00",
  "do_ni": "00.00",
  "przestoje_ni": null,
  "dojazd_ni": null,
  "dieta_ni": "0",
  "rokTydzien": "2019.36",
  "export": 0,
  "komentarz": null
}
:::Tydzień:::2019.36

:::Budowa:::[812] Budowa zakładu produkcyjnego silników w Jaworze - Pakiet 4. [nr umowy PK007/UPW/005, nr projektu PK007] [03773181000001CST00000287]
***************************************
09-09-2019 10:08:06
{
  "Id": 0,
  "rok": 2019,
  "miesiac": 0,
  "brygadzistaID": 48,
  "data_wprowadzenia": "09-09-2019 12:00",
  "data_modyfikacji": null,
  "budowaID": 12195,
  "podpis": "48-10741-2019.36-09-09-2019.png",
  "pracownikID": 10741,
  "od_pn": "07.00",
  "do_pn": "15.00",
  "przestoje_pn": null,
  "dojazd_pn": null,
  "dieta_pn": "1",
  "od_wt": "00.00",
  "do_wt": "00.00",
  "przestoje_wt": null,
  "dojazd_wt": null,
  "dieta_wt": "0",
  "od_sr": "00.00",
  "do_sr": "00.00",
  "przestoje_sr": null,
  "dojazd_sr": null,
  "dieta_sr": "0",
  "od_cz": "00.00",
  "do_cz": "00.00",
  "przestoje_cz": null,
  "dojazd_cz": null,
  "dieta_cz": "0",
  "od_pi": "00.00",
  "do_pi": "00.00",
  "przestoje_pi": null,
  "dojazd_pi": null,
  "dieta_pi": "0",
  "od_so": "00.00",
  "do_so": "00.00",
  "przestoje_so": null,
  "dojazd_so": null,
  "dieta_so": "0",
  "od_ni": "00.00",
  "do_ni": "00.00",
  "przestoje_ni": null,
  "dojazd_ni": null,
  "dieta_ni": "0",
  "rokTydzien": "2019.36",
  "export": 0,
  "komentarz": null
}
:::Tydzień:::2019.36

:::Budowa:::[812] Budowa zakładu produkcyjnego silników w Jaworze - Pakiet 4. [nr umowy PK007/UPW/005, nr projektu PK007] [03773181000001CST00000287]
***************************************
09-09-2019 10:08:06
{
  "Id": 0,
  "rok": 2019,
  "miesiac": 0,
  "brygadzistaID": 48,
  "data_wprowadzenia": "09-09-2019 12:00",
  "data_modyfikacji": null,
  "budowaID": 12195,
  "podpis": "48-10789-2019.36-09-09-2019.png",
  "pracownikID": 10789,
  "od_pn": "07.00",
  "do_pn": "15.00",
  "przestoje_pn": null,
  "dojazd_pn": null,
  "dieta_pn": "1",
  "od_wt": "00.00",
  "do_wt": "00.00",
  "przestoje_wt": null,
  "dojazd_wt": null,
  "dieta_wt": "0",
  "od_sr": "00.00",
  "do_sr": "00.00",
  "przestoje_sr": null,
  "dojazd_sr": null,
  "dieta_sr": "0",
  "od_cz": "00.00",
  "do_cz": "00.00",
  "przestoje_cz": null,
  "dojazd_cz": null,
  "dieta_cz": "0",
  "od_pi": "00.00",
  "do_pi": "00.00",
  "przestoje_pi": null,
  "dojazd_pi": null,
  "dieta_pi": "0",
  "od_so": "00.00",
  "do_so": "00.00",
  "przestoje_so": null,
  "dojazd_so": null,
  "dieta_so": "0",
  "od_ni": "00.00",
  "do_ni": "00.00",
  "przestoje_ni": null,
  "dojazd_ni": null,
  "dieta_ni": "0",
  "rokTydzien": "2019.36",
  "export": 0,
  "komentarz": null
}
:::Tydzień:::2019.36

:::Budowa:::[812] Budowa zakładu produkcyjnego silników w Jaworze - Pakiet 4. [nr umowy PK007/UPW/005, nr projektu PK007] [03773181000001CST00000287]
***************************************
09-09-2019 10:08:06
{
  "Id": 0,
  "rok": 2019,
  "miesiac": 0,
  "brygadzistaID": 48,
  "data_wprowadzenia": "09-09-2019 12:00",
  "data_modyfikacji": null,
  "budowaID": 12195,
  "podpis": "48-10097-2019.36-09-09-2019.png",
  "pracownikID": 10097,
  "od_pn": "07.00",
  "do_pn": "15.00",
  "przestoje_pn": null,
  "dojazd_pn": null,
  "dieta_pn": "1",
  "od_wt": "00.00",
  "do_wt": "00.00",
  "przestoje_wt": null,
  "dojazd_wt": null,
  "dieta_wt": "0",
  "od_sr": "00.00",
  "do_sr": "00.00",
  "przestoje_sr": null,
  "dojazd_sr": null,
  "dieta_sr": "0",
  "od_cz": "00.00",
  "do_cz": "00.00",
  "przestoje_cz": null,
  "dojazd_cz": null,
  "dieta_cz": "0",
  "od_pi": "00.00",
  "do_pi": "00.00",
  "przestoje_pi": null,
  "dojazd_pi": null,
  "dieta_pi": "0",
  "od_so": "00.00",
  "do_so": "00.00",
  "przestoje_so": null,
  "dojazd_so": null,
  "dieta_so": "0",
  "od_ni": "00.00",
  "do_ni": "00.00",
  "przestoje_ni": null,
  "dojazd_ni": null,
  "dieta_ni": "0",
  "rokTydzien": "2019.36",
  "export": 0,
  "komentarz": null
}
:::Tydzień:::2019.36

:::Budowa:::[812] Budowa zakładu produkcyjnego silników w Jaworze - Pakiet 4. [nr umowy PK007/UPW/005, nr projektu PK007] [03773181000001CST00000287]
***************************************
09-09-2019 10:08:06
{
  "Id": 0,
  "rok": 2019,
  "miesiac": 0,
  "brygadzistaID": 48,
  "data_wprowadzenia": "09-09-2019 12:00",
  "data_modyfikacji": null,
  "budowaID": 12195,
  "podpis": "48-10007-2019.36-09-09-2019.png",
  "pracownikID": 10007,
  "od_pn": "07.00",
  "do_pn": "15.00",
  "przestoje_pn": null,
  "dojazd_pn": null,
  "dieta_pn": "1",
  "od_wt": "00.00",
  "do_wt": "00.00",
  "przestoje_wt": null,
  "dojazd_wt": null,
  "dieta_wt": "0",
  "od_sr": "00.00",
  "do_sr": "00.00",
  "przestoje_sr": null,
  "dojazd_sr": null,
  "dieta_sr": "0",
  "od_cz": "00.00",
  "do_cz": "00.00",
  "przestoje_cz": null,
  "dojazd_cz": null,
  "dieta_cz": "0",
  "od_pi": "00.00",
  "do_pi": "00.00",
  "przestoje_pi": null,
  "dojazd_pi": null,
  "dieta_pi": "0",
  "od_so": "00.00",
  "do_so": "00.00",
  "przestoje_so": null,
  "dojazd_so": null,
  "dieta_so": "0",
  "od_ni": "00.00",
  "do_ni": "00.00",
  "przestoje_ni": null,
  "dojazd_ni": null,
  "dieta_ni": "0",
  "rokTydzien": "2019.36",
  "export": 0,
  "komentarz": null
}
:::Tydzień:::2019.36

:::Budowa:::[812] Budowa zakładu produkcyjnego silników w Jaworze - Pakiet 4. [nr umowy PK007/UPW/005, nr projektu PK007] [03773181000001CST00000287]
***************************************
09-09-2019 10:08:06
{
  "Id": 0,
  "rok": 2019,
  "miesiac": 0,
  "brygadzistaID": 48,
  "data_wprowadzenia": "09-09-2019 12:00",
  "data_modyfikacji": null,
  "budowaID": 12195,
  "podpis": "48-10281-2019.36-09-09-2019.png",
  "pracownikID": 10281,
  "od_pn": "07.00",
  "do_pn": "15.00",
  "przestoje_pn": null,
  "dojazd_pn": null,
  "dieta_pn": "1",
  "od_wt": "00.00",
  "do_wt": "00.00",
  "przestoje_wt": null,
  "dojazd_wt": null,
  "dieta_wt": "0",
  "od_sr": "00.00",
  "do_sr": "00.00",
  "przestoje_sr": null,
  "dojazd_sr": null,
  "dieta_sr": "0",
  "od_cz": "00.00",
  "do_cz": "00.00",
  "przestoje_cz": null,
  "dojazd_cz": null,
  "dieta_cz": "0",
  "od_pi": "00.00",
  "do_pi": "00.00",
  "przestoje_pi": null,
  "dojazd_pi": null,
  "dieta_pi": "0",
  "od_so": "00.00",
  "do_so": "00.00",
  "przestoje_so": null,
  "dojazd_so": null,
  "dieta_so": "0",
  "od_ni": "00.00",
  "do_ni": "00.00",
  "przestoje_ni": null,
  "dojazd_ni": null,
  "dieta_ni": "0",
  "rokTydzien": "2019.36",
  "export": 0,
  "komentarz": null
}
:::Tydzień:::2019.36

:::Budowa:::[812] Budowa zakładu produkcyjnego silników w Jaworze - Pakiet 4. [nr umowy PK007/UPW/005, nr projektu PK007] [03773181000001CST00000287]
***************************************
09-09-2019 10:11:11
{
  "Id": 0,
  "rok": 2019,
  "miesiac": 0,
  "brygadzistaID": 48,
  "data_wprowadzenia": "09-09-2019 12:00",
  "data_modyfikacji": null,
  "budowaID": 12257,
  "podpis": null,
  "pracownikID": 48,
  "od_pn": "00.00",
  "do_pn": "00.00",
  "przestoje_pn": null,
  "dojazd_pn": null,
  "dieta_pn": "0",
  "od_wt": "07.00",
  "do_wt": "17.00",
  "przestoje_wt": null,
  "dojazd_wt": null,
  "dieta_wt": "1",
  "od_sr": "06.00",
  "do_sr": "16.00",
  "przestoje_sr": null,
  "dojazd_sr": null,
  "dieta_sr": "1",
  "od_cz": "06.00",
  "do_cz": "16.00",
  "przestoje_cz": null,
  "dojazd_cz": null,
  "dieta_cz": "1",
  "od_pi": "06.00",
  "do_pi": "14.00",
  "przestoje_pi": null,
  "dojazd_pi": null,
  "dieta_pi": "1",
  "od_so": "00.00",
  "do_so": "00.00",
  "przestoje_so": null,
  "dojazd_so": null,
  "dieta_so": "0",
  "od_ni": "00.00",
  "do_ni": "00.00",
  "przestoje_ni": null,
  "dojazd_ni": null,
  "dieta_ni": "0",
  "rokTydzien": "2019.36",
  "export": 0,
  "komentarz": null
}
:::Tydzień:::2019.36

:::Budowa:::[823] Projekt LGCWA P3 Project. Wykonanie Obudowy i Dachu Budynku Electrode (401) oraz Budynku Formation 2 (701) [Umowa nr LGCWA-P3-WP-18-02-03-011]
***************************************
09-09-2019 10:11:11
{
  "Id": 0,
  "rok": 2019,
  "miesiac": 0,
  "brygadzistaID": 48,
  "data_wprowadzenia": "09-09-2019 12:00",
  "data_modyfikacji": null,
  "budowaID": 12257,
  "podpis": null,
  "pracownikID": 10204,
  "od_pn": "00.00",
  "do_pn": "00.00",
  "przestoje_pn": null,
  "dojazd_pn": null,
  "dieta_pn": "0",
  "od_wt": "07.00",
  "do_wt": "17.00",
  "przestoje_wt": null,
  "dojazd_wt": null,
  "dieta_wt": "1",
  "od_sr": "06.00",
  "do_sr": "16.00",
  "przestoje_sr": null,
  "dojazd_sr": null,
  "dieta_sr": "1",
  "od_cz": "06.00",
  "do_cz": "16.00",
  "przestoje_cz": null,
  "dojazd_cz": null,
  "dieta_cz": "1",
  "od_pi": "06.00",
  "do_pi": "14.00",
  "przestoje_pi": null,
  "dojazd_pi": null,
  "dieta_pi": "1",
  "od_so": "00.00",
  "do_so": "00.00",
  "przestoje_so": null,
  "dojazd_so": null,
  "dieta_so": "0",
  "od_ni": "00.00",
  "do_ni": "00.00",
  "przestoje_ni": null,
  "dojazd_ni": null,
  "dieta_ni": "0",
  "rokTydzien": "2019.36",
  "export": 0,
  "komentarz": null
}
:::Tydzień:::2019.36

:::Budowa:::[823] Projekt LGCWA P3 Project. Wykonanie Obudowy i Dachu Budynku Electrode (401) oraz Budynku Formation 2 (701) [Umowa nr LGCWA-P3-WP-18-02-03-011]
***************************************
09-09-2019 10:11:11
{
  "Id": 0,
  "rok": 2019,
  "miesiac": 0,
  "brygadzistaID": 48,
  "data_wprowadzenia": "09-09-2019 12:00",
  "data_modyfikacji": null,
  "budowaID": 12257,
  "podpis": null,
  "pracownikID": 10866,
  "od_pn": "00.00",
  "do_pn": "00.00",
  "przestoje_pn": null,
  "dojazd_pn": null,
  "dieta_pn": "0",
  "od_wt": "07.00",
  "do_wt": "17.00",
  "przestoje_wt": null,
  "dojazd_wt": null,
  "dieta_wt": "1",
  "od_sr": "06.00",
  "do_sr": "16.00",
  "przestoje_sr": null,
  "dojazd_sr": null,
  "dieta_sr": "1",
  "od_cz": "06.00",
  "do_cz": "16.00",
  "przestoje_cz": null,
  "dojazd_cz": null,
  "dieta_cz": "1",
  "od_pi": "06.00",
  "do_pi": "14.00",
  "przestoje_pi": null,
  "dojazd_pi": null,
  "dieta_pi": "1",
  "od_so": "06.00",
  "do_so": "10.00",
  "przestoje_so": null,
  "dojazd_so": null,
  "dieta_so": "1",
  "od_ni": "00.00",
  "do_ni": "00.00",
  "przestoje_ni": null,
  "dojazd_ni": null,
  "dieta_ni": "0",
  "rokTydzien": "2019.36",
  "export": 0,
  "komentarz": null
}
:::Tydzień:::2019.36

:::Budowa:::[823] Projekt LGCWA P3 Project. Wykonanie Obudowy i Dachu Budynku Electrode (401) oraz Budynku Formation 2 (701) [Umowa nr LGCWA-P3-WP-18-02-03-011]
***************************************
09-09-2019 10:11:11
{
  "Id": 0,
  "rok": 2019,
  "miesiac": 0,
  "brygadzistaID": 48,
  "data_wprowadzenia": "09-09-2019 12:00",
  "data_modyfikacji": null,
  "budowaID": 12257,
  "podpis": null,
  "pracownikID": 10741,
  "od_pn": "00.00",
  "do_pn": "00.00",
  "przestoje_pn": null,
  "dojazd_pn": null,
  "dieta_pn": "0",
  "od_wt": "07.00",
  "do_wt": "17.00",
  "przestoje_wt": null,
  "dojazd_wt": null,
  "dieta_wt": "1",
  "od_sr": "06.00",
  "do_sr": "16.00",
  "przestoje_sr": null,
  "dojazd_sr": null,
  "dieta_sr": "1",
  "od_cz": "06.00",
  "do_cz": "16.00",
  "przestoje_cz": null,
  "dojazd_cz": null,
  "dieta_cz": "1",
  "od_pi": "06.00",
  "do_pi": "14.00",
  "przestoje_pi": null,
  "dojazd_pi": null,
  "dieta_pi": "1",
  "od_so": "00.00",
  "do_so": "00.00",
  "przestoje_so": null,
  "dojazd_so": null,
  "dieta_so": "0",
  "od_ni": "00.00",
  "do_ni": "00.00",
  "przestoje_ni": null,
  "dojazd_ni": null,
  "dieta_ni": "0",
  "rokTydzien": "2019.36",
  "export": 0,
  "komentarz": null
}
:::Tydzień:::2019.36

:::Budowa:::[823] Projekt LGCWA P3 Project. Wykonanie Obudowy i Dachu Budynku Electrode (401) oraz Budynku Formation 2 (701) [Umowa nr LGCWA-P3-WP-18-02-03-011]
***************************************
09-09-2019 10:11:11
{
  "Id": 0,
  "rok": 2019,
  "miesiac": 0,
  "brygadzistaID": 48,
  "data_wprowadzenia": "09-09-2019 12:00",
  "data_modyfikacji": null,
  "budowaID": 12257,
  "podpis": null,
  "pracownikID": 10789,
  "od_pn": "00.00",
  "do_pn": "00.00",
  "przestoje_pn": null,
  "dojazd_pn": null,
  "dieta_pn": "0",
  "od_wt": "07.00",
  "do_wt": "17.00",
  "przestoje_wt": null,
  "dojazd_wt": null,
  "dieta_wt": "1",
  "od_sr": "06.00",
  "do_sr": "16.00",
  "przestoje_sr": null,
  "dojazd_sr": null,
  "dieta_sr": "1",
  "od_cz": "06.00",
  "do_cz": "16.00",
  "przestoje_cz": null,
  "dojazd_cz": null,
  "dieta_cz": "1",
  "od_pi": "06.00",
  "do_pi": "14.00",
  "przestoje_pi": null,
  "dojazd_pi": null,
  "dieta_pi": "1",
  "od_so": "00.00",
  "do_so": "00.00",
  "przestoje_so": null,
  "dojazd_so": null,
  "dieta_so": "0",
  "od_ni": "00.00",
  "do_ni": "00.00",
  "przestoje_ni": null,
  "dojazd_ni": null,
  "dieta_ni": "0",
  "rokTydzien": "2019.36",
  "export": 0,
  "komentarz": null
}
:::Tydzień:::2019.36

:::Budowa:::[823] Projekt LGCWA P3 Project. Wykonanie Obudowy i Dachu Budynku Electrode (401) oraz Budynku Formation 2 (701) [Umowa nr LGCWA-P3-WP-18-02-03-011]
***************************************
09-09-2019 10:11:11
{
  "Id": 0,
  "rok": 2019,
  "miesiac": 0,
  "brygadzistaID": 48,
  "data_wprowadzenia": "09-09-2019 12:00",
  "data_modyfikacji": null,
  "budowaID": 12257,
  "podpis": null,
  "pracownikID": 10097,
  "od_pn": "00.00",
  "do_pn": "00.00",
  "przestoje_pn": null,
  "dojazd_pn": null,
  "dieta_pn": "0",
  "od_wt": "07.00",
  "do_wt": "17.00",
  "przestoje_wt": null,
  "dojazd_wt": null,
  "dieta_wt": "1",
  "od_sr": "06.00",
  "do_sr": "16.00",
  "przestoje_sr": null,
  "dojazd_sr": null,
  "dieta_sr": "1",
  "od_cz": "06.00",
  "do_cz": "16.00",
  "przestoje_cz": null,
  "dojazd_cz": null,
  "dieta_cz": "1",
  "od_pi": "06.00",
  "do_pi": "14.00",
  "przestoje_pi": null,
  "dojazd_pi": null,
  "dieta_pi": "1",
  "od_so": "00.00",
  "do_so": "00.00",
  "przestoje_so": null,
  "dojazd_so": null,
  "dieta_so": "0",
  "od_ni": "00.00",
  "do_ni": "00.00",
  "przestoje_ni": null,
  "dojazd_ni": null,
  "dieta_ni": "0",
  "rokTydzien": "2019.36",
  "export": 0,
  "komentarz": null
}
:::Tydzień:::2019.36

:::Budowa:::[823] Projekt LGCWA P3 Project. Wykonanie Obudowy i Dachu Budynku Electrode (401) oraz Budynku Formation 2 (701) [Umowa nr LGCWA-P3-WP-18-02-03-011]
***************************************
09-09-2019 10:11:11
{
  "Id": 0,
  "rok": 2019,
  "miesiac": 0,
  "brygadzistaID": 48,
  "data_wprowadzenia": "09-09-2019 12:00",
  "data_modyfikacji": null,
  "budowaID": 12257,
  "podpis": null,
  "pracownikID": 10007,
  "od_pn": "00.00",
  "do_pn": "00.00",
  "przestoje_pn": null,
  "dojazd_pn": null,
  "dieta_pn": "0",
  "od_wt": "07.00",
  "do_wt": "17.00",
  "przestoje_wt": null,
  "dojazd_wt": null,
  "dieta_wt": "1",
  "od_sr": "06.00",
  "do_sr": "16.00",
  "przestoje_sr": null,
  "dojazd_sr": null,
  "dieta_sr": "1",
  "od_cz": "06.00",
  "do_cz": "16.00",
  "przestoje_cz": null,
  "dojazd_cz": null,
  "dieta_cz": "1",
  "od_pi": "06.00",
  "do_pi": "14.00",
  "przestoje_pi": null,
  "dojazd_pi": null,
  "dieta_pi": "1",
  "od_so": "00.00",
  "do_so": "00.00",
  "przestoje_so": null,
  "dojazd_so": null,
  "dieta_so": "0",
  "od_ni": "00.00",
  "do_ni": "00.00",
  "przestoje_ni": null,
  "dojazd_ni": null,
  "dieta_ni": "0",
  "rokTydzien": "2019.36",
  "export": 0,
  "komentarz": null
}
:::Tydzień:::2019.36

:::Budowa:::[823] Projekt LGCWA P3 Project. Wykonanie Obudowy i Dachu Budynku Electrode (401) oraz Budynku Formation 2 (701) [Umowa nr LGCWA-P3-WP-18-02-03-011]
***************************************
09-09-2019 10:11:11
{
  "Id": 0,
  "rok": 2019,
  "miesiac": 0,
  "brygadzistaID": 48,
  "data_wprowadzenia": "09-09-2019 12:00",
  "data_modyfikacji": null,
  "budowaID": 12257,
  "podpis": null,
  "pracownikID": 10281,
  "od_pn": "00.00",
  "do_pn": "00.00",
  "przestoje_pn": null,
  "dojazd_pn": null,
  "dieta_pn": "0",
  "od_wt": "07.00",
  "do_wt": "17.00",
  "przestoje_wt": null,
  "dojazd_wt": null,
  "dieta_wt": "1",
  "od_sr": "06.00",
  "do_sr": "16.00",
  "przestoje_sr": null,
  "dojazd_sr": null,
  "dieta_sr": "1",
  "od_cz": "06.00",
  "do_cz": "16.00",
  "przestoje_cz": null,
  "dojazd_cz": null,
  "dieta_cz": "1",
  "od_pi": "06.00",
  "do_pi": "14.00",
  "przestoje_pi": null,
  "dojazd_pi": null,
  "dieta_pi": "1",
  "od_so": "00.00",
  "do_so": "00.00",
  "przestoje_so": null,
  "dojazd_so": null,
  "dieta_so": "0",
  "od_ni": "00.00",
  "do_ni": "00.00",
  "przestoje_ni": null,
  "dojazd_ni": null,
  "dieta_ni": "0",
  "rokTydzien": "2019.36",
  "export": 0,
  "komentarz": null
}
:::Tydzień:::2019.36

:::Budowa:::[823] Projekt LGCWA P3 Project. Wykonanie Obudowy i Dachu Budynku Electrode (401) oraz Budynku Formation 2 (701) [Umowa nr LGCWA-P3-WP-18-02-03-011]
***************************************
