05-08-2019 06:26:26
{
  "Brygada": [
    {
      "Nazwa": "ŁAPTAS TOMASZ",
      "Id": 48,
      "Brygadzista": "WDOWIAK ANDREAS",
      "BrygadzistaId": 0,
      "Stanowisko": 0
    },
    {
      "Nazwa": "BUROV VIKTOR",
      "Id": 10866,
      "Brygadzista": "ŁAPTAS TOMASZ",
      "BrygadzistaId": 48,
      "Stanowisko": 0
    },
    {
      "Nazwa": "DRZAZGA PIOTR",
      "Id": 10741,
      "Brygadzista": "ŁAPTAS TOMASZ",
      "BrygadzistaId": 48,
      "Stanowisko": 0
    },
    {
      "Nazwa": "KUŹNIAK MARIAN",
      "Id": 10097,
      "Brygadzista": "ŁAPTAS TOMASZ",
      "BrygadzistaId": 48,
      "Stanowisko": 0
    },
    {
      "Nazwa": "SROKA JAN",
      "Id": 10007,
      "Brygadzista": "ŁAPTAS TOMASZ",
      "BrygadzistaId": 48,
      "Stanowisko": 0
    },
    {
      "Nazwa": "TWARDUŚ TOMASZ",
      "Id": 10281,
      "Brygadzista": "ŁAPTAS TOMASZ",
      "BrygadzistaId": 48,
      "Stanowisko": 0
    }
  ],
  "DniTygodnia": [
    {
      "data_pn": null,
      "data_wt": null,
      "data_sr": null,
      "data_cz": null,
      "data_pi": null,
      "data_so": null,
      "data_ni": null,
      "od_pn": "07.00",
      "od_wt": "05.00",
      "od_sr": "05.00",
      "od_cz": "05.00",
      "od_pi": "05.00",
      "od_so": "00.00",
      "od_ni": "00.00",
      "do_pn": "17.00",
      "do_wt": "15.00",
      "do_sr": "15.00",
      "do_cz": "15.00",
      "do_pi": "13.00",
      "do_so": "00.00",
      "do_ni": "00.00",
      "przestoje_pn": null,
      "przestoje_wt": null,
      "przestoje_sr": null,
      "przestoje_cz": null,
      "przestoje_pi": null,
      "przestoje_so": null,
      "przestoje_ni": null,
      "dojazd_pn": "2",
      "dojazd_wt": "1",
      "dojazd_sr": "1",
      "dojazd_cz": "1",
      "dojazd_pi": "2",
      "dojazd_so": null,
      "dojazd_ni": null,
      "dieta_pn": 1,
      "dieta_wt": 1,
      "dieta_sr": 1,
      "dieta_cz": 1,
      "dieta_pi": 1,
      "dieta_so": 0,
      "dieta_ni": 0
    },
    {
      "data_pn": null,
      "data_wt": null,
      "data_sr": null,
      "data_cz": null,
      "data_pi": null,
      "data_so": null,
      "data_ni": null,
      "od_pn": "00.00",
      "od_wt": "07.00",
      "od_sr": "05.00",
      "od_cz": "05.00",
      "od_pi": "05.00",
      "od_so": "00.00",
      "od_ni": "00.00",
      "do_pn": "00.00",
      "do_wt": "15.00",
      "do_sr": "15.00",
      "do_cz": "15.00",
      "do_pi": "13.00",
      "do_so": "00.00",
      "do_ni": "00.00",
      "przestoje_pn": null,
      "przestoje_wt": null,
      "przestoje_sr": null,
      "przestoje_cz": null,
      "przestoje_pi": null,
      "przestoje_so": null,
      "przestoje_ni": null,
      "dojazd_pn": null,
      "dojazd_wt": null,
      "dojazd_sr": null,
      "dojazd_cz": null,
      "dojazd_pi": null,
      "dojazd_so": null,
      "dojazd_ni": null,
      "dieta_pn": 0,
      "dieta_wt": 1,
      "dieta_sr": 1,
      "dieta_cz": 1,
      "dieta_pi": 1,
      "dieta_so": 0,
      "dieta_ni": 0
    },
    {
      "data_pn": null,
      "data_wt": null,
      "data_sr": null,
      "data_cz": null,
      "data_pi": null,
      "data_so": null,
      "data_ni": null,
      "od_pn": "07.00",
      "od_wt": "05.00",
      "od_sr": "05.00",
      "od_cz": "05.00",
      "od_pi": "05.00",
      "od_so": "00.00",
      "od_ni": "00.00",
      "do_pn": "17.00",
      "do_wt": "15.00",
      "do_sr": "15.00",
      "do_cz": "15.00",
      "do_pi": "13.00",
      "do_so": "00.00",
      "do_ni": "00.00",
      "przestoje_pn": null,
      "przestoje_wt": null,
      "przestoje_sr": null,
      "przestoje_cz": null,
      "przestoje_pi": null,
      "przestoje_so": null,
      "przestoje_ni": null,
      "dojazd_pn": null,
      "dojazd_wt": null,
      "dojazd_sr": null,
      "dojazd_cz": null,
      "dojazd_pi": null,
      "dojazd_so": null,
      "dojazd_ni": null,
      "dieta_pn": 1,
      "dieta_wt": 1,
      "dieta_sr": 1,
      "dieta_cz": 1,
      "dieta_pi": 1,
      "dieta_so": 0,
      "dieta_ni": 0
    },
    {
      "data_pn": null,
      "data_wt": null,
      "data_sr": null,
      "data_cz": null,
      "data_pi": null,
      "data_so": null,
      "data_ni": null,
      "od_pn": "07.00",
      "od_wt": "05.00",
      "od_sr": "05.00",
      "od_cz": "05.00",
      "od_pi": "05.00",
      "od_so": "00.00",
      "od_ni": "00.00",
      "do_pn": "17.00",
      "do_wt": "15.00",
      "do_sr": "15.00",
      "do_cz": "15.00",
      "do_pi": "15.00",
      "do_so": "00.00",
      "do_ni": "00.00",
      "przestoje_pn": null,
      "przestoje_wt": null,
      "przestoje_sr": null,
      "przestoje_cz": null,
      "przestoje_pi": null,
      "przestoje_so": null,
      "przestoje_ni": null,
      "dojazd_pn": null,
      "dojazd_wt": null,
      "dojazd_sr": null,
      "dojazd_cz": null,
      "dojazd_pi": null,
      "dojazd_so": null,
      "dojazd_ni": null,
      "dieta_pn": 1,
      "dieta_wt": 1,
      "dieta_sr": 1,
      "dieta_cz": 1,
      "dieta_pi": 1,
      "dieta_so": 0,
      "dieta_ni": 0
    },
    {
      "data_pn": null,
      "data_wt": null,
      "data_sr": null,
      "data_cz": null,
      "data_pi": null,
      "data_so": null,
      "data_ni": null,
      "od_pn": "07.00",
      "od_wt": "05.00",
      "od_sr": "05.00",
      "od_cz": "05.00",
      "od_pi": "05.00",
      "od_so": "00.00",
      "od_ni": "00.00",
      "do_pn": "17.00",
      "do_wt": "15.00",
      "do_sr": "15.00",
      "do_cz": "15.00",
      "do_pi": "13.00",
      "do_so": "00.00",
      "do_ni": "00.00",
      "przestoje_pn": null,
      "przestoje_wt": null,
      "przestoje_sr": null,
      "przestoje_cz": null,
      "przestoje_pi": null,
      "przestoje_so": null,
      "przestoje_ni": null,
      "dojazd_pn": null,
      "dojazd_wt": null,
      "dojazd_sr": null,
      "dojazd_cz": null,
      "dojazd_pi": null,
      "dojazd_so": null,
      "dojazd_ni": null,
      "dieta_pn": 1,
      "dieta_wt": 1,
      "dieta_sr": 1,
      "dieta_cz": 1,
      "dieta_pi": 1,
      "dieta_so": 0,
      "dieta_ni": 0
    },
    {
      "data_pn": null,
      "data_wt": null,
      "data_sr": null,
      "data_cz": null,
      "data_pi": null,
      "data_so": null,
      "data_ni": null,
      "od_pn": "07.00",
      "od_wt": "05.00",
      "od_sr": "05.00",
      "od_cz": "05.00",
      "od_pi": "05.00",
      "od_so": "00.00",
      "od_ni": "00.00",
      "do_pn": "17.00",
      "do_wt": "15.00",
      "do_sr": "15.00",
      "do_cz": "15.00",
      "do_pi": "13.00",
      "do_so": "00.00",
      "do_ni": "00.00",
      "przestoje_pn": null,
      "przestoje_wt": null,
      "przestoje_sr": null,
      "przestoje_cz": null,
      "przestoje_pi": null,
      "przestoje_so": null,
      "przestoje_ni": null,
      "dojazd_pn": null,
      "dojazd_wt": null,
      "dojazd_sr": null,
      "dojazd_cz": null,
      "dojazd_pi": null,
      "dojazd_so": null,
      "dojazd_ni": null,
      "dieta_pn": 1,
      "dieta_wt": 1,
      "dieta_sr": 1,
      "dieta_cz": 1,
      "dieta_pi": 1,
      "dieta_so": 0,
      "dieta_ni": 0
    }
  ],
  "Tydzien": {},
  "Brygadzista": {
    "Nazwa": "ŁAPTAS TOMASZ",
    "Id": 48,
    "Brygadzista": "WDOWIAK ANDREAS",
    "BrygadzistaId": 0,
    "Stanowisko": 0
  }
}
:::Tydzień:::2019.31

:::Budowa:::[823] Projekt LGCWA P3 Project. Wykonanie Obudowy i Dachu Budynku Electrode (401) oraz Budynku Formation 2 (701) [Umowa nr LGCWA-P3-WP-18-02-03-011]
***************************************
05-08-2019 06:34:08
{
  "Brygada": [
    {
      "Nazwa": "ŁAPTAS TOMASZ",
      "Id": 48,
      "Brygadzista": "WDOWIAK ANDREAS",
      "BrygadzistaId": 0,
      "Stanowisko": 0
    },
    {
      "Nazwa": "BUROV VIKTOR",
      "Id": 10866,
      "Brygadzista": "ŁAPTAS TOMASZ",
      "BrygadzistaId": 48,
      "Stanowisko": 0
    },
    {
      "Nazwa": "DRZAZGA PIOTR",
      "Id": 10741,
      "Brygadzista": "ŁAPTAS TOMASZ",
      "BrygadzistaId": 48,
      "Stanowisko": 0
    },
    {
      "Nazwa": "KUŹNIAK MARIAN",
      "Id": 10097,
      "Brygadzista": "ŁAPTAS TOMASZ",
      "BrygadzistaId": 48,
      "Stanowisko": 0
    },
    {
      "Nazwa": "SROKA JAN",
      "Id": 10007,
      "Brygadzista": "ŁAPTAS TOMASZ",
      "BrygadzistaId": 48,
      "Stanowisko": 0
    },
    {
      "Nazwa": "TWARDUŚ TOMASZ",
      "Id": 10281,
      "Brygadzista": "ŁAPTAS TOMASZ",
      "BrygadzistaId": 48,
      "Stanowisko": 0
    }
  ],
  "DniTygodnia": [
    {
      "data_pn": null,
      "data_wt": null,
      "data_sr": null,
      "data_cz": null,
      "data_pi": null,
      "data_so": null,
      "data_ni": null,
      "od_pn": "07.00",
      "od_wt": "05.00",
      "od_sr": "05.00",
      "od_cz": "05.00",
      "od_pi": "05.00",
      "od_so": "00.00",
      "od_ni": "00.00",
      "do_pn": "17.00",
      "do_wt": "15.00",
      "do_sr": "15.00",
      "do_cz": "15.00",
      "do_pi": "13.00",
      "do_so": "00.00",
      "do_ni": "00.00",
      "przestoje_pn": null,
      "przestoje_wt": null,
      "przestoje_sr": null,
      "przestoje_cz": null,
      "przestoje_pi": null,
      "przestoje_so": null,
      "przestoje_ni": null,
      "dojazd_pn": "2",
      "dojazd_wt": "1",
      "dojazd_sr": "1",
      "dojazd_cz": "1",
      "dojazd_pi": "2",
      "dojazd_so": null,
      "dojazd_ni": null,
      "dieta_pn": 1,
      "dieta_wt": 1,
      "dieta_sr": 1,
      "dieta_cz": 1,
      "dieta_pi": 1,
      "dieta_so": 0,
      "dieta_ni": 0
    },
    {
      "data_pn": null,
      "data_wt": null,
      "data_sr": null,
      "data_cz": null,
      "data_pi": null,
      "data_so": null,
      "data_ni": null,
      "od_pn": "00.00",
      "od_wt": "07.00",
      "od_sr": "05.00",
      "od_cz": "05.00",
      "od_pi": "05.00",
      "od_so": "05.00",
      "od_ni": "00.00",
      "do_pn": "00.00",
      "do_wt": "15.00",
      "do_sr": "15.00",
      "do_cz": "15.00",
      "do_pi": "13.00",
      "do_so": "11.00",
      "do_ni": "00.00",
      "przestoje_pn": null,
      "przestoje_wt": null,
      "przestoje_sr": null,
      "przestoje_cz": null,
      "przestoje_pi": null,
      "przestoje_so": null,
      "przestoje_ni": null,
      "dojazd_pn": null,
      "dojazd_wt": null,
      "dojazd_sr": null,
      "dojazd_cz": null,
      "dojazd_pi": null,
      "dojazd_so": null,
      "dojazd_ni": null,
      "dieta_pn": 0,
      "dieta_wt": 1,
      "dieta_sr": 1,
      "dieta_cz": 1,
      "dieta_pi": 1,
      "dieta_so": 1,
      "dieta_ni": 0
    },
    {
      "data_pn": null,
      "data_wt": null,
      "data_sr": null,
      "data_cz": null,
      "data_pi": null,
      "data_so": null,
      "data_ni": null,
      "od_pn": "07.00",
      "od_wt": "05.00",
      "od_sr": "05.00",
      "od_cz": "05.00",
      "od_pi": "05.00",
      "od_so": "00.00",
      "od_ni": "00.00",
      "do_pn": "17.00",
      "do_wt": "15.00",
      "do_sr": "15.00",
      "do_cz": "15.00",
      "do_pi": "13.00",
      "do_so": "00.00",
      "do_ni": "00.00",
      "przestoje_pn": null,
      "przestoje_wt": null,
      "przestoje_sr": null,
      "przestoje_cz": null,
      "przestoje_pi": null,
      "przestoje_so": null,
      "przestoje_ni": null,
      "dojazd_pn": null,
      "dojazd_wt": null,
      "dojazd_sr": null,
      "dojazd_cz": null,
      "dojazd_pi": null,
      "dojazd_so": null,
      "dojazd_ni": null,
      "dieta_pn": 1,
      "dieta_wt": 1,
      "dieta_sr": 1,
      "dieta_cz": 1,
      "dieta_pi": 1,
      "dieta_so": 0,
      "dieta_ni": 0
    },
    {
      "data_pn": null,
      "data_wt": null,
      "data_sr": null,
      "data_cz": null,
      "data_pi": null,
      "data_so": null,
      "data_ni": null,
      "od_pn": "07.00",
      "od_wt": "05.00",
      "od_sr": "05.00",
      "od_cz": "05.00",
      "od_pi": "05.00",
      "od_so": "00.00",
      "od_ni": "00.00",
      "do_pn": "17.00",
      "do_wt": "15.00",
      "do_sr": "15.00",
      "do_cz": "15.00",
      "do_pi": "15.00",
      "do_so": "00.00",
      "do_ni": "00.00",
      "przestoje_pn": null,
      "przestoje_wt": null,
      "przestoje_sr": null,
      "przestoje_cz": null,
      "przestoje_pi": null,
      "przestoje_so": null,
      "przestoje_ni": null,
      "dojazd_pn": null,
      "dojazd_wt": null,
      "dojazd_sr": null,
      "dojazd_cz": null,
      "dojazd_pi": null,
      "dojazd_so": null,
      "dojazd_ni": null,
      "dieta_pn": 1,
      "dieta_wt": 1,
      "dieta_sr": 1,
      "dieta_cz": 1,
      "dieta_pi": 1,
      "dieta_so": 0,
      "dieta_ni": 0
    },
    {
      "data_pn": null,
      "data_wt": null,
      "data_sr": null,
      "data_cz": null,
      "data_pi": null,
      "data_so": null,
      "data_ni": null,
      "od_pn": "07.00",
      "od_wt": "05.00",
      "od_sr": "05.00",
      "od_cz": "05.00",
      "od_pi": "05.00",
      "od_so": "00.00",
      "od_ni": "00.00",
      "do_pn": "17.00",
      "do_wt": "15.00",
      "do_sr": "15.00",
      "do_cz": "15.00",
      "do_pi": "13.00",
      "do_so": "00.00",
      "do_ni": "00.00",
      "przestoje_pn": null,
      "przestoje_wt": null,
      "przestoje_sr": null,
      "przestoje_cz": null,
      "przestoje_pi": null,
      "przestoje_so": null,
      "przestoje_ni": null,
      "dojazd_pn": null,
      "dojazd_wt": null,
      "dojazd_sr": null,
      "dojazd_cz": null,
      "dojazd_pi": null,
      "dojazd_so": null,
      "dojazd_ni": null,
      "dieta_pn": 1,
      "dieta_wt": 1,
      "dieta_sr": 1,
      "dieta_cz": 1,
      "dieta_pi": 1,
      "dieta_so": 0,
      "dieta_ni": 0
    },
    {
      "data_pn": null,
      "data_wt": null,
      "data_sr": null,
      "data_cz": null,
      "data_pi": null,
      "data_so": null,
      "data_ni": null,
      "od_pn": "07.00",
      "od_wt": "05.00",
      "od_sr": "05.00",
      "od_cz": "05.00",
      "od_pi": "05.00",
      "od_so": "00.00",
      "od_ni": "00.00",
      "do_pn": "17.00",
      "do_wt": "15.00",
      "do_sr": "15.00",
      "do_cz": "15.00",
      "do_pi": "13.00",
      "do_so": "00.00",
      "do_ni": "00.00",
      "przestoje_pn": null,
      "przestoje_wt": null,
      "przestoje_sr": null,
      "przestoje_cz": null,
      "przestoje_pi": null,
      "przestoje_so": null,
      "przestoje_ni": null,
      "dojazd_pn": null,
      "dojazd_wt": null,
      "dojazd_sr": null,
      "dojazd_cz": null,
      "dojazd_pi": null,
      "dojazd_so": null,
      "dojazd_ni": null,
      "dieta_pn": 1,
      "dieta_wt": 1,
      "dieta_sr": 1,
      "dieta_cz": 1,
      "dieta_pi": 1,
      "dieta_so": 0,
      "dieta_ni": 0
    }
  ],
  "Tydzien": {},
  "Brygadzista": {
    "Nazwa": "ŁAPTAS TOMASZ",
    "Id": 48,
    "Brygadzista": "WDOWIAK ANDREAS",
    "BrygadzistaId": 0,
    "Stanowisko": 0
  }
}
:::Tydzień:::2019.31

:::Budowa:::[823] Projekt LGCWA P3 Project. Wykonanie Obudowy i Dachu Budynku Electrode (401) oraz Budynku Formation 2 (701) [Umowa nr LGCWA-P3-WP-18-02-03-011]
***************************************
