19-08-2019 07:08:41
{
  "Brygada": [
    {
      "Nazwa": "ŻĄDŁO PAWEŁ",
      "Id": 38,
      "Brygadzista": "WDOWIAK ANDREAS",
      "BrygadzistaId": 0,
      "Stanowisko": 0
    },
    {
      "Nazwa": "BERNAD BOLESŁAW",
      "Id": 10853,
      "Brygadzista": "ŻĄDŁO PAWEŁ",
      "BrygadzistaId": 38,
      "Stanowisko": 0
    },
    {
      "Nazwa": "DYCHTOŃ ŁUKASZ",
      "Id": 10253,
      "Brygadzista": "ŻĄDŁO PAWEŁ",
      "BrygadzistaId": 38,
      "Stanowisko": 0
    },
    {
      "Nazwa": "HODUN VOLODYMYR",
      "Id": 10767,
      "Brygadzista": "ŻĄDŁO PAWEŁ",
      "BrygadzistaId": 38,
      "Stanowisko": 0
    },
    {
      "Nazwa": "KARANDEI VITALII",
      "Id": 10748,
      "Brygadzista": "ŻĄDŁO PAWEŁ",
      "BrygadzistaId": 38,
      "Stanowisko": 0
    },
    {
      "Nazwa": "KRYSIAK PIOTR",
      "Id": 10290,
      "Brygadzista": "ŻĄDŁO PAWEŁ",
      "BrygadzistaId": 38,
      "Stanowisko": 0
    },
    {
      "Nazwa": "MUSTIATSE DENYS",
      "Id": 10826,
      "Brygadzista": "ŻĄDŁO PAWEŁ",
      "BrygadzistaId": 38,
      "Stanowisko": 0
    },
    {
      "Nazwa": "WRÓBEL PRZEMYSŁAW",
      "Id": 10848,
      "Brygadzista": "ŻĄDŁO PAWEŁ",
      "BrygadzistaId": 38,
      "Stanowisko": 0
    }
  ],
  "DniTygodnia": [
    {
      "data_pn": null,
      "data_wt": null,
      "data_sr": null,
      "data_cz": null,
      "data_pi": null,
      "data_so": null,
      "data_ni": null,
      "od_pn": "07.00",
      "od_wt": "07.00",
      "od_sr": "07.00",
      "od_cz": "00.00",
      "od_pi": "07.00",
      "od_so": "00.00",
      "od_ni": "00.00",
      "do_pn": "17.00",
      "do_wt": "16.00",
      "do_sr": "16.15",
      "do_cz": "00.00",
      "do_pi": "16.00",
      "do_so": "00.00",
      "do_ni": "00.00",
      "przestoje_pn": null,
      "przestoje_wt": null,
      "przestoje_sr": null,
      "przestoje_cz": null,
      "przestoje_pi": null,
      "przestoje_so": null,
      "przestoje_ni": null,
      "dojazd_pn": "2",
      "dojazd_wt": "2",
      "dojazd_sr": "2",
      "dojazd_cz": null,
      "dojazd_pi": "2",
      "dojazd_so": null,
      "dojazd_ni": null,
      "dieta_pn": 1,
      "dieta_wt": 1,
      "dieta_sr": 1,
      "dieta_cz": 0,
      "dieta_pi": 1,
      "dieta_so": 0,
      "dieta_ni": 0
    },
    {
      "data_pn": null,
      "data_wt": null,
      "data_sr": null,
      "data_cz": null,
      "data_pi": null,
      "data_so": null,
      "data_ni": null,
      "od_pn": "07.00",
      "od_wt": "00.00",
      "od_sr": "00.00",
      "od_cz": "00.00",
      "od_pi": "00.00",
      "od_so": "00.00",
      "od_ni": "00.00",
      "do_pn": "17.00",
      "do_wt": "00.00",
      "do_sr": "00.00",
      "do_cz": "00.00",
      "do_pi": "00.00",
      "do_so": "00.00",
      "do_ni": "00.00",
      "przestoje_pn": null,
      "przestoje_wt": null,
      "przestoje_sr": null,
      "przestoje_cz": null,
      "przestoje_pi": null,
      "przestoje_so": null,
      "przestoje_ni": null,
      "dojazd_pn": null,
      "dojazd_wt": null,
      "dojazd_sr": null,
      "dojazd_cz": null,
      "dojazd_pi": null,
      "dojazd_so": null,
      "dojazd_ni": null,
      "dieta_pn": 1,
      "dieta_wt": 0,
      "dieta_sr": 0,
      "dieta_cz": 0,
      "dieta_pi": 0,
      "dieta_so": 0,
      "dieta_ni": 0
    },
    {
      "data_pn": null,
      "data_wt": null,
      "data_sr": null,
      "data_cz": null,
      "data_pi": null,
      "data_so": null,
      "data_ni": null,
      "od_pn": "07.00",
      "od_wt": "07.00",
      "od_sr": "07.00",
      "od_cz": "00.00",
      "od_pi": "07.00",
      "od_so": "00.00",
      "od_ni": "00.00",
      "do_pn": "17.00",
      "do_wt": "16.00",
      "do_sr": "16.15",
      "do_cz": "00.00",
      "do_pi": "16.00",
      "do_so": "00.00",
      "do_ni": "00.00",
      "przestoje_pn": null,
      "przestoje_wt": null,
      "przestoje_sr": null,
      "przestoje_cz": null,
      "przestoje_pi": null,
      "przestoje_so": null,
      "przestoje_ni": null,
      "dojazd_pn": null,
      "dojazd_wt": null,
      "dojazd_sr": null,
      "dojazd_cz": null,
      "dojazd_pi": null,
      "dojazd_so": null,
      "dojazd_ni": null,
      "dieta_pn": 1,
      "dieta_wt": 1,
      "dieta_sr": 1,
      "dieta_cz": 0,
      "dieta_pi": 1,
      "dieta_so": 0,
      "dieta_ni": 0
    },
    {
      "data_pn": null,
      "data_wt": null,
      "data_sr": null,
      "data_cz": null,
      "data_pi": null,
      "data_so": null,
      "data_ni": null,
      "od_pn": "07.00",
      "od_wt": "07.00",
      "od_sr": "07.00",
      "od_cz": "00.00",
      "od_pi": "07.00",
      "od_so": "00.00",
      "od_ni": "00.00",
      "do_pn": "17.00",
      "do_wt": "16.00",
      "do_sr": "16.15",
      "do_cz": "00.00",
      "do_pi": "16.00",
      "do_so": "00.00",
      "do_ni": "00.00",
      "przestoje_pn": null,
      "przestoje_wt": null,
      "przestoje_sr": null,
      "przestoje_cz": null,
      "przestoje_pi": null,
      "przestoje_so": null,
      "przestoje_ni": null,
      "dojazd_pn": null,
      "dojazd_wt": null,
      "dojazd_sr": null,
      "dojazd_cz": null,
      "dojazd_pi": null,
      "dojazd_so": null,
      "dojazd_ni": null,
      "dieta_pn": 1,
      "dieta_wt": 1,
      "dieta_sr": 1,
      "dieta_cz": 0,
      "dieta_pi": 1,
      "dieta_so": 0,
      "dieta_ni": 0
    },
    {
      "data_pn": null,
      "data_wt": null,
      "data_sr": null,
      "data_cz": null,
      "data_pi": null,
      "data_so": null,
      "data_ni": null,
      "od_pn": "07.00",
      "od_wt": "07.00",
      "od_sr": "07.00",
      "od_cz": "00.00",
      "od_pi": "07.00",
      "od_so": "00.00",
      "od_ni": "00.00",
      "do_pn": "17.00",
      "do_wt": "16.00",
      "do_sr": "16.15",
      "do_cz": "00.00",
      "do_pi": "16.00",
      "do_so": "00.00",
      "do_ni": "00.00",
      "przestoje_pn": null,
      "przestoje_wt": null,
      "przestoje_sr": null,
      "przestoje_cz": null,
      "przestoje_pi": null,
      "przestoje_so": null,
      "przestoje_ni": null,
      "dojazd_pn": null,
      "dojazd_wt": null,
      "dojazd_sr": null,
      "dojazd_cz": null,
      "dojazd_pi": null,
      "dojazd_so": null,
      "dojazd_ni": null,
      "dieta_pn": 1,
      "dieta_wt": 1,
      "dieta_sr": 1,
      "dieta_cz": 0,
      "dieta_pi": 1,
      "dieta_so": 0,
      "dieta_ni": 0
    },
    {
      "data_pn": null,
      "data_wt": null,
      "data_sr": null,
      "data_cz": null,
      "data_pi": null,
      "data_so": null,
      "data_ni": null,
      "od_pn": "07.00",
      "od_wt": "07.00",
      "od_sr": "07.00",
      "od_cz": "00.00",
      "od_pi": "07.00",
      "od_so": "00.00",
      "od_ni": "00.00",
      "do_pn": "17.00",
      "do_wt": "16.00",
      "do_sr": "16.15",
      "do_cz": "00.00",
      "do_pi": "16.00",
      "do_so": "00.00",
      "do_ni": "00.00",
      "przestoje_pn": null,
      "przestoje_wt": null,
      "przestoje_sr": null,
      "przestoje_cz": null,
      "przestoje_pi": null,
      "przestoje_so": null,
      "przestoje_ni": null,
      "dojazd_pn": null,
      "dojazd_wt": null,
      "dojazd_sr": null,
      "dojazd_cz": null,
      "dojazd_pi": null,
      "dojazd_so": null,
      "dojazd_ni": null,
      "dieta_pn": 1,
      "dieta_wt": 2,
      "dieta_sr": 1,
      "dieta_cz": 0,
      "dieta_pi": 1,
      "dieta_so": 0,
      "dieta_ni": 0
    },
    {
      "data_pn": null,
      "data_wt": null,
      "data_sr": null,
      "data_cz": null,
      "data_pi": null,
      "data_so": null,
      "data_ni": null,
      "od_pn": "07.00",
      "od_wt": "07.00",
      "od_sr": "07.00",
      "od_cz": "00.00",
      "od_pi": "07.00",
      "od_so": "00.00",
      "od_ni": "00.00",
      "do_pn": "17.00",
      "do_wt": "16.00",
      "do_sr": "16.15",
      "do_cz": "00.00",
      "do_pi": "16.00",
      "do_so": "00.00",
      "do_ni": "00.00",
      "przestoje_pn": null,
      "przestoje_wt": null,
      "przestoje_sr": null,
      "przestoje_cz": null,
      "przestoje_pi": null,
      "przestoje_so": null,
      "przestoje_ni": null,
      "dojazd_pn": null,
      "dojazd_wt": null,
      "dojazd_sr": null,
      "dojazd_cz": null,
      "dojazd_pi": null,
      "dojazd_so": null,
      "dojazd_ni": null,
      "dieta_pn": 1,
      "dieta_wt": 1,
      "dieta_sr": 1,
      "dieta_cz": 0,
      "dieta_pi": 1,
      "dieta_so": 0,
      "dieta_ni": 0
    },
    {
      "data_pn": null,
      "data_wt": null,
      "data_sr": null,
      "data_cz": null,
      "data_pi": null,
      "data_so": null,
      "data_ni": null,
      "od_pn": "07.00",
      "od_wt": "07.00",
      "od_sr": "07.00",
      "od_cz": "00.00",
      "od_pi": "00.00",
      "od_so": "00.00",
      "od_ni": "00.00",
      "do_pn": "17.00",
      "do_wt": "16.00",
      "do_sr": "16.15",
      "do_cz": "00.00",
      "do_pi": "00.00",
      "do_so": "00.00",
      "do_ni": "00.00",
      "przestoje_pn": null,
      "przestoje_wt": null,
      "przestoje_sr": null,
      "przestoje_cz": null,
      "przestoje_pi": null,
      "przestoje_so": null,
      "przestoje_ni": null,
      "dojazd_pn": null,
      "dojazd_wt": null,
      "dojazd_sr": null,
      "dojazd_cz": null,
      "dojazd_pi": null,
      "dojazd_so": null,
      "dojazd_ni": null,
      "dieta_pn": 1,
      "dieta_wt": 1,
      "dieta_sr": 1,
      "dieta_cz": 0,
      "dieta_pi": 0,
      "dieta_so": 0,
      "dieta_ni": 0
    }
  ],
  "Tydzien": {},
  "Brygadzista": {
    "Nazwa": "ŻĄDŁO PAWEŁ",
    "Id": 38,
    "Brygadzista": "WDOWIAK ANDREAS",
    "BrygadzistaId": 0,
    "Stanowisko": 0
  }
}
:::Tydzień:::2019.33

:::Budowa:::[833] Renowacja Solaris Opole
***************************************
