24-08-2019 06:50:21
{
  "Id": 0,
  "rok": 2019,
  "miesiac": 0,
  "brygadzistaID": 38,
  "data_wprowadzenia": "24-08-2019 12:00",
  "data_modyfikacji": null,
  "budowaID": 12362,
  "podpis": "38-38-2019.34-24-08-2019.png",
  "pracownikID": 38,
  "od_pn": "00.00",
  "do_pn": "00.00",
  "przestoje_pn": null,
  "dojazd_pn": null,
  "dieta_pn": "0",
  "od_wt": "07.00",
  "do_wt": "16.30",
  "przestoje_wt": null,
  "dojazd_wt": "2",
  "dieta_wt": "1",
  "od_sr": "07.00",
  "do_sr": "17.00",
  "przestoje_sr": null,
  "dojazd_sr": "2",
  "dieta_sr": "1",
  "od_cz": "07.00",
  "do_cz": "16.45",
  "przestoje_cz": null,
  "dojazd_cz": "2",
  "dieta_cz": "1",
  "od_pi": "07.00",
  "do_pi": "16.45",
  "przestoje_pi": null,
  "dojazd_pi": "2",
  "dieta_pi": "1",
  "od_so": "07.00",
  "do_so": "13.00",
  "przestoje_so": null,
  "dojazd_so": "2",
  "dieta_so": "1",
  "od_ni": "00.00",
  "do_ni": "00.00",
  "przestoje_ni": null,
  "dojazd_ni": null,
  "dieta_ni": "0",
  "rokTydzien": "2019.34",
  "export": 0,
  "komentarz": null
}
:::Tydzień:::2019.34

:::Budowa:::[832] Rozbudowa i przebudowa hali magazynowej Chespa - Chorula, nr umowy: 2/07/2019/B51
***************************************
24-08-2019 06:50:21
{
  "Id": 0,
  "rok": 2019,
  "miesiac": 0,
  "brygadzistaID": 38,
  "data_wprowadzenia": "24-08-2019 12:00",
  "data_modyfikacji": null,
  "budowaID": 12362,
  "podpis": "38-10253-2019.34-24-08-2019.png",
  "pracownikID": 10253,
  "od_pn": "00.00",
  "do_pn": "00.00",
  "przestoje_pn": null,
  "dojazd_pn": null,
  "dieta_pn": "0",
  "od_wt": "07.00",
  "do_wt": "16.30",
  "przestoje_wt": null,
  "dojazd_wt": null,
  "dieta_wt": "1",
  "od_sr": "07.00",
  "do_sr": "17.00",
  "przestoje_sr": null,
  "dojazd_sr": null,
  "dieta_sr": "1",
  "od_cz": "07.00",
  "do_cz": "16.45",
  "przestoje_cz": null,
  "dojazd_cz": null,
  "dieta_cz": "1",
  "od_pi": "07.00",
  "do_pi": "16.45",
  "przestoje_pi": null,
  "dojazd_pi": null,
  "dieta_pi": "1",
  "od_so": "07.00",
  "do_so": "13.00",
  "przestoje_so": null,
  "dojazd_so": null,
  "dieta_so": "1",
  "od_ni": "00.00",
  "do_ni": "00.00",
  "przestoje_ni": null,
  "dojazd_ni": null,
  "dieta_ni": "0",
  "rokTydzien": "2019.34",
  "export": 0,
  "komentarz": null
}
:::Tydzień:::2019.34

:::Budowa:::[832] Rozbudowa i przebudowa hali magazynowej Chespa - Chorula, nr umowy: 2/07/2019/B51
***************************************
24-08-2019 06:50:21
{
  "Id": 0,
  "rok": 2019,
  "miesiac": 0,
  "brygadzistaID": 38,
  "data_wprowadzenia": "24-08-2019 12:00",
  "data_modyfikacji": null,
  "budowaID": 12362,
  "podpis": "38-10767-2019.34-24-08-2019.png",
  "pracownikID": 10767,
  "od_pn": "00.00",
  "do_pn": "00.00",
  "przestoje_pn": null,
  "dojazd_pn": null,
  "dieta_pn": "0",
  "od_wt": "07.00",
  "do_wt": "16.30",
  "przestoje_wt": null,
  "dojazd_wt": null,
  "dieta_wt": "1",
  "od_sr": "07.00",
  "do_sr": "17.00",
  "przestoje_sr": null,
  "dojazd_sr": null,
  "dieta_sr": "1",
  "od_cz": "07.00",
  "do_cz": "16.45",
  "przestoje_cz": null,
  "dojazd_cz": null,
  "dieta_cz": "1",
  "od_pi": "07.00",
  "do_pi": "16.45",
  "przestoje_pi": null,
  "dojazd_pi": null,
  "dieta_pi": "1",
  "od_so": "07.00",
  "do_so": "13.00",
  "przestoje_so": null,
  "dojazd_so": null,
  "dieta_so": "1",
  "od_ni": "00.00",
  "do_ni": "00.00",
  "przestoje_ni": null,
  "dojazd_ni": null,
  "dieta_ni": "0",
  "rokTydzien": "2019.34",
  "export": 0,
  "komentarz": null
}
:::Tydzień:::2019.34

:::Budowa:::[832] Rozbudowa i przebudowa hali magazynowej Chespa - Chorula, nr umowy: 2/07/2019/B51
***************************************
24-08-2019 06:50:21
{
  "Id": 0,
  "rok": 2019,
  "miesiac": 0,
  "brygadzistaID": 38,
  "data_wprowadzenia": "24-08-2019 12:00",
  "data_modyfikacji": null,
  "budowaID": 12362,
  "podpis": "38-10748-2019.34-24-08-2019.png",
  "pracownikID": 10748,
  "od_pn": "00.00",
  "do_pn": "00.00",
  "przestoje_pn": null,
  "dojazd_pn": null,
  "dieta_pn": "0",
  "od_wt": "07.00",
  "do_wt": "16.30",
  "przestoje_wt": null,
  "dojazd_wt": null,
  "dieta_wt": "1",
  "od_sr": "07.00",
  "do_sr": "17.00",
  "przestoje_sr": null,
  "dojazd_sr": null,
  "dieta_sr": "1",
  "od_cz": "07.00",
  "do_cz": "16.45",
  "przestoje_cz": null,
  "dojazd_cz": null,
  "dieta_cz": "1",
  "od_pi": "07.00",
  "do_pi": "16.45",
  "przestoje_pi": null,
  "dojazd_pi": null,
  "dieta_pi": "1",
  "od_so": "07.00",
  "do_so": "13.00",
  "przestoje_so": null,
  "dojazd_so": null,
  "dieta_so": "1",
  "od_ni": "00.00",
  "do_ni": "00.00",
  "przestoje_ni": null,
  "dojazd_ni": null,
  "dieta_ni": "0",
  "rokTydzien": "2019.34",
  "export": 0,
  "komentarz": null
}
:::Tydzień:::2019.34

:::Budowa:::[832] Rozbudowa i przebudowa hali magazynowej Chespa - Chorula, nr umowy: 2/07/2019/B51
***************************************
24-08-2019 06:50:21
{
  "Id": 0,
  "rok": 2019,
  "miesiac": 0,
  "brygadzistaID": 38,
  "data_wprowadzenia": "24-08-2019 12:00",
  "data_modyfikacji": null,
  "budowaID": 12362,
  "podpis": "38-10290-2019.34-24-08-2019.png",
  "pracownikID": 10290,
  "od_pn": "00.00",
  "do_pn": "00.00",
  "przestoje_pn": null,
  "dojazd_pn": null,
  "dieta_pn": "0",
  "od_wt": "07.00",
  "do_wt": "16.30",
  "przestoje_wt": null,
  "dojazd_wt": null,
  "dieta_wt": "1",
  "od_sr": "07.00",
  "do_sr": "17.00",
  "przestoje_sr": null,
  "dojazd_sr": null,
  "dieta_sr": "1",
  "od_cz": "07.00",
  "do_cz": "16.45",
  "przestoje_cz": null,
  "dojazd_cz": null,
  "dieta_cz": "1",
  "od_pi": "07.00",
  "do_pi": "16.45",
  "przestoje_pi": null,
  "dojazd_pi": null,
  "dieta_pi": "1",
  "od_so": "07.00",
  "do_so": "13.00",
  "przestoje_so": null,
  "dojazd_so": null,
  "dieta_so": "1",
  "od_ni": "00.00",
  "do_ni": "00.00",
  "przestoje_ni": null,
  "dojazd_ni": null,
  "dieta_ni": "0",
  "rokTydzien": "2019.34",
  "export": 0,
  "komentarz": null
}
:::Tydzień:::2019.34

:::Budowa:::[832] Rozbudowa i przebudowa hali magazynowej Chespa - Chorula, nr umowy: 2/07/2019/B51
***************************************
24-08-2019 06:50:21
{
  "Id": 0,
  "rok": 2019,
  "miesiac": 0,
  "brygadzistaID": 38,
  "data_wprowadzenia": "24-08-2019 12:00",
  "data_modyfikacji": null,
  "budowaID": 12362,
  "podpis": "38-10826-2019.34-24-08-2019.png",
  "pracownikID": 10826,
  "od_pn": "00.00",
  "do_pn": "00.00",
  "przestoje_pn": null,
  "dojazd_pn": null,
  "dieta_pn": "0",
  "od_wt": "07.00",
  "do_wt": "16.30",
  "przestoje_wt": null,
  "dojazd_wt": null,
  "dieta_wt": "1",
  "od_sr": "07.00",
  "do_sr": "17.00",
  "przestoje_sr": null,
  "dojazd_sr": null,
  "dieta_sr": "1",
  "od_cz": "07.00",
  "do_cz": "16.45",
  "przestoje_cz": null,
  "dojazd_cz": null,
  "dieta_cz": "1",
  "od_pi": "07.00",
  "do_pi": "16.45",
  "przestoje_pi": null,
  "dojazd_pi": null,
  "dieta_pi": "1",
  "od_so": "07.00",
  "do_so": "13.00",
  "przestoje_so": null,
  "dojazd_so": null,
  "dieta_so": "1",
  "od_ni": "00.00",
  "do_ni": "00.00",
  "przestoje_ni": null,
  "dojazd_ni": null,
  "dieta_ni": "0",
  "rokTydzien": "2019.34",
  "export": 0,
  "komentarz": null
}
:::Tydzień:::2019.34

:::Budowa:::[832] Rozbudowa i przebudowa hali magazynowej Chespa - Chorula, nr umowy: 2/07/2019/B51
***************************************
24-08-2019 06:50:21
{
  "Id": 0,
  "rok": 2019,
  "miesiac": 0,
  "brygadzistaID": 38,
  "data_wprowadzenia": "24-08-2019 12:00",
  "data_modyfikacji": null,
  "budowaID": 12362,
  "podpis": "38-10848-2019.34-24-08-2019.png",
  "pracownikID": 10848,
  "od_pn": "00.00",
  "do_pn": "00.00",
  "przestoje_pn": null,
  "dojazd_pn": null,
  "dieta_pn": "0",
  "od_wt": "07.00",
  "do_wt": "16.30",
  "przestoje_wt": null,
  "dojazd_wt": null,
  "dieta_wt": "1",
  "od_sr": "07.00",
  "do_sr": "17.00",
  "przestoje_sr": null,
  "dojazd_sr": null,
  "dieta_sr": "1",
  "od_cz": "07.00",
  "do_cz": "16.45",
  "przestoje_cz": null,
  "dojazd_cz": null,
  "dieta_cz": "1",
  "od_pi": "07.00",
  "do_pi": "16.45",
  "przestoje_pi": null,
  "dojazd_pi": null,
  "dieta_pi": "1",
  "od_so": "07.00",
  "do_so": "13.00",
  "przestoje_so": null,
  "dojazd_so": null,
  "dieta_so": "1",
  "od_ni": "00.00",
  "do_ni": "00.00",
  "przestoje_ni": null,
  "dojazd_ni": null,
  "dieta_ni": "0",
  "rokTydzien": "2019.34",
  "export": 0,
  "komentarz": null
}
:::Tydzień:::2019.34

:::Budowa:::[832] Rozbudowa i przebudowa hali magazynowej Chespa - Chorula, nr umowy: 2/07/2019/B51
***************************************
